{
    "metadata": {
        "version": 4.4,
        "generator": "io_three",
        "sourceFile": "building_b_1.blend",
        "type": "Object"
    },
    "materials": [{
        "depthWrite": true,
        "depthTest": true,
        "ambient": 8026746,
        "blending": "NormalBlending",
        "specular": 65793,
        "name": "building_b_wall",
        "type": "MeshPhongMaterial",
        "color": 8026746,
        "map": "BF5CDDA8-57FD-3826-998E-6825EC62C259",
        "uuid": "BF5CDDA8-57FD-3826-998E-6825EC62C259",
        "vertexColors": false,
        "emissive": 0,
        "shininess": 50
    },{
        "depthWrite": true,
        "depthTest": true,
        "ambient": 10724259,
        "blending": "NormalBlending",
        "specular": 65793,
        "name": "door_building_b",
        "type": "MeshPhongMaterial",
        "color": 10724259,
        "map": "145BAFF9-C22E-3C74-84FD-3B6124AE8E50",
        "uuid": "145BAFF9-C22E-3C74-84FD-3B6124AE8E50",
        "vertexColors": false,
        "emissive": 0,
        "shininess": 50
    },{
        "depthWrite": true,
        "depthTest": true,
        "ambient": 10724259,
        "blending": "NormalBlending",
        "specular": 197379,
        "name": "windowb1",
        "type": "MeshPhongMaterial",
        "color": 10724259,
        "map": "9D049CC0-A2D2-37D3-AF59-8EAE06CE8CAD",
        "uuid": "D41781E5-5799-3B4D-9708-107B082119F3",
        "vertexColors": false,
        "emissive": 0,
        "shininess": 50
    }],
    "geometries": [{
        "data": {
            "metadata": {
                "version": 3,
                "generator": "io_three",
                "faces": 6,
                "uvs": 1,
                "vertices": 8
            },
            "name": "walkingGeometry",
            "uvs": [[0.333333,0.333333,0.333333,0,0.666667,0,0.666667,0.333333,0,0.666667,0,0.333333,0.333333,0.333333,0.333333,0.666667,0,0.333333,0,0,0.333333,0,0.333333,0.333333,0.333333,0.333333,0.666667,0.333333,0.666667,0.666667,0.333333,0.666667,1,0,1,0.333333,0.666667,0.333333,0.666667,0,0,0.666667,0.333333,0.666667,0.333333,1,0,1]],
            "faces": [9,2,0,1,3,2,3,0,1,9,3,7,6,2,4,5,6,7,9,7,5,4,6,8,9,10,11,9,0,4,5,1,14,15,12,13,9,0,2,6,4,16,17,18,19,9,5,7,3,1,20,21,22,23],
            "vertices": [-1,-1,-1,-1,-1,1,-1,1,-1,-1,1,1,1,-1,-1,1,-1,1,1,1,-1,1,1,1]
        },
        "uuid": "B9035BE3-48D3-35AB-B347-43D131A6A3C7",
        "type": "Geometry"
    },{
        "data": {
            "metadata": {
                "version": 3,
                "generator": "io_three",
                "faces": 644,
                "uvs": 1,
                "vertices": 490
            },
            "name": "doorGeometry",
            "uvs": [[0.005479,0.710938,0,0.710938,0,0.518229,0.005479,0.518229,0.016438,0.700383,0.010959,0.700383,0.010959,0.518229,0.016438,0.518229,0.20274,0.518229,0.208219,0.513021,0.4,0.513021,0.405479,0.518229,0,0.518229,0.00548,0.513021,0.19726,0.513021,0.20274,0.518229,0.991781,0.480458,0.986301,0.480458,0.986301,0.041402,0.991781,0.041402,0,0.078125,0.005479,0.078677,0.980822,0,0.986301,0,0.986301,0.43331,0.980822,0.43331,0.4,0.078677,0.405479,0.078125,0.980822,0.481087,0.975342,0.481087,0.975342,0.047777,0.980822,0.047777,0.19726,0.078677,0.20274,0.078125,0.969863,0,0.975342,0,0.975342,0.439056,0.969863,0.439056,0.20274,0.078125,0.208219,0.078677,0.204033,0.072992,0.206751,0.064798,0.210209,0.056861,0.214383,0.04924,0.219239,0.041995,0.224742,0.035179,0.230848,0.028844,0.237512,0.02304,0.244683,0.01781,0.252306,0.013194,0.260323,0.009227,0.268674,0.005939,0.277294,0.003356,0.286118,0.001496,0.29508,0.000375,0.30411,0,0.313139,0.000375,0.322101,0.001496,0.330925,0.003356,0.339545,0.005939,0.347896,0.009227,0.355913,0.013194,0.363536,0.01781,0.370707,0.02304,0.377371,0.028844,0.383477,0.035179,0.38898,0.041995,0.393836,0.04924,0.39801,0.056861,0.401469,0.064798,0.404186,0.072992,0.398894,0.07434,0.39632,0.06658,0.393044,0.059062,0.389091,0.051845,0.384491,0.044982,0.37928,0.038526,0.373496,0.032527,0.367185,0.02703,0.360393,0.022076,0.353173,0.017705,0.34558,0.013947,0.337671,0.010833,0.329507,0.008387,0.321149,0.006625,0.312662,0.005563,0.30411,0.005208,0.295557,0.005563,0.28707,0.006625,0.278712,0.008387,0.270548,0.010833,0.262639,0.013947,0.255046,0.017705,0.247826,0.022076,0.241034,0.02703,0.234723,0.032527,0.228939,0.038526,0.223728,0.044982,0.219128,0.051845,0.215176,0.059062,0.2119,0.06658,0.209325,0.07434,0.001293,0.072992,0.004011,0.064798,0.00747,0.056861,0.011643,0.04924,0.0165,0.041995,0.022002,0.035179,0.028108,0.028844,0.034772,0.02304,0.041943,0.01781,0.049566,0.013194,0.057583,0.009227,0.065934,0.005939,0.074554,0.003356,0.083379,0.001496,0.09234,0.000375,0.10137,0,0.1104,0.000375,0.119361,0.001496,0.128185,0.003356,0.136806,0.005939,0.145156,0.009227,0.153173,0.013194,0.160796,0.01781,0.167967,0.02304,0.174631,0.028844,0.180738,0.035179,0.18624,0.041995,0.191096,0.04924,0.19527,0.056861,0.198729,0.064798,0.201447,0.072992,0.196154,0.07434,0.19358,0.06658,0.190304,0.059062,0.186351,0.051845,0.181751,0.044982,0.17654,0.038526,0.170757,0.032527,0.164445,0.02703,0.157654,0.022076,0.150434,0.017705,0.14284,0.013947,0.134931,0.010833,0.126767,0.008387,0.118409,0.006625,0.109922,0.005563,0.10137,0.005208,0.092817,0.005563,0.08433,0.006625,0.075972,0.008387,0.067808,0.010833,0.059899,0.013947,0.052306,0.017705,0.045086,0.022076,0.038294,0.02703,0.031983,0.032527,0.0262,0.038526,0.020988,0.044982,0.016389,0.051845,0.012436,0.059062,0.00916,0.06658,0.006586,0.07434,0.969863,0.444092,0.975342,0.444092,0.969863,0.452088,0.975342,0.452088,0.969863,0.45978,0.975342,0.45978,0.969863,0.467109,0.975342,0.467109,0.969863,0.474019,0.975342,0.474019,0.969863,0.480458,0.975342,0.480458,0.969863,0.486377,0.975342,0.486377,0.021918,0.524333,0.021918,0.518229,0.027397,0.518229,0.027397,0.524333,0.021918,0.53094,0.027397,0.53094,0.021918,0.538001,0.027397,0.538001,0.021918,0.545462,0.027397,0.545462,0.021918,0.553265,0.027397,0.553265,0.021918,0.561352,0.027397,0.561352,0.021918,0.569661,0.027397,0.569661,0.021918,0.578129,0.027397,0.578129,0.021918,0.586691,0.027397,0.586691,0.021918,0.595283,0.027397,0.595283,0.021918,0.603838,0.027397,0.603838,0.021918,0.612291,0.027397,0.612291,0.021918,0.620579,0.027397,0.620579,0.021918,0.628638,0.027397,0.628638,0.021918,0.636408,0.027397,0.636408,0.021918,0.643827,0.027397,0.643827,0.021918,0.650842,0.027397,0.650842,0.021918,0.657397,0.027397,0.657397,0.021918,0.663443,0.027397,0.663443,0.986301,0.006439,0.986301,0,0.991781,0,0.991781,0.006439,0.986301,0.013349,0.991781,0.013349,0.986301,0.020678,0.991781,0.020678,0.986301,0.02837,0.991781,0.02837,0.986301,0.036366,0.991781,0.036366,0.980822,0.437709,0.986301,0.437709,0.980822,0.445619,0.986301,0.445619,0.980822,0.453334,0.986301,0.453334,0.980822,0.460793,0.986301,0.460793,0.980822,0.467941,0.986301,0.467941,0.980822,0.474723,0.986301,0.474723,0.986301,0.481087,0.032877,0.524228,0.032877,0.518229,0.038356,0.518229,0.038356,0.524228,0.032877,0.530684,0.038356,0.530684,0.032877,0.537547,0.038356,0.537547,0.032877,0.544764,0.038356,0.544764,0.032877,0.552282,0.038356,0.552282,0.032877,0.560042,0.038356,0.560042,0.032877,0.567986,0.038356,0.567986,0.032877,0.576054,0.038356,0.576054,0.032877,0.584183,0.038356,0.584183,0.032877,0.592312,0.038356,0.592312,0.032877,0.600379,0.038356,0.600379,0.032877,0.608324,0.038356,0.608324,0.032877,0.616084,0.038356,0.616084,0.032877,0.623601,0.038356,0.623601,0.032877,0.630819,0.038356,0.630819,0.032877,0.637682,0.038356,0.637682,0.032877,0.644137,0.038356,0.644137,0.032877,0.650136,0.038356,0.650136,0.975342,0.006364,0.980822,0,0.980822,0.006364,0.975342,0.013146,0.980822,0.013146,0.975342,0.020294,0.980822,0.020294,0.975342,0.027753,0.980822,0.027753,0.975342,0.035468,0.980822,0.035468,0.975342,0.043378,0.980822,0.043378,0.59726,0.073468,0.60274,0.074036,0.60274,0.502604,0.59726,0.507812,0.991781,0.522176,0.99726,0.522176,0.99726,0.949724,0.991781,0.949724,0.591781,0.074036,0.59726,0.073468,0.59726,0.507812,0.591781,0.502604,0.99726,0.43331,0.991781,0.43331,0.991781,0,0.99726,0,0.783562,0.502604,0.789041,0.507812,0.016438,0.518229,0.021918,0.518229,0.021918,0.689974,0.016438,0.689974,0.40548,0.507812,0.410959,0.502604,0.005479,0.518229,0.010959,0.518229,0.010959,0.700521,0.005479,0.700521,0.783562,0.074036,0.789041,0.073468,0.991781,0.95257,0.986301,0.95257,0.986301,0.525022,0.991781,0.525022,0.405479,0.073468,0.410959,0.074036,0.980822,0.953093,0.975342,0.953093,0.975342,0.519783,0.980822,0.519783,0.598366,0.069132,0.600941,0.061371,0.604217,0.053854,0.608169,0.046636,0.612769,0.039774,0.61798,0.033318,0.623764,0.027319,0.630075,0.021822,0.636867,0.016868,0.644087,0.012496,0.65168,0.008739,0.659589,0.005625,0.667753,0.003178,0.676111,0.001417,0.684598,0.000355,0.693151,0,0.701703,0.000355,0.71019,0.001417,0.718548,0.003178,0.726712,0.005625,0.734621,0.008739,0.742215,0.012496,0.749434,0.016868,0.756226,0.021822,0.762537,0.027319,0.768321,0.033318,0.773532,0.039774,0.778132,0.046636,0.782085,0.053854,0.785361,0.061371,0.787935,0.069132,0.782642,0.07048,0.780212,0.063153,0.777119,0.056055,0.773386,0.04924,0.769044,0.042761,0.764123,0.036666,0.758663,0.031002,0.752704,0.025811,0.746292,0.021135,0.739475,0.017007,0.732305,0.013459,0.724838,0.010519,0.71713,0.008209,0.709239,0.006546,0.701225,0.005543,0.693151,0.005208,0.685076,0.005543,0.677062,0.006546,0.669171,0.008209,0.661463,0.010519,0.653996,0.013459,0.646826,0.017007,0.64001,0.021135,0.633597,0.025811,0.627638,0.031002,0.622178,0.036666,0.617258,0.042761,0.612915,0.04924,0.609183,0.056055,0.60609,0.063153,0.603659,0.07048,0.590861,0.07048,0.588431,0.063153,0.585338,0.056055,0.581606,0.04924,0.577263,0.042761,0.572343,0.036666,0.566882,0.031002,0.560923,0.025811,0.554511,0.021135,0.547694,0.017007,0.540525,0.013459,0.533057,0.010519,0.525349,0.008209,0.517458,0.006546,0.509445,0.005543,0.50137,0.005208,0.493295,0.005543,0.485282,0.006546,0.477391,0.008209,0.469682,0.010519,0.462215,0.013459,0.455046,0.017007,0.448229,0.021135,0.441817,0.025811,0.435857,0.031002,0.430397,0.036666,0.425477,0.042761,0.421134,0.04924,0.417402,0.056055,0.414309,0.063153,0.411878,0.07048,0.406586,0.069132,0.40916,0.061371,0.412436,0.053854,0.416389,0.046636,0.420988,0.039774,0.426199,0.033318,0.431983,0.027319,0.438294,0.021822,0.445086,0.016868,0.452306,0.012496,0.459899,0.008739,0.467808,0.005625,0.475972,0.003178,0.48433,0.001417,0.492817,0.000355,0.50137,0,0.509922,0.000355,0.518409,0.001417,0.526767,0.003178,0.534931,0.005625,0.54284,0.008739,0.550434,0.012496,0.557654,0.016868,0.564445,0.021822,0.570757,0.027319,0.57654,0.033318,0.581751,0.039774,0.586351,0.046636,0.590304,0.053854,0.59358,0.061371,0.596154,0.069132,0.986301,0.521414,0.991781,0.521414,0.991781,0.518568,0.99726,0.518568,0.975342,0.51553,0.980822,0.51553,0.99726,0.437564,0.991781,0.437564,0.991781,0.513945,0.986301,0.513945,0.991781,0.506661,0.986301,0.506661,0.991781,0.499618,0.986301,0.499618,0.991781,0.49287,0.986301,0.49287,0.991781,0.486467,0.986301,0.486467,0.991781,0.480458,0.986301,0.480458,0.043836,0.637107,0.043836,0.642771,0.038356,0.642771,0.038356,0.637107,0.043836,0.631012,0.038356,0.631012,0.043836,0.624532,0.038356,0.624532,0.043836,0.617718,0.038356,0.617718,0.043836,0.61062,0.038356,0.61062,0.043836,0.603293,0.038356,0.603293,0.043836,0.595792,0.038356,0.595792,0.043836,0.588175,0.038356,0.588175,0.043836,0.5805,0.038356,0.5805,0.043836,0.572825,0.038356,0.572825,0.043836,0.565208,0.038356,0.565208,0.043836,0.557707,0.038356,0.557707,0.043836,0.55038,0.038356,0.55038,0.043836,0.543282,0.038356,0.543282,0.043836,0.536468,0.038356,0.536468,0.043836,0.529988,0.038356,0.529988,0.043836,0.523893,0.038356,0.523893,0.043836,0.518229,0.991781,0.483621,0.991781,0.477612,0.99726,0.477612,0.99726,0.483621,0.991781,0.490024,0.99726,0.490024,0.991781,0.496772,0.99726,0.496772,0.991781,0.503815,0.99726,0.503815,0.991781,0.511099,0.99726,0.511099,0.991781,0.445137,0.99726,0.445137,0.991781,0.452422,0.99726,0.452422,0.991781,0.459363,0.99726,0.459363,0.991781,0.465908,0.99726,0.465908,0.991781,0.472006,0.99726,0.472006,0.991781,0.477612,0.99726,0.477612,0.027397,0.52401,0.027397,0.518229,0.032877,0.518229,0.032877,0.52401,0.027397,0.530268,0.032877,0.530268,0.027397,0.536956,0.032877,0.536956,0.027397,0.544022,0.032877,0.544022,0.027397,0.551412,0.032877,0.551412,0.027397,0.559072,0.032877,0.559072,0.027397,0.566941,0.032877,0.566941,0.027397,0.574961,0.032877,0.574961,0.027397,0.583071,0.032877,0.583071,0.027397,0.591207,0.032877,0.591207,0.027397,0.59931,0.032877,0.59931,0.027397,0.607317,0.032877,0.607317,0.027397,0.615166,0.032877,0.615166,0.027397,0.622799,0.032877,0.622799,0.027397,0.630158,0.032877,0.630158,0.027397,0.637185,0.032877,0.637185,0.027397,0.643828,0.032877,0.643828,0.027397,0.650037,0.032877,0.650037,0.027397,0.655763,0.032877,0.655763,0.975342,0.487185,0.975342,0.481087,0.980822,0.481087,0.980822,0.487185,0.975342,0.49373,0.980822,0.49373,0.975342,0.500671,0.980822,0.500671,0.975342,0.507956,0.980822,0.507956,0.789041,0.566223,0.791781,0.566513,0.791781,0.992188,0.789041,0.994792,0.980822,0.52405,0.983562,0.52405,0.983562,0.948711,0.980822,0.948711,0.791781,0.428278,0.789041,0.428568,0.789041,0,0.791781,0.002604,0.967123,0.992188,0.969863,0.994792,0.046575,0.518229,0.046575,0.68477,0.043836,0.68477,0.969863,0,0.967123,0.002604,0.967123,0.566513,0.969863,0.566223,1,0.467624,0.99726,0.467624,0.99726,0.042963,1,0.042963,0.969863,0.428568,0.967123,0.428278,0.789961,0.562667,0.792391,0.55534,0.795484,0.548243,0.799216,0.541428,0.803559,0.534948,0.808479,0.528853,0.81394,0.523189,0.819899,0.517999,0.826311,0.513322,0.833128,0.509194,0.840297,0.505647,0.847764,0.502707,0.855473,0.500397,0.863364,0.498734,0.871377,0.497731,0.879452,0.497396,0.887527,0.497731,0.89554,0.498734,0.903431,0.500397,0.91114,0.502707,0.918607,0.505647,0.925776,0.509194,0.932593,0.513322,0.939005,0.517999,0.944964,0.523189,0.950425,0.528853,0.955345,0.534948,0.959688,0.541428,0.96342,0.548243,0.966513,0.55534,0.968943,0.562667,0.966297,0.563341,0.963938,0.556231,0.960937,0.549343,0.957315,0.54273,0.953101,0.536442,0.948326,0.530527,0.943027,0.525031,0.937244,0.519994,0.931021,0.515455,0.924406,0.51145,0.917449,0.508007,0.910203,0.505154,0.902722,0.502912,0.895064,0.501298,0.887288,0.500325,0.879452,0.5,0.871616,0.500325,0.86384,0.501298,0.856182,0.502912,0.848701,0.505154,0.841455,0.508007,0.834498,0.51145,0.827882,0.515455,0.82166,0.519994,0.815877,0.525031,0.810578,0.530527,0.805803,0.536442,0.801589,0.54273,0.797967,0.549343,0.794966,0.556231,0.792607,0.563341,0.792607,0.43145,0.794966,0.438561,0.797967,0.445449,0.801589,0.452062,0.805803,0.458349,0.810578,0.464264,0.815877,0.469761,0.82166,0.474798,0.827883,0.479336,0.834498,0.483342,0.841455,0.486785,0.848701,0.489638,0.856182,0.49188,0.86384,0.493493,0.871616,0.494466,0.879452,0.494792,0.887288,0.494466,0.895064,0.493493,0.902722,0.49188,0.910203,0.489638,0.917449,0.486785,0.924406,0.483342,0.931021,0.479336,0.937244,0.474798,0.943027,0.469761,0.948326,0.464264,0.953101,0.458349,0.957315,0.452062,0.960937,0.445449,0.963938,0.438561,0.966297,0.43145,0.968943,0.432124,0.966513,0.439451,0.96342,0.446549,0.959688,0.453364,0.955345,0.459843,0.950425,0.465938,0.944964,0.471602,0.939005,0.476793,0.932593,0.48147,0.925776,0.485597,0.918607,0.489145,0.91114,0.492085,0.903431,0.494395,0.89554,0.496058,0.887527,0.497061,0.879452,0.497396,0.871377,0.497061,0.863364,0.496058,0.855473,0.494395,0.847764,0.492085,0.840297,0.489145,0.833128,0.485597,0.826311,0.48147,0.819899,0.476793,0.81394,0.471602,0.808479,0.465938,0.803559,0.459843,0.799216,0.453364,0.795484,0.446549,0.792391,0.439451,0.789961,0.432124,0.99726,0.039745,1,0.039745,0.980822,0.520832,0.983562,0.520832,1,0.032497,0.99726,0.032497,1,0.025429,0.99726,0.025429,1,0.018594,0.99726,0.018594,1,0.012045,0.99726,0.012045,1,0.005831,0.99726,0.005831,1,0,0.049315,0.633591,0.049315,0.639088,0.046575,0.639088,0.046575,0.633591,0.049315,0.627676,0.046575,0.627676,0.049315,0.621389,0.046575,0.621389,0.049315,0.614776,0.046575,0.614776,0.049315,0.607888,0.046575,0.607888,0.049315,0.600777,0.046575,0.600777,0.049315,0.593499,0.046575,0.593499,0.049315,0.586107,0.046575,0.586107,0.049315,0.578659,0.046575,0.578659,0.049315,0.57121,0.046575,0.57121,0.049315,0.563819,0.046575,0.563819,0.049315,0.55654,0.046575,0.55654,0.049315,0.549429,0.046575,0.549429,0.049315,0.542542,0.046575,0.542542,0.049315,0.535929,0.046575,0.535929,0.049315,0.529641,0.046575,0.529641,0.049315,0.523726,0.046575,0.523726,0.049315,0.518229,0.046575,0.518229,0.980822,0.486918,0.983562,0.481087,0.983562,0.486918,0.980822,0.493132,0.983562,0.493132,0.980822,0.499681,0.983562,0.499681,0.980822,0.506515,0.983562,0.506515,0.980822,0.513584,0.983562,0.513584,0.406306,0.571154,0.408664,0.564044,0.411666,0.557156,0.415287,0.550543,0.419502,0.544255,0.424277,0.53834,0.429576,0.532843,0.435358,0.527806,0.441581,0.523268,0.448196,0.519262,0.455154,0.515819,0.4624,0.512966,0.46988,0.510725,0.477538,0.509111,0.485315,0.508138,0.493151,0.507812,0.500987,0.508138,0.508763,0.509111,0.516421,0.510725,0.523901,0.512966,0.531148,0.515819,0.538105,0.519262,0.54472,0.523268,0.550943,0.527806,0.556726,0.532843,0.562025,0.53834,0.566799,0.544255,0.571014,0.550543,0.574635,0.557156,0.577637,0.564044,0.579996,0.571154,0.580822,0.574326,0.580822,1,0.40548,1,0.405479,0.574326,0.756164,0.574326,0.756164,1,0.580822,1,0.580822,0.574326,0.581648,0.571154,0.584007,0.564044,0.587008,0.557156,0.59063,0.550543,0.594844,0.544255,0.599619,0.53834,0.604918,0.532843,0.610701,0.527806,0.616924,0.523268,0.623539,0.519262,0.630496,0.515819,0.637743,0.512966,0.645223,0.510725,0.652881,0.509111,0.660657,0.508138,0.668493,0.507812,0.676329,0.508138,0.684106,0.509111,0.691763,0.510725,0.699244,0.512966,0.70649,0.515819,0.713447,0.519262,0.720063,0.523268,0.726285,0.527806,0.732068,0.532843,0.737367,0.53834,0.742142,0.544255,0.746356,0.550543,0.749978,0.557156,0.75298,0.564044,0.755338,0.571154]],
            "faces": [9,0,1,7,6,0,1,2,3,9,3,2,4,5,4,5,6,7,9,2,0,6,4,10,11,8,9,9,1,3,5,7,12,13,14,15,9,1,0,8,9,16,17,18,19,9,3,1,9,11,13,12,20,21,9,2,3,11,10,22,23,24,25,9,0,2,10,8,11,10,26,27,9,5,4,12,13,28,29,30,31,9,7,5,13,15,15,14,32,33,9,6,7,15,14,34,35,36,37,9,4,6,14,12,9,8,38,39,8,12,14,16,39,38,40,8,16,17,18,40,41,42,8,18,19,20,42,43,44,8,20,21,22,44,45,46,8,22,23,24,46,47,48,8,24,25,26,48,49,50,8,26,27,28,50,51,52,8,28,29,30,52,53,54,8,30,31,32,54,55,56,8,32,33,34,56,57,58,8,34,35,36,58,59,60,8,36,37,38,60,61,62,8,38,39,40,62,63,64,8,40,41,42,64,65,66,8,42,43,44,66,67,68,8,44,45,46,68,69,70,8,46,8,10,70,27,26,8,10,10,47,26,26,71,8,107,12,16,101,39,40,8,46,10,47,70,26,71,8,105,107,16,100,101,40,8,46,47,49,70,71,72,8,103,105,16,99,100,40,8,46,49,51,70,72,73,8,101,103,16,98,99,40,8,46,51,53,70,73,74,8,99,101,16,97,98,40,8,46,53,55,70,74,75,8,99,16,18,97,40,42,8,44,46,55,68,70,75,8,97,99,18,96,97,42,8,44,55,57,68,75,76,8,95,97,18,95,96,42,8,44,57,59,68,76,77,8,95,18,20,95,42,44,8,42,44,59,66,68,77,8,93,95,20,94,95,44,8,42,59,61,66,77,78,8,91,93,20,93,94,44,8,42,61,63,66,78,79,8,91,20,22,93,44,46,8,40,42,63,64,66,79,8,89,91,22,92,93,46,8,40,63,65,64,79,80,8,87,89,22,91,92,46,8,40,65,67,64,80,81,8,87,22,24,91,46,48,8,38,40,67,62,64,81,8,85,87,24,90,91,48,8,38,67,69,62,81,82,8,83,85,24,89,90,48,8,38,69,71,62,82,83,8,83,24,26,89,48,50,8,36,38,71,60,62,83,8,81,83,26,88,89,50,8,36,71,73,60,83,84,8,79,81,26,87,88,50,8,36,73,75,60,84,85,8,79,26,28,87,50,52,8,34,36,75,58,60,85,8,77,79,28,86,87,52,8,34,75,77,58,85,86,8,30,32,34,54,56,58,8,77,28,30,86,52,54,8,30,34,77,54,58,86,8,11,9,139,21,20,102,8,139,138,137,102,103,104,8,137,136,135,104,105,106,8,135,134,133,106,107,108,8,133,132,131,108,109,110,8,131,130,129,110,111,112,8,129,128,127,112,113,114,8,127,126,125,114,115,116,8,125,124,123,116,117,118,8,123,122,121,118,119,120,8,121,120,119,120,121,122,8,119,118,117,122,123,124,8,117,116,115,124,125,126,8,115,114,113,126,127,128,8,113,112,111,128,129,130,8,111,110,109,130,131,132,8,109,15,13,132,33,32,8,48,11,139,163,21,102,8,109,13,108,132,32,133,8,50,48,139,162,163,102,8,109,108,106,132,133,134,8,52,50,139,161,162,102,8,109,106,104,132,134,135,8,54,52,139,160,161,102,8,109,104,102,132,135,136,8,56,54,139,159,160,102,8,109,102,100,132,136,137,8,56,139,137,159,102,104,8,111,109,100,130,132,137,8,58,56,137,158,159,104,8,111,100,98,130,137,138,8,60,58,137,157,158,104,8,111,98,96,130,138,139,8,60,137,135,157,104,106,8,113,111,96,128,130,139,8,62,60,135,156,157,106,8,113,96,94,128,139,140,8,64,62,135,155,156,106,8,113,94,92,128,140,141,8,64,135,133,155,106,108,8,115,113,92,126,128,141,8,66,64,133,154,155,108,8,115,92,90,126,141,142,8,68,66,133,153,154,108,8,115,90,88,126,142,143,8,68,133,131,153,108,110,8,117,115,88,124,126,143,8,70,68,131,152,153,110,8,117,88,86,124,143,144,8,72,70,131,151,152,110,8,117,86,84,124,144,145,8,72,131,129,151,110,112,8,119,117,84,122,124,145,8,74,72,129,150,151,112,8,119,84,82,122,145,146,8,76,74,129,149,150,112,8,119,82,80,122,146,147,8,76,129,127,149,112,114,8,121,119,80,120,122,147,8,78,76,127,148,149,114,8,121,80,78,120,147,148,8,125,123,121,116,118,120,8,78,127,125,148,114,116,8,125,121,78,116,120,148,9,16,14,15,109,164,37,36,165,9,17,16,109,110,166,164,165,167,9,18,17,110,111,168,166,167,169,9,19,18,111,112,170,168,169,171,9,20,19,112,113,172,170,171,173,9,21,20,113,114,174,172,173,175,9,22,21,114,115,176,174,175,177,9,23,22,115,116,178,179,180,181,9,24,23,116,117,182,178,181,183,9,25,24,117,118,184,182,183,185,9,26,25,118,119,186,184,185,187,9,27,26,119,120,188,186,187,189,9,28,27,120,121,190,188,189,191,9,29,28,121,122,192,190,191,193,9,30,29,122,123,194,192,193,195,9,31,30,123,124,196,194,195,197,9,32,31,124,125,198,196,197,199,9,33,32,125,126,200,198,199,201,9,34,33,126,127,202,200,201,203,9,35,34,127,128,204,202,203,205,9,36,35,128,129,206,204,205,207,9,37,36,129,130,208,206,207,209,9,38,37,130,131,210,208,209,211,9,39,38,131,132,212,210,211,213,9,40,39,132,133,214,212,213,215,9,41,40,133,134,216,214,215,217,9,42,41,134,135,218,219,220,221,9,43,42,135,136,222,218,221,223,9,44,43,136,137,224,222,223,225,9,45,44,137,138,226,224,225,227,9,46,45,138,139,228,226,227,229,9,8,46,139,9,18,228,229,19,9,47,10,11,48,230,25,24,231,9,49,47,48,50,232,230,231,233,9,51,49,50,52,234,232,233,235,9,53,51,52,54,236,234,235,237,9,55,53,54,56,238,236,237,239,9,57,55,56,58,240,238,239,241,9,59,57,58,60,28,240,241,242,9,61,59,60,62,243,244,245,246,9,63,61,62,64,247,243,246,248,9,65,63,64,66,249,247,248,250,9,67,65,66,68,251,249,250,252,9,69,67,68,70,253,251,252,254,9,71,69,70,72,255,253,254,256,9,73,71,72,74,257,255,256,258,9,75,73,74,76,259,257,258,260,9,77,75,76,78,261,259,260,262,9,79,77,78,80,263,261,262,264,9,81,79,80,82,265,263,264,266,9,83,81,82,84,267,265,266,268,9,85,83,84,86,269,267,268,270,9,87,85,86,88,271,269,270,272,9,89,87,88,90,273,271,272,274,9,91,89,90,92,275,273,274,276,9,93,91,92,94,277,275,276,278,9,95,93,94,96,279,277,278,280,9,97,95,96,98,281,35,282,283,9,99,97,98,100,284,281,283,285,9,101,99,100,102,286,284,285,287,9,103,101,102,104,288,286,287,289,9,105,103,104,106,290,288,289,291,9,107,105,106,108,292,290,291,293,9,12,107,108,13,30,292,293,31,9,140,141,145,144,294,295,296,297,9,141,142,146,145,298,299,300,301,9,142,143,147,146,302,303,304,305,9,143,140,144,147,306,307,308,309,9,144,145,149,148,297,296,310,311,9,145,146,150,149,312,313,314,315,9,146,147,151,150,305,304,316,317,9,147,144,148,151,318,319,320,321,9,148,149,153,152,311,310,322,323,9,149,150,154,153,324,325,326,327,9,150,151,155,154,317,316,328,329,9,151,148,152,155,330,331,332,333,8,278,141,140,395,295,294,8,140,156,160,294,334,335,8,160,164,168,335,336,337,8,168,172,176,337,338,339,8,176,180,184,339,340,341,8,184,188,192,341,342,343,8,192,196,200,343,344,345,8,200,204,208,345,346,347,8,208,212,216,347,348,349,8,216,220,224,349,350,351,8,224,228,232,351,352,353,8,232,236,240,353,354,355,8,240,244,248,355,356,357,8,248,252,256,357,358,359,8,256,260,264,359,360,361,8,264,268,272,361,362,363,8,272,276,152,363,364,323,8,152,153,158,323,322,365,8,274,278,140,394,395,294,8,152,158,162,323,365,366,8,270,274,140,393,394,294,8,152,162,166,323,366,367,8,266,270,140,392,393,294,8,152,166,170,323,367,368,8,266,140,160,392,294,335,8,272,152,170,363,323,368,8,262,266,160,391,392,335,8,272,170,174,363,368,369,8,258,262,160,390,391,335,8,272,174,178,363,369,370,8,258,160,168,390,335,337,8,264,272,178,361,363,370,8,254,258,168,389,390,337,8,264,178,182,361,370,371,8,250,254,168,388,389,337,8,264,182,186,361,371,372,8,250,168,176,388,337,339,8,256,264,186,359,361,372,8,246,250,176,387,388,339,8,256,186,190,359,372,373,8,242,246,176,386,387,339,8,256,190,194,359,373,374,8,242,176,184,386,339,341,8,248,256,194,357,359,374,8,238,242,184,385,386,341,8,248,194,198,357,374,375,8,234,238,184,384,385,341,8,248,198,202,357,375,376,8,234,184,192,384,341,343,8,240,248,202,355,357,376,8,230,234,192,383,384,343,8,240,202,206,355,376,377,8,226,230,192,382,383,343,8,240,206,210,355,377,378,8,226,192,200,382,343,345,8,232,240,210,353,355,378,8,222,226,200,381,382,345,8,232,210,214,353,378,379,8,218,222,200,380,381,345,8,232,214,218,353,379,380,8,216,224,232,349,351,353,8,200,208,216,345,347,349,8,216,232,218,349,353,380,8,200,216,218,345,349,380,8,159,154,155,426,329,328,8,143,142,279,303,302,396,8,163,159,155,425,426,328,8,143,279,275,303,396,397,8,167,163,155,424,425,328,8,143,275,271,303,397,398,8,171,167,155,423,424,328,8,143,271,267,303,398,399,8,171,155,277,423,328,427,8,157,143,267,457,303,399,8,175,171,277,422,423,427,8,157,267,263,457,399,400,8,175,277,273,422,427,428,8,161,157,263,456,457,400,8,179,175,273,421,422,428,8,161,263,259,456,400,401,8,179,273,269,421,428,429,8,165,161,259,455,456,401,8,183,179,269,420,421,429,8,165,259,255,455,401,402,8,183,269,265,420,429,430,8,169,165,255,454,455,402,8,187,183,265,419,420,430,8,169,255,251,454,402,403,8,187,265,261,419,430,431,8,173,169,251,453,454,403,8,191,187,261,418,419,431,8,173,251,247,453,403,404,8,191,261,257,418,431,432,8,177,173,247,452,453,404,8,195,191,257,417,418,432,8,177,247,243,452,404,405,8,195,257,253,417,432,433,8,181,177,243,451,452,405,8,199,195,253,416,417,433,8,181,243,239,451,405,406,8,199,253,249,416,433,434,8,185,181,239,450,451,406,8,203,199,249,415,416,434,8,185,239,235,450,406,407,8,203,249,245,415,434,435,8,189,185,235,449,450,407,8,207,203,245,414,415,435,8,189,235,231,449,407,408,8,207,245,241,414,435,436,8,193,189,231,448,449,408,8,211,207,241,413,414,436,8,193,231,227,448,408,409,8,211,241,237,413,436,437,8,197,193,227,447,448,409,8,215,211,237,412,413,437,8,197,227,223,447,409,410,8,215,237,233,412,437,438,8,201,197,223,446,447,410,8,219,215,233,411,412,438,8,201,223,219,446,410,411,8,209,205,201,444,445,446,8,217,213,209,442,443,444,8,225,221,217,440,441,442,8,233,229,225,438,439,440,8,209,201,219,444,446,411,8,219,233,225,411,438,440,8,225,217,209,440,442,444,8,219,225,209,411,440,444,9,153,154,159,158,327,326,458,459,9,142,141,278,279,299,298,460,461,9,155,152,276,277,333,332,462,463,9,140,143,157,156,307,306,464,465,9,162,158,159,163,466,459,458,467,9,166,162,163,167,468,466,467,469,9,170,166,167,171,470,468,469,471,9,174,170,171,175,472,470,471,473,9,178,174,175,179,474,472,473,475,9,182,178,179,183,476,474,475,477,9,186,182,183,187,478,479,480,481,9,190,186,187,191,482,478,481,483,9,194,190,191,195,484,482,483,485,9,198,194,195,199,486,484,485,487,9,202,198,199,203,488,486,487,489,9,206,202,203,207,490,488,489,491,9,210,206,207,211,492,490,491,493,9,214,210,211,215,494,492,493,495,9,218,214,215,219,496,494,495,497,9,222,218,219,223,498,496,497,499,9,226,222,223,227,500,498,499,501,9,230,226,227,231,502,500,501,503,9,234,230,231,235,504,502,503,505,9,238,234,235,239,506,504,505,507,9,242,238,239,243,508,506,507,509,9,246,242,243,247,510,508,509,511,9,250,246,247,251,512,510,511,513,9,254,250,251,255,514,512,513,245,9,258,254,255,259,515,516,517,518,9,262,258,259,263,519,515,518,520,9,266,262,263,267,521,519,520,522,9,270,266,267,271,523,521,522,524,9,274,270,271,275,525,523,524,526,9,278,274,275,279,460,525,526,461,9,160,156,157,161,527,465,464,528,9,164,160,161,165,529,527,528,530,9,168,164,165,169,531,529,530,532,9,172,168,169,173,533,531,532,534,9,176,172,173,177,535,533,534,536,9,180,176,177,181,537,535,536,538,9,184,180,181,185,539,540,541,542,9,188,184,185,189,543,539,542,544,9,192,188,189,193,545,543,544,546,9,196,192,193,197,547,545,546,548,9,200,196,197,201,549,547,548,550,9,204,200,201,205,551,549,550,552,9,208,204,205,209,553,551,552,554,9,212,208,209,213,555,553,554,556,9,216,212,213,217,557,555,556,558,9,220,216,217,221,559,557,558,560,9,224,220,221,225,561,559,560,562,9,228,224,225,229,563,561,562,564,9,232,228,229,233,565,563,564,566,9,236,232,233,237,567,565,566,568,9,240,236,237,241,569,567,568,570,9,244,240,241,245,571,569,570,572,9,248,244,245,249,573,571,572,574,9,252,248,249,253,575,573,574,576,9,256,252,253,257,577,575,576,578,9,260,256,257,261,579,580,581,582,9,264,260,261,265,583,579,582,584,9,268,264,265,269,585,583,584,586,9,272,268,269,273,587,585,586,588,9,276,272,273,277,462,587,588,463,9,280,281,285,284,589,590,591,592,9,281,282,286,285,593,594,595,596,9,282,283,287,286,597,598,599,600,9,284,285,289,288,592,591,601,602,9,285,286,290,289,514,603,604,605,9,286,287,291,290,600,599,606,607,9,288,289,293,292,602,601,608,609,9,289,290,294,293,610,611,612,613,9,290,291,295,294,607,606,614,615,8,418,281,280,677,590,589,8,280,296,300,589,616,617,8,300,304,308,617,618,619,8,308,312,316,619,620,621,8,316,320,324,621,622,623,8,324,328,332,623,624,625,8,332,336,340,625,626,627,8,340,344,348,627,628,629,8,348,352,356,629,630,631,8,356,360,364,631,632,633,8,364,368,372,633,634,635,8,372,376,380,635,636,637,8,380,384,388,637,638,639,8,388,392,396,639,640,641,8,396,400,404,641,642,643,8,404,408,412,643,644,645,8,412,416,292,645,646,609,8,292,293,298,609,608,647,8,414,418,280,676,677,589,8,292,298,302,609,647,648,8,410,414,280,675,676,589,8,292,302,306,609,648,649,8,410,280,300,675,589,617,8,412,292,306,645,609,649,8,406,410,300,674,675,617,8,412,306,310,645,649,650,8,402,406,300,673,674,617,8,412,310,314,645,650,651,8,402,300,308,673,617,619,8,404,412,314,643,645,651,8,398,402,308,672,673,619,8,404,314,318,643,651,652,8,394,398,308,671,672,619,8,404,318,322,643,652,653,8,394,308,316,671,619,621,8,396,404,322,641,643,653,8,390,394,316,670,671,621,8,396,322,326,641,653,654,8,386,390,316,669,670,621,8,396,326,330,641,654,655,8,386,316,324,669,621,623,8,388,396,330,639,641,655,8,382,386,324,668,669,623,8,388,330,334,639,655,656,8,378,382,324,667,668,623,8,388,334,338,639,656,657,8,378,324,332,667,623,625,8,380,388,338,637,639,657,8,374,378,332,666,667,625,8,380,338,342,637,657,658,8,370,374,332,665,666,625,8,380,342,346,637,658,659,8,370,332,340,665,625,627,8,372,380,346,635,637,659,8,366,370,340,664,665,627,8,372,346,350,635,659,660,8,362,366,340,663,664,627,8,372,350,354,635,660,661,8,362,340,348,663,627,629,8,364,372,354,633,635,661,8,358,362,348,662,663,629,8,364,354,358,633,661,662,8,348,356,364,629,631,633,8,348,364,358,629,633,662,8,299,294,295,708,615,614,8,283,282,419,598,597,678,8,303,299,295,707,708,614,8,283,419,415,598,678,679,8,307,303,295,706,707,614,8,283,415,411,598,679,680,8,307,295,417,706,614,709,8,297,283,411,739,598,680,8,311,307,417,705,706,709,8,297,411,407,739,680,681,8,311,417,413,705,709,710,8,301,297,407,738,739,681,8,315,311,413,704,705,710,8,301,407,403,738,681,682,8,315,413,409,704,710,711,8,305,301,403,737,738,682,8,319,315,409,703,704,711,8,305,403,399,737,682,683,8,319,409,405,703,711,712,8,309,305,399,736,737,683,8,323,319,405,702,703,712,8,309,399,395,736,683,684,8,323,405,401,702,712,713,8,313,309,395,735,736,684,8,327,323,401,701,702,713,8,313,395,391,735,684,685,8,327,401,397,701,713,714,8,317,313,391,734,735,685,8,331,327,397,700,701,714,8,317,391,387,734,685,686,8,331,397,393,700,714,715,8,321,317,387,733,734,686,8,335,331,393,699,700,715,8,321,387,383,733,686,687,8,335,393,389,699,715,716,8,325,321,383,732,733,687,8,339,335,389,698,699,716,8,325,383,379,732,687,688,8,339,389,385,698,716,717,8,329,325,379,731,732,688,8,343,339,385,697,698,717,8,329,379,375,731,688,689,8,343,385,381,697,717,718,8,333,329,375,730,731,689,8,347,343,381,696,697,718,8,333,375,371,730,689,690,8,347,381,377,696,718,719,8,337,333,371,729,730,690,8,351,347,377,695,696,719,8,337,371,367,729,690,691,8,351,377,373,695,719,720,8,341,337,367,728,729,691,8,355,351,373,694,695,720,8,341,367,363,728,691,692,8,355,373,369,694,720,721,8,345,341,363,727,728,692,8,359,355,369,693,694,721,8,345,363,359,727,692,693,8,353,349,345,725,726,727,8,361,357,353,723,724,725,8,369,365,361,721,722,723,8,353,345,359,725,727,693,8,359,369,361,693,721,723,8,359,361,353,693,723,725,9,293,294,299,298,613,612,740,741,9,282,281,418,419,594,593,742,743,9,302,298,299,303,744,741,740,745,9,306,302,303,307,746,744,745,747,9,310,306,307,311,748,746,747,749,9,314,310,311,315,750,748,749,751,9,318,314,315,319,752,750,751,753,9,322,318,319,323,754,752,753,309,9,326,322,323,327,755,756,757,758,9,330,326,327,331,759,755,758,760,9,334,330,331,335,761,759,760,762,9,338,334,335,339,763,761,762,764,9,342,338,339,343,765,763,764,766,9,346,342,343,347,767,765,766,768,9,350,346,347,351,769,767,768,770,9,354,350,351,355,771,769,770,772,9,358,354,355,359,773,771,772,774,9,362,358,359,363,775,773,774,776,9,366,362,363,367,777,775,776,778,9,370,366,367,371,779,777,778,780,9,374,370,371,375,781,779,780,782,9,378,374,375,379,783,781,782,784,9,382,378,379,383,785,783,784,786,9,386,382,383,387,787,785,786,788,9,390,386,387,391,789,787,788,790,9,394,390,391,395,791,789,790,792,9,398,394,395,399,793,28,794,795,9,402,398,399,403,796,793,795,797,9,406,402,403,407,798,796,797,799,9,410,406,407,411,800,798,799,801,9,414,410,411,415,802,800,801,803,9,418,414,415,419,742,802,803,743,8,483,421,423,838,804,805,8,423,425,427,805,806,807,8,427,429,431,807,808,809,8,431,433,435,809,810,811,8,435,437,439,811,812,813,8,439,441,443,813,814,815,8,443,445,447,815,816,817,8,447,449,451,817,818,819,8,451,453,455,819,820,821,8,455,457,459,821,822,823,8,459,461,463,823,824,825,8,463,465,467,825,826,827,8,467,469,471,827,828,829,8,471,473,475,829,830,831,8,475,477,479,831,832,833,8,479,481,489,833,834,835,8,489,487,485,835,836,837,8,485,483,423,837,838,805,8,423,427,431,805,807,809,8,431,435,439,809,811,813,8,439,443,447,813,815,817,8,447,451,455,817,819,821,8,455,459,463,821,823,825,8,463,467,471,825,827,829,8,471,475,479,829,831,833,8,479,489,485,833,835,837,8,485,423,431,837,805,809,8,431,439,447,809,813,817,8,447,455,463,817,821,825,8,463,471,479,825,829,833,8,479,485,431,833,837,809,8,431,447,463,809,817,825,8,431,463,479,809,825,833,8,420,482,484,873,839,840,8,484,486,488,840,841,842,8,488,480,478,842,843,844,8,478,476,474,844,845,846,8,474,472,470,846,847,848,8,470,468,466,848,849,850,8,466,464,462,850,851,852,8,462,460,458,852,853,854,8,458,456,454,854,855,856,8,454,452,450,856,857,858,8,450,448,446,858,859,860,8,446,444,442,860,861,862,8,442,440,438,862,863,864,8,438,436,434,864,865,866,8,434,432,430,866,867,868,8,430,428,426,868,869,870,8,426,424,422,870,871,872,8,422,420,484,872,873,840,8,484,488,478,840,842,844,8,478,474,470,844,846,848,8,470,466,462,848,850,852,8,462,458,454,852,854,856,8,454,450,446,856,858,860,8,446,442,438,860,862,864,8,438,434,430,864,866,868,8,430,426,422,868,870,872,8,422,484,478,872,840,844,8,478,470,462,844,848,852,8,462,454,446,852,856,860,8,446,438,430,860,864,868,8,430,422,478,868,872,844,8,478,462,446,844,852,860,8,478,446,430,844,860,868],
            "vertices": [-0.37,-0.01,0,-0.37,0.01,0,-0.35,-0.01,0.02,-0.35,0.01,0.02,0.35,-0.01,0.02,0.35,0.01,0.02,0.37,-0.01,0,0.37,0.01,0,-0.37,-0.01,1.69,-0.37,0.01,1.69,-0.35,-0.01,1.68788,-0.35,0.01,1.68788,0.35,-0.01,1.68788,0.35,0.01,1.68788,0.37,-0.01,1.69,0.37,0.01,1.69,0.365281,-0.01,1.70971,0.35536,-0.01,1.74117,0.342735,-0.01,1.77165,0.327502,-0.01,1.80092,0.309776,-0.01,1.82874,0.289692,-0.01,1.85491,0.267404,-0.01,1.87924,0.243081,-0.01,1.90153,0.216907,-0.01,1.92161,0.189083,-0.01,1.93934,0.15982,-0.01,1.95457,0.129341,-0.01,1.96719,0.097877,-0.01,1.97711,0.065668,-0.01,1.98426,0.032959,-0.01,1.98856,0,-0.01,1.99,-0.032959,-0.01,1.98856,-0.065668,-0.01,1.98426,-0.097877,-0.01,1.97711,-0.129341,-0.01,1.96719,-0.15982,-0.01,1.95457,-0.189083,-0.01,1.93934,-0.216907,-0.01,1.92161,-0.243081,-0.01,1.90153,-0.267404,-0.01,1.87924,-0.289692,-0.01,1.85491,-0.309776,-0.01,1.82874,-0.327502,-0.01,1.80092,-0.342735,-0.01,1.77165,-0.35536,-0.01,1.74117,-0.365281,-0.01,1.70971,-0.345962,-0.01,1.70453,-0.345962,0.01,1.70453,-0.336567,-0.01,1.73433,-0.336567,0.01,1.73433,-0.324609,-0.01,1.7632,-0.324609,0.01,1.7632,-0.310181,-0.01,1.79092,-0.310181,0.01,1.79092,-0.293393,-0.01,1.81727,-0.293393,0.01,1.81727,-0.274372,-0.01,1.84206,-0.274372,0.01,1.84206,-0.253262,-0.01,1.86509,-0.253262,0.01,1.86509,-0.230225,-0.01,1.8862,-0.230225,0.01,1.8862,-0.205436,-0.01,1.90523,-0.205436,0.01,1.90523,-0.179083,-0.01,1.92202,-0.179083,0.01,1.92202,-0.151368,-0.01,1.93644,-0.151368,0.01,1.93644,-0.1225,-0.01,1.9484,-0.1225,0.01,1.9484,-0.0927,-0.01,1.9578,-0.0927,0.01,1.9578,-0.062195,-0.01,1.96456,-0.062195,0.01,1.96456,-0.031216,-0.01,1.96864,-0.031216,0.01,1.96864,-0,-0.01,1.97,-0,0.01,1.97,0.031216,-0.01,1.96864,0.031216,0.01,1.96864,0.062195,-0.01,1.96456,0.062195,0.01,1.96456,0.0927,-0.01,1.9578,0.0927,0.01,1.9578,0.1225,-0.01,1.9484,0.1225,0.01,1.9484,0.151368,-0.01,1.93644,0.151368,0.01,1.93644,0.179083,-0.01,1.92202,0.179083,0.01,1.92202,0.205436,-0.01,1.90523,0.205436,0.01,1.90523,0.230225,-0.01,1.8862,0.230225,0.01,1.8862,0.253262,-0.01,1.86509,0.253262,0.01,1.86509,0.274372,-0.01,1.84206,0.274372,0.01,1.84206,0.293393,-0.01,1.81727,0.293393,0.01,1.81727,0.310181,-0.01,1.79092,0.310181,0.01,1.79092,0.324609,-0.01,1.7632,0.324609,0.01,1.7632,0.336567,-0.01,1.73433,0.336567,0.01,1.73433,0.345962,-0.01,1.70453,0.345962,0.01,1.70453,0.365281,0.01,1.70971,0.35536,0.01,1.74117,0.342735,0.01,1.77165,0.327502,0.01,1.80092,0.309776,0.01,1.82874,0.289692,0.01,1.85491,0.267404,0.01,1.87924,0.243081,0.01,1.90153,0.216907,0.01,1.92161,0.189083,0.01,1.93934,0.15982,0.01,1.95457,0.129341,0.01,1.96719,0.097877,0.01,1.97711,0.065668,0.01,1.98426,0.032959,0.01,1.98856,0,0.01,1.99,-0.032959,0.01,1.98856,-0.065668,0.01,1.98426,-0.097877,0.01,1.97711,-0.129341,0.01,1.96719,-0.15982,0.01,1.95457,-0.189083,0.01,1.93934,-0.216907,0.01,1.92161,-0.243081,0.01,1.90153,-0.267404,0.01,1.87924,-0.289692,0.01,1.85491,-0.309776,0.01,1.82874,-0.327502,0.01,1.80092,-0.342735,0.01,1.77165,-0.35536,0.01,1.74117,-0.365281,0.01,1.70971,0.35,0,1.68788,0.33,0,1.6857,0.33,0.02,1.6857,0.35,0.02,1.68788,0.35,0,0.02,0.33,0,0.04,0.33,0.02,0.04,0.35,0.02,0.02,-0.35,0,0.02,-0.33,0,0.04,-0.33,0.02,0.04,-0.35,0.02,0.02,-0.35,0,1.68788,-0.33,0,1.6857,-0.33,0.02,1.6857,-0.35,0.02,1.68788,0.345962,0,1.70453,0.345962,0.02,1.70453,-0.326644,0,1.69936,-0.326644,0.02,1.69936,0.336567,0,1.73433,0.336567,0.02,1.73433,-0.317773,0,1.72749,-0.317773,0.02,1.72749,0.324609,0,1.7632,0.324609,0.02,1.7632,-0.306483,0,1.75475,-0.306483,0.02,1.75475,0.310181,0,1.79092,0.310181,0.02,1.79092,-0.292861,0,1.78092,-0.292861,0.02,1.78092,0.293393,0,1.81727,0.293393,0.02,1.81727,-0.27701,0,1.8058,-0.27701,0.02,1.8058,0.274372,0,1.84206,0.274372,0.02,1.84206,-0.259051,0,1.8292,-0.259051,0.02,1.8292,0.253262,0,1.86509,0.253262,0.02,1.86509,-0.23912,0,1.85095,-0.23912,0.02,1.85095,0.230225,0,1.8862,0.230225,0.02,1.8862,-0.217369,0,1.87088,-0.217369,0.02,1.87088,0.205436,0,1.90523,0.205436,0.02,1.90523,-0.193964,0,1.88884,-0.193964,0.02,1.88884,0.179083,0,1.92202,0.179083,0.02,1.92202,-0.169083,0,1.90469,-0.169083,0.02,1.90469,0.151368,0,1.93644,0.151368,0.02,1.93644,-0.142915,0,1.91832,-0.142915,0.02,1.91832,0.1225,0,1.9484,0.1225,0.02,1.9484,-0.11566,0,1.92961,-0.11566,0.02,1.92961,0.0927,0,1.9578,0.0927,0.02,1.9578,-0.087524,0,1.93848,-0.087524,0.02,1.93848,0.062195,0,1.96456,0.062195,0.02,1.96456,-0.058722,0,1.94486,-0.058722,0.02,1.94486,0.031216,0,1.96864,0.031216,0.02,1.96864,-0.029473,0,1.94871,-0.029473,0.02,1.94871,0,0,1.97,0,0.02,1.97,-0,0,1.95,-0,0.02,1.95,-0.031216,0,1.96864,-0.031216,0.02,1.96864,0.029473,0,1.94871,0.029473,0.02,1.94871,-0.062195,0,1.96456,-0.062195,0.02,1.96456,0.058722,0,1.94486,0.058722,0.02,1.94486,-0.0927,0,1.9578,-0.0927,0.02,1.9578,0.087524,0,1.93848,0.087524,0.02,1.93848,-0.1225,0,1.9484,-0.1225,0.02,1.9484,0.11566,0,1.92961,0.11566,0.02,1.92961,-0.151368,0,1.93644,-0.151368,0.02,1.93644,0.142915,0,1.91832,0.142915,0.02,1.91832,-0.179083,0,1.92202,-0.179083,0.02,1.92202,0.169083,0,1.90469,0.169083,0.02,1.90469,-0.205436,0,1.90523,-0.205436,0.02,1.90523,0.193964,0,1.88884,0.193964,0.02,1.88884,-0.230225,0,1.8862,-0.230225,0.02,1.8862,0.217369,0,1.87088,0.217369,0.02,1.87088,-0.253262,0,1.86509,-0.253262,0.02,1.86509,0.23912,0,1.85095,0.23912,0.02,1.85095,-0.274372,0,1.84206,-0.274372,0.02,1.84206,0.259051,0,1.8292,0.259051,0.02,1.8292,-0.293393,0,1.81727,-0.293393,0.02,1.81727,0.27701,0,1.8058,0.27701,0.02,1.8058,-0.310181,0,1.79092,-0.310181,0.02,1.79092,0.292861,0,1.78092,0.292861,0.02,1.78092,-0.324609,0,1.7632,-0.324609,0.02,1.7632,0.306483,0,1.75475,0.306483,0.02,1.75475,-0.336567,0,1.73433,-0.336567,0.02,1.73433,0.317773,0,1.72749,0.317773,0.02,1.72749,-0.345962,0,1.70453,-0.345962,0.02,1.70453,0.326644,0,1.69936,0.326644,0.02,1.69936,0.33,0.005,1.6857,0.32,0.005,1.68459,0.32,0.015,1.68459,0.33,0.015,1.6857,0.33,0.005,0.04,0.32,0.005,0.05,0.32,0.015,0.05,0.33,0.015,0.04,-0.33,0.005,0.04,-0.32,0.005,0.05,-0.32,0.015,0.05,-0.33,0.015,0.04,-0.33,0.005,1.6857,-0.32,0.005,1.68459,-0.32,0.015,1.68459,-0.33,0.015,1.6857,0.326644,0.005,1.69936,0.326644,0.015,1.69936,-0.316985,0.005,1.69677,-0.316985,0.015,1.69677,0.317773,0.005,1.72749,0.317773,0.015,1.72749,-0.308376,0.005,1.72407,-0.308376,0.015,1.72407,0.306483,0.005,1.75475,0.306483,0.015,1.75475,-0.29742,0.005,1.75052,-0.29742,0.015,1.75052,0.292861,0.005,1.78092,0.292861,0.015,1.78092,-0.284201,0.005,1.77592,-0.284201,0.015,1.77592,0.27701,0.005,1.8058,0.27701,0.015,1.8058,-0.268818,0.005,1.80006,-0.268818,0.015,1.80006,0.259051,0.005,1.8292,0.259051,0.015,1.8292,-0.25139,0.005,1.82278,-0.25139,0.015,1.82278,0.23912,0.005,1.85095,0.23912,0.015,1.85095,-0.232049,0.005,1.84388,-0.232049,0.015,1.84388,0.217369,0.005,1.87088,0.217369,0.015,1.87088,-0.210941,0.005,1.86322,-0.210941,0.015,1.86322,0.193964,0.005,1.88884,0.193964,0.015,1.88884,-0.188229,0.005,1.88065,-0.188229,0.015,1.88065,0.169083,0.005,1.90469,0.169083,0.015,1.90469,-0.164083,0.005,1.89603,-0.164083,0.015,1.89603,0.142915,0.005,1.91832,0.142915,0.015,1.91832,-0.138689,0.005,1.90925,-0.138689,0.015,1.90925,0.11566,0.005,1.92961,0.11566,0.015,1.92961,-0.11224,0.005,1.92021,-0.11224,0.015,1.92021,0.087524,0.005,1.93848,0.087524,0.015,1.93848,-0.084936,0.005,1.92882,-0.084936,0.015,1.92882,0.058722,0.005,1.94486,0.058722,0.015,1.94486,-0.056986,0.005,1.93501,-0.056986,0.015,1.93501,0.029473,0.005,1.94871,0.029473,0.015,1.94871,-0.028602,0.005,1.93875,-0.028602,0.015,1.93875,0,0.005,1.95,0,0.015,1.95,-0,0.005,1.94,-0,0.015,1.94,-0.029473,0.005,1.94871,-0.029473,0.015,1.94871,0.028602,0.005,1.93875,0.028602,0.015,1.93875,-0.058722,0.005,1.94486,-0.058722,0.015,1.94486,0.056986,0.005,1.93501,0.056986,0.015,1.93501,-0.087524,0.005,1.93848,-0.087524,0.015,1.93848,0.084936,0.005,1.92882,0.084936,0.015,1.92882,-0.11566,0.005,1.92961,-0.11566,0.015,1.92961,0.11224,0.005,1.92021,0.11224,0.015,1.92021,-0.142915,0.005,1.91832,-0.142915,0.015,1.91832,0.138689,0.005,1.90925,0.138689,0.015,1.90925,-0.169083,0.005,1.90469,-0.169083,0.015,1.90469,0.164083,0.005,1.89603,0.164083,0.015,1.89603,-0.193964,0.005,1.88884,-0.193964,0.015,1.88884,0.188229,0.005,1.88065,0.188229,0.015,1.88065,-0.217369,0.005,1.87088,-0.217369,0.015,1.87088,0.210941,0.005,1.86322,0.210941,0.015,1.86322,-0.23912,0.005,1.85095,-0.23912,0.015,1.85095,0.232049,0.005,1.84388,0.232049,0.015,1.84388,-0.259051,0.005,1.8292,-0.259051,0.015,1.8292,0.25139,0.005,1.82278,0.25139,0.015,1.82278,-0.27701,0.005,1.8058,-0.27701,0.015,1.8058,0.268818,0.005,1.80006,0.268818,0.015,1.80006,-0.292861,0.005,1.78092,-0.292861,0.015,1.78092,0.284201,0.005,1.77592,0.284201,0.015,1.77592,-0.306483,0.005,1.75475,-0.306483,0.015,1.75475,0.29742,0.005,1.75052,0.29742,0.015,1.75052,-0.317773,0.005,1.72749,-0.317773,0.015,1.72749,0.308376,0.005,1.72407,0.308376,0.015,1.72407,-0.326644,0.005,1.69936,-0.326644,0.015,1.69936,0.316985,0.005,1.69677,0.316985,0.015,1.69677,-0.316985,0.005,1.69677,-0.316985,0.015,1.69677,-0.308376,0.005,1.72407,-0.308376,0.015,1.72407,-0.29742,0.005,1.75052,-0.29742,0.015,1.75052,-0.284201,0.005,1.77592,-0.284201,0.015,1.77592,-0.268818,0.005,1.80006,-0.268818,0.015,1.80006,-0.25139,0.005,1.82278,-0.25139,0.015,1.82278,-0.232049,0.005,1.84388,-0.232049,0.015,1.84388,-0.210941,0.005,1.86322,-0.210941,0.015,1.86322,-0.188229,0.005,1.88065,-0.188229,0.015,1.88065,-0.164083,0.005,1.89603,-0.164083,0.015,1.89603,-0.138689,0.005,1.90925,-0.138689,0.015,1.90925,-0.11224,0.005,1.92021,-0.11224,0.015,1.92021,-0.084936,0.005,1.92882,-0.084936,0.015,1.92882,-0.056986,0.005,1.93501,-0.056986,0.015,1.93501,-0.028602,0.005,1.93875,-0.028602,0.015,1.93875,-0,0.005,1.94,-0,0.015,1.94,0.028602,0.005,1.93875,0.028602,0.015,1.93875,0.056986,0.005,1.93501,0.056986,0.015,1.93501,0.084936,0.005,1.92882,0.084936,0.015,1.92882,0.11224,0.005,1.92021,0.11224,0.015,1.92021,0.138689,0.005,1.90925,0.138689,0.015,1.90925,0.164083,0.005,1.89603,0.164083,0.015,1.89603,0.188229,0.005,1.88065,0.188229,0.015,1.88065,0.210941,0.005,1.86322,0.210941,0.015,1.86322,0.232049,0.005,1.84388,0.232049,0.015,1.84388,0.25139,0.005,1.82278,0.25139,0.015,1.82278,0.268818,0.005,1.80006,0.268818,0.015,1.80006,0.284201,0.005,1.77592,0.284201,0.015,1.77592,0.29742,0.005,1.75052,0.29742,0.015,1.75052,0.308376,0.005,1.72407,0.308376,0.015,1.72407,0.316985,0.005,1.69677,0.316985,0.015,1.69677,-0.32,0.005,1.68459,-0.32,0.015,1.68459,-0.32,0.005,0.05,-0.32,0.015,0.05,0.32,0.005,0.05,0.32,0.015,0.05,0.32,0.005,1.68459,0.32,0.015,1.68459]
        },
        "uuid": "6FA103D9-C9DD-3111-8634-48D3A238D345",
        "type": "Geometry"
    },{
        "data": {
            "metadata": {
                "version": 3,
                "generator": "io_three",
                "faces": 6,
                "uvs": 1,
                "vertices": 8
            },
            "name": "murGeometry",
            "uvs": [[0,0,1,0,1,1,0,1,-1.05795,0.086993,2.05795,0.086993,2.05795,0.913007,-1.05795,0.913007]],
            "faces": [9,2,0,1,3,2,3,0,1,9,3,7,6,2,4,5,6,7,9,7,5,4,6,0,1,2,3,9,0,4,5,1,2,3,0,1,9,0,2,6,4,0,1,2,3,9,5,7,3,1,0,1,2,3],
            "vertices": [-1,-1,-1,-1,-1,1,-1,1,-1,-1,1,1,1,-1,-1,1,-1,1,1,1,-1,1,1,1]
        },
        "uuid": "0714D20A-E758-3ADD-9F6B-E61FEE7B342B",
        "type": "Geometry"
    },{
        "data": {
            "metadata": {
                "version": 3,
                "generator": "io_three",
                "faces": 132,
                "uvs": 1,
                "vertices": 144
            },
            "name": "windowb2Geometry",
            "uvs": [[0.028302,0.498601,0.003145,0.525628,0.003145,0.008156,0.028302,0.035183,0.889937,0.996622,0.86478,0.996622,0.86478,0.537162,0.889937,0.537162,0.613207,0.525628,0.58805,0.498601,0.58805,0.035183,0.613207,0.008156,0.896226,0.537162,0.921384,0.537162,0.921384,0.996622,0.896226,0.996622,0.95283,0.989865,0.927673,0.989865,0.927673,0.665541,0.95283,0.66554,0.007592,0.530406,0.032749,0.503378,0.275427,0.503378,0.300584,0.530405,0.996855,0.523649,0.971698,0.523649,0.971698,0.266892,0.996855,0.266892,0.889937,0.530405,0.86478,0.530405,0.86478,0.003378,0.889937,0.003378,0.336478,0.498601,0.311321,0.525628,0.311321,0.008156,0.336478,0.035183,0.896226,0.003378,0.921383,0.003378,0.921384,0.530405,0.896226,0.530405,0.60876,0.003378,0.583603,0.030405,0.340925,0.030405,0.315768,0.003378,0.305031,0.525628,0.279874,0.498601,0.279874,0.035183,0.305031,0.008156,0.620799,0.932432,0.623944,0.929054,0.854043,0.929054,0.857188,0.932432,0.619497,0.45806,0.616352,0.461438,0.616352,0.004778,0.619497,0.008156,0.854043,0.462838,0.857188,0.466216,0.620799,0.466216,0.623944,0.462838,0.996855,0.908784,0.996855,0.665541,0.623944,0.003378,0.620799,0,0.857188,0,0.854043,0.003378,0.616352,0.470994,0.619497,0.474372,0.619497,0.924276,0.616352,0.927655,0.613207,0.537162,0.613207,0.983108,0.85849,0.008156,0.861635,0.004778,0.861635,0.461438,0.85849,0.45806,0.506289,0.868243,0.506289,0.935811,0.468553,0.935811,0.468553,0.868243,0.990566,0.665541,0.990566,0.908784,0.606918,0.537162,0.606918,0.983108,0.857188,0.466216,0.854043,0.469595,0.623944,0.469595,0.620799,0.466216,0.465409,0.533784,0.465409,0.986487,0.232704,0.986487,0.232704,0.533784,0.232704,0.533784,0.232704,0.986487,0,0.986487,0,0.533784,0.300584,0.003378,0.275427,0.030405,0.032749,0.030405,0.007592,0.003378,0.861635,0.927655,0.85849,0.924276,0.85849,0.474372,0.861635,0.470994,0.984277,0.989865,0.95912,0.989865,0.959119,0.665541,0.984276,0.66554,0.996855,0.260135,0.971698,0.260135,0.971698,0.003378,0.996855,0.003378,0.512578,0.868243,0.550314,0.868243,0.550314,0.935811,0.512578,0.935811,0.965409,0.334459,0.965409,0.658784,0.927673,0.658784,0.927673,0.334459,0.600629,0.537162,0.600629,0.861487,0.537736,0.861486,0.537736,0.537162,0.468553,0.861487,0.468553,0.537162,0.531446,0.537162,0.531446,0.861486,0.927673,0.327703,0.927673,0.003378,0.965409,0.003378,0.965409,0.327703,0.955975,0.985087,0.955975,0.989865,0.95283,0.993243,0.927673,0.993243,0.924528,0.989865,0.924528,0.985087,0.971698,0.527027,0.968553,0.527027,0.968553,0.525628,0.921384,0.533784,0.924528,0.533784,0.924528,0.535183,0.86478,1,0.861635,1,0.861635,0.998601,0.277651,0.500989,0.27673,0.5,0.27673,0.496622,0.95283,0.662162,0.955975,0.665541,0.955975,0.670318,0.924528,0.670318,0.924528,0.665541,0.927673,0.662162,0.613207,0,0.61478,0.001689,0.610984,0.005767,0.889937,0,0.893082,0.003378,0.893082,0.008156,0.584906,0.037162,0.584906,0.033784,0.585827,0.032794,0.971698,0.263513,0.968553,0.263513,0.968553,0.262114,0.338702,0.032794,0.339623,0.033784,0.339623,0.037162,0.276729,0.037162,0.276729,0.033784,0.27765,0.032794,0.308176,0.003378,0.309748,0.001689,0.313544,0.005767,0.305031,0,0.306604,0.001689,0.302808,0.005767,0.990566,0.912162,0.987421,0.912162,0.987421,0.910763,0.606918,0.533784,0.610063,0.533784,0.610063,0.535183,1,0.910763,1,0.912162,0.996855,0.912162,0.625786,0.006757,0.622641,0.006757,0.62172,0.005767,0.996855,0.662162,1,0.662162,1,0.663562,0.993711,0.663562,0.993711,0.662162,0.62172,0.926665,0.622641,0.925676,0.625786,0.925676,0.616352,0.985087,0.616352,0.986487,0.613207,0.986487,0.924528,0.658784,0.531446,0.533784,0.534591,0.537162,0.468553,0.864865,0.465409,0.861487,0.465409,0.537162,0.468553,0.533784,0.537736,0.864865,0.534591,0.861487,0.534591,0.537162,0.537736,0.533784,0.603773,0.861487,0.600629,0.864865,0.550314,0.864865,0.553459,0.868243,0.996855,0.527027,0.339623,0.496622,0.622641,0.010135,0.622642,0.456081,0.340925,0.503378,0.315768,0.530406,0.968553,0.003378,0.968553,0.327703,0.305031,0.533784,0.003145,0.533784,0.855346,0.456081,0.855346,0.010135,0.852201,0.925676,0.971698,0,0.996855,0,0.273585,0.033784,0.034591,0.033784,0.965409,0.662162,0.889937,1,0.927673,0,0.965409,0,0.893082,0.525628,0.852201,0.006757,0.506289,0.939189,0.468553,0.939189,0.606918,0.986487,1,0.264913,1,0.525627,0.893082,0.008156,0.896226,0.533784,0.603773,0.985087,0.603773,0.535183,0.968553,0.334459,0.968553,0.658784,0.465409,0.935811,0.465409,0.868243,0.610063,0.985087,0.610063,0.535183,0.550314,0.939189,0.512578,0.939189,0.984277,0.993243,0.959119,0.993243,0.308176,0.003378,0.308176,0.530405,1,0.001399,1,0.262114,0.60876,0.530405,0.583603,0.503378,0.616352,0.003378,0.616352,0.530405,0.603773,0.537162,0.993711,0.663562,0.993711,0.910763,0.893082,0.998601,0.893082,0.535183,0.921384,1,0.896226,1,0.893082,0.535183,0.893082,0.998601,0.311321,0,0.553459,0.935811,0.889937,0.533784,0.86478,0.533784,0.342767,0.5,0.581761,0.5,0.987421,0.670318,0.987421,0.985087,0.534591,0.861487,0.031447,0.037162,0.031447,0.496622]],
            "faces": [9,23,14,47,54,0,1,2,3,9,31,24,59,61,4,5,6,7,9,10,18,48,43,8,9,10,11,9,17,20,53,49,12,13,14,15,9,8,12,36,32,16,17,18,19,9,15,22,29,37,20,21,22,23,9,21,16,25,30,24,25,26,27,9,13,11,42,44,28,29,30,31,9,27,34,64,56,32,33,34,35,9,33,39,70,65,36,37,38,39,9,40,51,57,67,40,41,42,43,9,38,28,60,71,44,45,46,47,9,109,110,77,72,48,49,50,51,9,81,82,95,93,52,53,54,55,9,116,118,83,80,56,57,58,59,9,86,91,102,98,60,60,61,61,9,90,94,107,103,62,63,64,65,9,97,100,111,108,66,67,68,69,9,99,105,114,112,70,70,71,71,9,104,106,119,115,72,73,74,75,9,133,140,127,121,76,77,78,79,9,113,117,79,74,80,80,81,81,9,75,78,92,89,82,82,83,83,9,85,87,101,96,84,85,86,87,9,1,0,3,2,88,89,90,91,9,4,5,6,7,92,93,94,95,9,68,63,55,46,96,97,98,99,9,73,76,88,84,100,101,102,103,9,45,41,66,69,104,105,106,107,9,50,52,62,58,108,109,110,111,9,131,141,137,124,112,113,114,115,9,136,134,120,125,116,117,118,119,9,143,138,132,135,120,121,122,123,9,126,129,123,122,124,125,126,127,9,139,142,130,128,128,129,130,131,9,8,9,10,11,16,132,133,134,9,12,13,14,15,17,135,136,137,9,16,17,18,19,25,138,139,140,9,20,21,22,23,13,141,142,143,9,24,25,26,27,5,144,145,146,9,28,29,30,31,45,147,148,149,9,32,33,34,35,19,150,151,152,9,36,37,38,39,18,153,154,155,9,40,41,42,43,40,156,157,158,9,44,45,46,47,31,159,160,161,9,48,49,50,51,10,162,163,164,9,52,53,54,55,109,165,166,167,9,56,57,58,59,35,168,169,170,9,60,61,62,63,46,171,172,173,9,64,65,66,67,34,174,175,176,9,68,69,70,71,96,177,178,179,9,74,75,76,77,81,180,181,182,9,78,79,80,81,82,183,184,185,9,86,87,88,89,60,186,187,188,9,90,91,92,93,62,189,190,191,9,98,99,100,101,61,192,193,194,9,102,103,104,105,61,195,196,192,9,110,111,112,113,49,197,198,199,9,114,115,116,117,71,200,201,202,8,120,121,122,118,155,203,8,123,124,125,126,204,205,8,126,127,128,124,206,207,8,129,130,131,125,208,209,8,132,133,134,122,210,211,8,135,136,137,123,212,213,8,138,139,140,121,214,215,8,141,142,143,113,216,217,9,93,95,94,90,55,54,63,62,9,132,138,140,133,122,121,215,210,9,8,32,35,9,16,19,152,132,9,16,21,20,17,25,24,218,138,9,27,56,59,24,32,35,170,219,9,81,93,92,78,52,55,220,221,9,98,102,105,99,61,61,192,192,9,26,35,34,27,222,223,33,32,9,63,68,71,60,97,96,47,46,9,128,130,129,126,131,130,224,225,9,15,37,36,12,20,23,226,227,9,104,115,114,105,72,75,228,229,9,77,110,113,74,50,49,199,230,9,28,38,37,29,45,44,23,22,9,58,62,61,59,111,110,231,232,9,55,63,62,52,98,97,233,234,9,120,134,133,121,118,117,235,155,9,24,31,30,25,5,4,236,144,9,130,142,141,131,130,129,237,238,9,13,44,47,14,28,31,161,239,9,115,119,118,116,75,74,57,56,9,90,103,102,91,62,65,240,189,9,123,129,131,124,126,125,209,204,9,127,140,139,128,78,77,241,242,9,89,92,91,86,83,83,243,243,9,72,77,76,73,51,50,101,100,9,21,30,29,22,24,27,244,245,9,33,65,64,34,36,39,239,246,9,65,70,69,66,39,38,141,247,9,75,89,88,76,82,83,248,249,9,43,48,51,40,11,10,41,40,9,96,101,100,97,87,86,67,66,9,134,136,135,132,117,116,250,251,9,121,127,126,122,79,78,252,253,9,32,36,39,33,19,18,155,150,9,99,112,111,100,70,71,254,255,9,124,137,136,125,115,114,256,257,9,46,55,54,47,99,98,3,2,9,80,83,82,81,59,58,53,52,9,112,114,117,113,71,71,202,202,9,41,45,44,42,105,104,258,259,9,38,71,70,39,44,47,260,261,9,103,107,106,104,65,64,73,72,9,50,58,57,51,108,111,262,263,9,9,19,18,10,264,265,9,8,9,10,43,42,11,8,11,266,267,9,138,143,142,139,121,120,268,214,9,84,88,87,85,103,102,85,84,9,86,98,101,87,60,61,194,186,9,79,117,116,80,81,80,269,270,9,14,23,22,15,1,0,21,20,9,17,49,48,18,12,15,271,272,9,49,53,52,50,15,14,273,274,9,31,61,60,28,4,7,275,276,9,40,67,66,41,40,43,277,156,9,137,141,143,135,114,113,217,278,9,11,13,12,8,29,28,279,280,9,19,26,25,16,265,222,281,282,9,45,69,68,46,104,107,283,284,9,122,123,125,120,127,126,205,285,9,74,79,78,75,81,81,180,180,9,23,54,53,20,0,3,286,287,9,56,64,67,57,35,34,43,42,9,108,111,110,109,69,68,49,48,9,35,26,19,9,223,222,265,264],
            "vertices": [-0.185,-0.005,0.06,-0.185,-0.005,0.73,0.185,-0.005,0.73,0.185,-0.005,0.06,-0.185,0.005,0.06,-0.185,0.005,0.73,0.185,0.005,0.73,0.185,0.005,0.06,-0.24,-0.02,0,-0.232929,-0.025,0.005,-0.24,-0.025,0.012071,-0.245,-0.02,0.005,-0.24,0.02,0,-0.245,0.02,0.005,-0.24,0.025,0.012071,-0.232929,0.025,0.005,-0.19,-0.02,0.05,-0.195,-0.02,0.055,-0.2,-0.025,0.052071,-0.192929,-0.025,0.045,-0.195,0.02,0.055,-0.19,0.02,0.05,-0.192929,0.025,0.045,-0.2,0.025,0.052071,0.195,-0.02,0.055,0.19,-0.02,0.05,0.192929,-0.025,0.045,0.2,-0.025,0.052071,0.2,0.025,0.052071,0.192929,0.025,0.045,0.19,0.02,0.05,0.195,0.02,0.055,0.24,-0.02,0,0.245,-0.02,0.005,0.24,-0.025,0.012071,0.232929,-0.025,0.005,0.24,0.02,0,0.232929,0.025,0.005,0.24,0.025,0.012071,0.245,0.02,0.005,-0.232929,-0.025,0.785,-0.24,-0.02,0.79,-0.245,-0.02,0.785,-0.24,-0.025,0.777929,-0.245,0.02,0.785,-0.24,0.02,0.79,-0.232929,0.025,0.785,-0.24,0.025,0.777929,-0.2,-0.025,0.737929,-0.195,-0.02,0.735,-0.19,-0.02,0.74,-0.192929,-0.025,0.745,-0.19,0.02,0.74,-0.195,0.02,0.735,-0.2,0.025,0.737929,-0.192929,0.025,0.745,0.2,-0.025,0.737929,0.192929,-0.025,0.745,0.19,-0.02,0.74,0.195,-0.02,0.735,0.2,0.025,0.737929,0.195,0.02,0.735,0.19,0.02,0.74,0.192929,0.025,0.745,0.24,-0.025,0.777929,0.245,-0.02,0.785,0.24,-0.02,0.79,0.232929,-0.025,0.785,0.232929,0.025,0.785,0.24,0.02,0.79,0.245,0.02,0.785,0.24,0.025,0.777929,-0.187929,-0.005,0.05,-0.195,-0.005,0.057071,-0.18,0,0.06,-0.185,0,0.065,-0.19,-0.005,0.062071,-0.182929,-0.005,0.055,-0.185,0,0.065,-0.18,0,0.06,-0.182929,0.005,0.055,-0.19,0.005,0.062071,-0.195,0.005,0.057071,-0.187929,0.005,0.05,-0.195,-0.005,0.732929,-0.187929,-0.005,0.74,-0.18,0,0.73,-0.182929,-0.005,0.735,-0.19,-0.005,0.727929,-0.185,0,0.725,-0.182929,0.005,0.735,-0.18,0,0.73,-0.185,0,0.725,-0.19,0.005,0.727929,-0.187929,0.005,0.74,-0.195,0.005,0.732929,0.187929,-0.005,0.74,0.195,-0.005,0.732929,0.18,0,0.73,0.185,0,0.725,0.19,-0.005,0.727929,0.182929,-0.005,0.735,0.18,0,0.73,0.182929,0.005,0.735,0.19,0.005,0.727929,0.185,0,0.725,0.195,0.005,0.732929,0.187929,0.005,0.74,0.195,-0.005,0.057071,0.187929,-0.005,0.05,0.182929,-0.005,0.055,0.19,-0.005,0.062071,0.185,0,0.065,0.18,0,0.06,0.185,0,0.065,0.19,0.005,0.062071,0.182929,0.005,0.055,0.18,0,0.06,0.187929,0.005,0.05,0.195,0.005,0.057071,-0.24,0.055,-0.005,-0.245,0.05,-0.005,-0.24,0.05,0,0.24,0.05,0,0.245,0.05,-0.005,0.24,0.055,-0.005,-0.24,-0.05,0,-0.245,-0.05,-0.005,-0.24,-0.055,-0.005,0.24,-0.05,0,0.24,-0.055,-0.005,0.245,-0.05,-0.005,-0.24,0.05,-0.07,-0.245,0.05,-0.065,-0.24,0.055,-0.065,0.24,0.05,-0.07,0.24,0.055,-0.065,0.245,0.05,-0.065,-0.24,-0.05,-0.07,-0.24,-0.055,-0.065,-0.245,-0.05,-0.065,0.245,-0.05,-0.065,0.24,-0.055,-0.065,0.24,-0.05,-0.07]
        },
        "uuid": "AE39D62A-9F79-35C6-8CA0-1FC8F43E13C2",
        "type": "Geometry"
    },{
        "data": {
            "metadata": {
                "version": 3,
                "generator": "io_three",
                "faces": 132,
                "uvs": 1,
                "vertices": 144
            },
            "name": "windowb1Geometry",
            "uvs": [[0.026999,0.50473,0.004447,0.528958,0.004447,0.004826,0.026999,0.029054,0.888635,0.995222,0.866082,0.995222,0.866082,0.538562,0.888634,0.538562,0.611905,0.528958,0.589353,0.50473,0.589353,0.029054,0.611905,0.004826,0.897529,0.538562,0.920081,0.538562,0.920081,0.995222,0.897529,0.995222,0.951527,0.988465,0.928975,0.988465,0.928975,0.66694,0.951527,0.66694,0.004492,0.529006,0.027044,0.504778,0.281132,0.504778,0.303684,0.529006,0.995553,0.522249,0.973001,0.522249,0.973001,0.268291,0.995553,0.268291,0.888635,0.529006,0.866082,0.529006,0.866082,0.004778,0.888634,0.004778,0.335175,0.50473,0.312623,0.528958,0.312623,0.004826,0.335175,0.029054,0.897529,0.004778,0.920081,0.004778,0.920081,0.529006,0.897529,0.529006,0.61186,0.004778,0.589308,0.029006,0.33522,0.029006,0.312668,0.004778,0.303729,0.528958,0.281177,0.50473,0.281177,0.029054,0.303729,0.004826,0.616397,0.932432,0.618239,0.930453,0.859749,0.930454,0.861591,0.932433,0.618194,0.464189,0.616352,0.466168,0.616352,4.8e-05,0.618194,0.002027,0.859748,0.464237,0.861591,0.466216,0.616397,0.466216,0.618239,0.464237,0.995553,0.907385,0.998158,0.907384,0.998158,0.66694,0.995553,0.66694,0.618239,0.001979,0.616397,0,0.861591,0,0.859748,0.001979,0.616352,0.466264,0.618194,0.468243,0.618194,0.930406,0.616352,0.932385,0.61451,0.538562,0.611905,0.538562,0.611905,0.981709,0.61451,0.981709,0.859793,0.002027,0.861635,4.8e-05,0.861635,0.466168,0.859793,0.464189,0.504987,0.869643,0.504987,0.934411,0.469856,0.934411,0.469856,0.869642,0.991869,0.66694,0.989263,0.66694,0.989263,0.907384,0.991868,0.907384,0.608221,0.538562,0.605616,0.538562,0.605616,0.981709,0.608221,0.981709,0.861591,0.466216,0.859748,0.468195,0.618239,0.468195,0.616397,0.466216,0.465409,0.533784,0.465409,0.986487,0.232704,0.986487,0.232704,0.533784,0.232704,0.533784,0.232704,0.986487,0,0.986487,0,0.533784,0.303684,0.004778,0.281132,0.029006,0.027044,0.029006,0.004492,0.004778,0.861635,0.932385,0.859793,0.930406,0.859793,0.468243,0.861635,0.466264,0.982974,0.988465,0.960422,0.988465,0.960422,0.66694,0.982974,0.66694,0.995553,0.258736,0.973001,0.258736,0.973001,0.004778,0.995553,0.004778,0.513881,0.869642,0.549012,0.869643,0.549012,0.934411,0.513881,0.934411,0.964106,0.335859,0.964106,0.657384,0.928975,0.657384,0.928975,0.335859,0.599326,0.538562,0.599326,0.860087,0.539038,0.860087,0.539038,0.538562,0.469856,0.860087,0.469856,0.538562,0.530144,0.538562,0.530144,0.860087,0.928975,0.326303,0.928975,0.004778,0.964106,0.004778,0.964106,0.326303,0.955975,0.988418,0.955975,0.988465,0.951527,0.993243,0.928975,0.993243,0.924528,0.988465,0.924528,0.988418,0.973001,0.527027,0.968553,0.527027,0.920081,0.533784,0.924528,0.533784,0.866082,1,0.861635,1,0.281155,0.504754,0.27673,0.5,0.27673,0.495222,0.951527,0.662162,0.955975,0.66694,0.955975,0.666988,0.924528,0.666988,0.924528,0.66694,0.928975,0.662162,0.611905,0,0.614128,0.002389,0.611883,0.004802,0.888634,0,0.893082,0.004778,0.893082,0.004826,0.584906,0.038562,0.584906,0.033784,0.58933,0.02903,0.973001,0.263513,0.968553,0.263513,0.335198,0.02903,0.339623,0.033784,0.339623,0.038562,0.276729,0.038562,0.276729,0.033784,0.281154,0.02903,0.308176,0.004778,0.3104,0.002389,0.312645,0.004802,0.303729,0,0.305952,0.002389,0.303706,0.004802,0.991868,0.912162,0.987421,0.912162,0.605615,0.533784,0.610063,0.533784,1,0.912162,0.995553,0.912162,0.627089,0.006757,0.622641,0.006757,0.618216,0.002003,0.995553,0.662162,1,0.662162,0.993711,0.662162,0.998158,0.662162,0.618217,0.93043,0.622641,0.925676,0.627089,0.925676,0.616352,0.986487,0.611905,0.986487,0.924528,0.657384,0.530144,0.533784,0.534591,0.538562,0.469856,0.864865,0.465409,0.860087,0.465409,0.538562,0.469856,0.533784,0.539038,0.864865,0.534591,0.860087,0.534591,0.538562,0.539038,0.533784,0.603773,0.860087,0.599326,0.864865,0.549012,0.864865,0.553459,0.869643,0.995553,0.527027,0.339623,0.495222,0.622641,0.011535,0.622642,0.454682,0.33522,0.504778,0.312668,0.529006,0.968553,0.004778,0.968553,0.326303,0.303729,0.533784,0.004447,0.533784,0.855346,0.454682,0.855346,0.011534,0.850899,0.925676,0.973001,0,0.995553,0,0.272282,0.033784,0.035894,0.033784,0.964106,0.662162,0.888634,1,0.928975,0,0.964106,0,0.893082,0.528958,0.850898,0.006757,0.504987,0.939189,0.469856,0.939189,0.605615,0.986487,0.608221,0.986487,1,0.263513,1,0.527027,0.893082,0.528958,0.893082,0.004826,0.897529,0.533784,0.603773,0.986487,0.603773,0.533784,0.968553,0.335859,0.968553,0.657384,0.465409,0.934411,0.465409,0.869643,0.610063,0.986487,0.549012,0.939189,0.513881,0.939189,0.61451,0.986487,0.982974,0.993243,0.960422,0.993243,0.308176,0.004778,0.308176,0.529006,1,0,0.61186,0.529006,0.589308,0.504778,0.616352,0.004778,0.616352,0.529006,0.603773,0.538562,0.993711,0.662162,0.993711,0.912162,0.893082,1,0.893082,0.533784,0.920081,1,0.897529,1,0.893082,0.533784,0.312623,0,0.553459,0.934411,0.888634,0.533784,0.866082,0.533784,0.34407,0.5,0.580458,0.5,0.987421,0.666988,0.987421,0.988418,0.534591,0.860087,0.989263,0.912162,0.031447,0.038562,0.031447,0.495222]],
            "faces": [9,23,14,47,54,0,1,2,3,9,31,24,59,61,4,5,6,7,9,10,18,48,43,8,9,10,11,9,17,20,53,49,12,13,14,15,9,8,12,36,32,16,17,18,19,9,15,22,29,37,20,21,22,23,9,21,16,25,30,24,25,26,27,9,13,11,42,44,28,29,30,31,9,27,34,64,56,32,33,34,35,9,33,39,70,65,36,37,38,39,9,40,51,57,67,40,41,42,43,9,38,28,60,71,44,45,46,47,9,109,110,77,72,48,49,50,51,9,81,82,95,93,52,53,54,55,9,116,118,83,80,56,57,58,59,9,86,91,102,98,60,61,62,63,9,90,94,107,103,64,65,66,67,9,97,100,111,108,68,69,70,71,9,99,105,114,112,72,73,74,75,9,104,106,119,115,76,77,78,79,9,133,140,127,121,80,81,82,83,9,113,117,79,74,84,85,86,87,9,75,78,92,89,88,89,90,91,9,85,87,101,96,92,93,94,95,9,1,0,3,2,96,97,98,99,9,4,5,6,7,100,101,102,103,9,68,63,55,46,104,105,106,107,9,73,76,88,84,108,109,110,111,9,45,41,66,69,112,113,114,115,9,50,52,62,58,116,117,118,119,9,131,141,137,124,120,121,122,123,9,136,134,120,125,124,125,126,127,9,143,138,132,135,128,129,130,131,9,126,129,123,122,132,133,134,135,9,139,142,130,128,136,137,138,139,9,8,9,10,11,16,140,141,142,9,12,13,14,15,17,143,144,145,9,16,17,18,19,25,146,147,147,9,20,21,22,23,13,148,149,149,9,24,25,26,27,5,150,151,151,9,28,29,30,31,45,152,153,154,9,32,33,34,35,19,155,156,157,9,36,37,38,39,18,158,159,160,9,40,41,42,43,40,161,162,163,9,44,45,46,47,31,164,165,166,9,48,49,50,51,10,167,168,169,9,52,53,54,55,117,170,171,171,9,56,57,58,59,35,172,173,174,9,60,61,62,63,46,175,176,177,9,64,65,66,67,34,178,179,180,9,68,69,70,71,104,181,182,183,9,74,75,76,77,87,184,185,185,9,78,79,80,81,89,186,187,187,9,86,87,88,89,60,188,188,189,9,90,91,92,93,64,190,191,192,9,98,99,100,101,63,193,194,194,9,102,103,104,105,62,195,195,196,9,110,111,112,113,49,197,198,199,9,114,115,116,117,74,200,200,201,8,120,121,122,126,160,202,8,123,124,125,134,203,204,8,126,127,128,132,205,206,8,129,130,131,133,207,208,8,132,133,134,130,209,210,8,135,136,137,131,211,212,8,138,139,140,129,213,214,8,141,142,143,121,215,216,9,93,95,94,90,55,54,65,64,9,132,138,140,133,130,129,214,209,9,8,32,35,9,16,19,157,140,9,16,21,20,17,25,24,217,146,9,27,56,59,24,32,35,174,218,9,81,93,92,78,52,55,219,220,9,98,102,105,99,63,62,196,193,9,26,35,34,27,221,222,33,32,9,63,68,71,60,105,104,47,46,9,128,130,129,126,139,138,223,224,9,15,37,36,12,20,23,225,226,9,104,115,114,105,76,79,227,228,9,77,110,113,74,50,49,199,229,9,28,38,37,29,45,44,23,22,9,58,62,61,59,119,118,230,231,9,55,63,62,52,106,105,232,233,9,120,134,133,121,126,125,234,160,9,24,31,30,25,5,4,235,150,9,130,142,141,131,138,137,236,237,9,13,44,47,14,28,31,166,238,9,115,119,118,116,79,78,57,56,9,90,103,102,91,64,67,239,190,9,123,129,131,124,134,133,208,203,9,127,140,139,128,82,81,240,241,9,89,92,91,86,91,90,242,243,9,72,77,76,73,51,50,109,108,9,21,30,29,22,24,27,244,245,9,33,65,64,34,36,39,246,247,9,65,70,69,66,39,38,148,248,9,75,89,88,76,88,91,249,250,9,43,48,51,40,11,10,41,40,9,96,101,100,97,95,94,69,68,9,134,136,135,132,125,124,251,252,9,121,127,126,122,83,82,253,254,9,32,36,39,33,19,18,160,155,9,99,112,111,100,72,75,255,187,9,124,137,136,125,123,122,256,257,9,46,55,54,47,107,106,3,2,9,80,83,82,81,59,58,53,52,9,112,114,117,113,75,74,201,258,9,41,45,44,42,113,112,259,260,9,38,71,70,39,44,47,261,262,9,103,107,106,104,67,66,77,76,9,50,58,57,51,116,119,263,244,9,9,19,18,10,264,265,9,8,9,10,43,42,11,8,11,266,267,9,138,143,142,139,129,128,268,213,9,84,88,87,85,111,110,93,92,9,86,98,101,87,60,63,194,188,9,79,117,116,80,86,85,269,270,9,14,23,22,15,1,0,21,20,9,17,49,48,18,12,15,271,272,9,49,53,52,50,15,14,273,274,9,31,61,60,28,4,7,275,271,9,40,67,66,41,40,43,276,161,9,137,141,143,135,122,121,216,277,9,11,13,12,8,29,28,278,279,9,19,26,25,16,265,221,280,281,9,45,69,68,46,112,115,282,283,9,122,123,125,120,135,134,204,284,9,74,79,78,75,87,86,285,184,9,23,54,53,20,0,3,286,287,9,56,64,67,57,35,34,43,42,9,108,111,110,109,71,70,49,48,9,35,26,19,9,222,221,265,264],
            "vertices": [-0.185,-0.005,0.06,-0.185,-0.005,0.73,0.185,-0.005,0.73,0.185,-0.005,0.06,-0.185,0.005,0.06,-0.185,0.005,0.73,0.185,0.005,0.73,0.185,0.005,0.06,-0.237929,-0.017929,0,-0.237858,-0.025,0.007071,-0.237929,-0.025,0.007142,-0.245,-0.017929,0.007071,-0.237929,0.017929,0,-0.245,0.017929,0.007071,-0.237929,0.025,0.007142,-0.237858,0.025,0.007071,-0.187929,-0.017929,0.05,-0.195,-0.017929,0.057071,-0.202071,-0.025,0.043,-0.202,-0.025,0.042929,-0.195,0.017929,0.057071,-0.187929,0.017929,0.05,-0.202,0.025,0.042929,-0.202071,0.025,0.043,0.195,-0.017929,0.057071,0.187929,-0.017929,0.05,0.202,-0.025,0.042929,0.202071,-0.025,0.043,0.202071,0.025,0.043,0.202,0.025,0.042929,0.187929,0.017929,0.05,0.195,0.017929,0.057071,0.237929,-0.017929,0,0.245,-0.017929,0.007071,0.237929,-0.025,0.007142,0.237858,-0.025,0.007071,0.237929,0.017929,0,0.237858,0.025,0.007071,0.237929,0.025,0.007142,0.245,0.017929,0.007071,-0.237858,-0.025,0.782929,-0.237929,-0.017929,0.79,-0.245,-0.017929,0.782929,-0.237929,-0.025,0.782858,-0.245,0.017929,0.782929,-0.237929,0.017929,0.79,-0.237858,0.025,0.782929,-0.237929,0.025,0.782858,-0.202071,-0.025,0.747,-0.195,-0.017929,0.732929,-0.187929,-0.017929,0.74,-0.202,-0.025,0.747071,-0.187929,0.017929,0.74,-0.195,0.017929,0.732929,-0.202071,0.025,0.747,-0.202,0.025,0.747071,0.202071,-0.025,0.747,0.202,-0.025,0.747071,0.187929,-0.017929,0.74,0.195,-0.017929,0.732929,0.202071,0.025,0.747,0.195,0.017929,0.732929,0.187929,0.017929,0.74,0.202,0.025,0.747071,0.237929,-0.025,0.782858,0.245,-0.017929,0.782929,0.237929,-0.017929,0.79,0.237858,-0.025,0.782929,0.237858,0.025,0.782929,0.237929,0.017929,0.79,0.245,0.017929,0.782929,0.237929,0.025,0.782858,-0.194929,-0.005,0.05,-0.195,-0.005,0.050071,-0.177929,0.002071,0.06,-0.185,0.002071,0.067071,-0.192071,-0.005,0.053,-0.192,-0.005,0.052929,-0.185,-0.002071,0.067071,-0.177929,-0.002071,0.06,-0.192,0.005,0.052929,-0.192071,0.005,0.053,-0.195,0.005,0.050071,-0.194929,0.005,0.05,-0.195,-0.005,0.739929,-0.194929,-0.005,0.74,-0.177929,0.002071,0.73,-0.192,-0.005,0.737071,-0.192071,-0.005,0.737,-0.185,0.002071,0.722929,-0.192,0.005,0.737071,-0.177929,-0.002071,0.73,-0.185,-0.002071,0.722929,-0.192071,0.005,0.737,-0.194929,0.005,0.74,-0.195,0.005,0.739929,0.194929,-0.005,0.74,0.195,-0.005,0.739929,0.177929,0.002071,0.73,0.185,0.002071,0.722929,0.192071,-0.005,0.737,0.192,-0.005,0.737071,0.177929,-0.002071,0.73,0.192,0.005,0.737071,0.192071,0.005,0.737,0.185,-0.002071,0.722929,0.195,0.005,0.739929,0.194929,0.005,0.74,0.195,-0.005,0.050071,0.194929,-0.005,0.05,0.192,-0.005,0.052929,0.192071,-0.005,0.053,0.185,0.002071,0.067071,0.177929,0.002071,0.06,0.185,-0.002071,0.067071,0.192071,0.005,0.053,0.192,0.005,0.052929,0.177929,-0.002071,0.06,0.194929,0.005,0.05,0.195,0.005,0.050071,-0.237929,0.055,-0.007071,-0.245,0.047929,-0.007071,-0.237929,0.047929,0,0.237929,0.047929,0,0.245,0.047929,-0.007071,0.237929,0.055,-0.007071,-0.237929,-0.047929,0,-0.245,-0.047929,-0.007071,-0.237929,-0.055,-0.007071,0.237929,-0.047929,0,0.237929,-0.055,-0.007071,0.245,-0.047929,-0.007071,-0.237929,0.047929,-0.07,-0.245,0.047929,-0.062929,-0.237929,0.055,-0.062929,0.237929,0.047929,-0.07,0.237929,0.055,-0.062929,0.245,0.047929,-0.062929,-0.237929,-0.047929,-0.07,-0.237929,-0.055,-0.062929,-0.245,-0.047929,-0.062929,0.245,-0.047929,-0.062929,0.237929,-0.055,-0.062929,0.237929,-0.047929,-0.07]
        },
        "uuid": "AF404E13-8139-399E-83C2-17731EDC0CBF",
        "type": "Geometry"
    }],
    "images": [{
        "url": "building_b_wall.png",
        "name": "brun_bricks.png",
        "uuid": "B6983CA5-4236-3EBC-A903-B91DC9C99FE4"
    },{
        "url": "building_b_1_door.png",
        "name": "building_b_1_door.png",
        "uuid": "2AAD3C91-ED7C-3E18-9736-BC4150CD721A"
    },{
        "url": "building_b_1_window.png",
        "name": "building_b_1_window.png",
        "uuid": "FD86B6F1-9B91-3EDC-ACF4-BB77BAD309FB"
    }],
    "animations": [{
        "fps": 24,
        "name": "default",
        "tracks": []
    }],
    "object": {
        "matrix": [1,0,0,0,0,1,0,0,0,0,1,0,0,0,0,1],
        "uuid": "85CFCD3B-72FF-4A30-820F-D391EBD84E16",
        "children": [{
            "name": "door",
            "uuid": "C1EA2F1A-16B7-3FA2-9862-E00B6FD8C275",
            "matrix": [-1,0,0,0,0,0,1,0,0,0.720088,0,0,-0.013225,-0.010842,0.022471,1],
            "visible": true,
            "type": "Mesh",
            "material": "145BAFF9-C22E-3C74-84FD-3B6124AE8E50",
            "castShadow": true,
            "receiveShadow": true,
            "geometry": "6FA103D9-C9DD-3111-8634-48D3A238D345"
        },{
            "name": "mur",
            "uuid": "8E29A5A6-3880-32FE-9958-B996DE0272BC",
            "matrix": [-1.5,0,0,0,0,0,0.02,0,0,0.5,0,0,0,0.5,0,1],
            "visible": true,
            "type": "Mesh",
            "material": "BF5CDDA8-57FD-3826-998E-6825EC62C259",
            "castShadow": true,
            "receiveShadow": true,
            "geometry": "0714D20A-E758-3ADD-9F6B-E61FEE7B342B"
        },{
            "name": "walking",
            "uuid": "147C846B-1FC7-3F1C-9113-5B89BAE4DA18",
            "matrix": [-0.3731,0,0,0,0,0,0.323306,0,0,-0.016685,0,0,-0.000177,-0.005968,0.286972,1],
            "visible": true,
            "type": "Mesh",
            "material": "BF5CDDA8-57FD-3826-998E-6825EC62C259",
            "castShadow": true,
            "receiveShadow": true,
            "geometry": "B9035BE3-48D3-35AB-B347-43D131A6A3C7"
        },{
            "name": "windowb1",
            "uuid": "D41781E5-5799-3B4D-9708-107B082119F3",
            "matrix": [-1,0,0,0,0,0,1,0,0,0.992,0,0,0.73607,0.5076,0.02,1],
            "visible": true,
            "type": "Mesh",
            "material": "D41781E5-5799-3B4D-9708-107B082119F3",
            "castShadow": true,
            "receiveShadow": true,
            "geometry": "AF404E13-8139-399E-83C2-17731EDC0CBF"
        },{
            "name": "windowb2",
            "uuid": "67342953-ACA3-372C-8FEF-669FD8BF6AD2",
            "matrix": [-1,0,0,0,0,0,1,0,0,0.992,0,0,-0.73607,0.5076,0.02,1],
            "visible": true,
            "type": "Mesh",
            "material": "D41781E5-5799-3B4D-9708-107B082119F3",
            "castShadow": true,
            "receiveShadow": true,
            "geometry": "AE39D62A-9F79-35C6-8CA0-1FC8F43E13C2"
        }],
        "type": "Scene"
    },
    "textures": [{
        "minFilter": 1008,
        "image": "B6983CA5-4236-3EBC-A903-B91DC9C99FE4",
        "magFilter": 1006,
        "uuid": "BF5CDDA8-57FD-3826-998E-6825EC62C259",
        "repeat": [1,1],
        "mapping": 300,
        "name": "building_b_wall",
        "anisotropy": 1,
        "wrap": [1000,1000]
    },{
        "minFilter": 1008,
        "image": "2AAD3C91-ED7C-3E18-9736-BC4150CD721A",
        "magFilter": 1006,
        "uuid": "145BAFF9-C22E-3C74-84FD-3B6124AE8E50",
        "repeat": [1,1],
        "mapping": 300,
        "name": "door_building_b",
        "anisotropy": 1,
        "wrap": [1000,1000]
    },{
        "minFilter": 1008,
        "image": "FD86B6F1-9B91-3EDC-ACF4-BB77BAD309FB",
        "magFilter": 1006,
        "uuid": "9D049CC0-A2D2-37D3-AF59-8EAE06CE8CAD",
        "repeat": [1,1],
        "mapping": 300,
        "name": "buildingbtexture",
        "anisotropy": 1,
        "wrap": [1000,1000]
    }]
}