{
    "geometries": [{
        "materials": [{
            "wireframe": false,
            "mapDiffuseWrap": ["RepeatWrapping","RepeatWrapping"],
            "visible": true,
            "depthWrite": true,
            "colorAmbient": [0.64,0.64,0.64],
            "mapDiffuse": "white_bricks.png",
            "blending": "NormalBlending",
            "transparent": false,
            "colorSpecular": [0.5,0.5,0.5],
            "colorEmissive": [0,0,0],
            "specularCoef": 50,
            "DbgIndex": 0,
            "shading": "phong",
            "depthTest": true,
            "mapDiffuseAnisotropy": 1,
            "DbgName": "material",
            "colorDiffuse": [0.64,0.64,0.64],
            "mapDiffuseRepeat": [4,2],
            "opacity": 1,
            "DbgColor": 15658734
        }],
        "data": {
            "name": "murGeometry.4",
            "vertices": [-1,-1,-1,-1,-1,1,-1,1,-1,-1,1,1,1,-1,-1,1,-1,1,1,1,-1,1,1,1],
            "uvs": [[0,0,1,0,1,1,0,1,-1.4101,-0.006361,2.41011,-0.006361,2.41011,1.00636,-1.4101,1.00636]],
            "faces": [11,2,0,1,3,0,2,3,0,1,11,3,7,6,2,0,4,5,6,7,11,7,5,4,6,0,0,1,2,3,11,0,4,5,1,0,2,3,0,1,11,0,2,6,4,0,0,1,2,3,11,5,7,3,1,0,0,1,2,3],
            "metadata": {
                "materials": 1,
                "uvs": 1,
                "generator": "io_three",
                "version": 3,
                "vertices": 8,
                "faces": 6
            }
        },
        "type": "Geometry",
        "uuid": "EF2F0EB9-925C-36CE-891A-46032F206820"
    }],
    "animations": [{
        "fps": 24,
        "tracks": [],
        "name": "default"
    }],
    "materials": [{
        "color": 10724259,
        "ambient": 10724259,
        "type": "MeshPhongMaterial",
        "shininess": 50,
        "vertexColors": false,
        "depthWrite": true,
        "map": "9A7245D4-001A-30FF-857B-2A1189DAB9BE",
        "name": "material",
        "depthTest": true,
        "uuid": "07664766-12CB-3998-ABC0-27BCF2EF7B82",
        "blending": "NormalBlending",
        "emissive": 0,
        "specular": 8355711
    },{
        "color": 10724259,
        "ambient": 10724259,
        "type": "MeshPhongMaterial",
        "shininess": 50,
        "vertexColors": false,
        "depthWrite": true,
        "map": "8EAF7222-7ECA-3D90-AD44-D925CDE09994",
        "name": "Material",
        "depthTest": true,
        "uuid": "FC9C3C1C-87E7-3748-8148-105003E5F3D5",
        "blending": "NormalBlending",
        "emissive": 0,
        "specular": 8355711
    }],
    "object": {
        "children": [{
            "name": "mur",
            "uuid": "8E29A5A6-3880-32FE-9958-B996DE0272BC",
            "matrix": [-1.5,0,0,0,0,0,0.02,0,0,0.5,0,0,0,0.5,0,1],
            "visible": true,
            "type": "Mesh",
            "material": "07664766-12CB-3998-ABC0-27BCF2EF7B82",
            "castShadow": true,
            "receiveShadow": true,
            "geometry": "EF2F0EB9-925C-36CE-891A-46032F206820"
        }],
        "matrix": [1,0,0,0,0,1,0,0,0,0,1,0,0,0,0,1],
        "type": "Scene",
        "uuid": "4B0FCB26-013C-4C34-991C-015FF394BA3E"
    },
    "textures": [{
        "image": "87DB760F-208F-3854-A000-FF0EFA8DAF14",
        "name": "texture",
        "repeat": [4,2],
        "uuid": "9A7245D4-001A-30FF-857B-2A1189DAB9BE",
        "mapping": 300,
        "wrap": [1000,1000],
        "minFilter": 1008,
        "anisotropy": 1,
        "magFilter": 1006
    },{
        "image": "53F86BC2-422E-310F-840C-09B1F6A68841",
        "name": "Texture.001",
        "repeat": [1,1],
        "uuid": "8EAF7222-7ECA-3D90-AD44-D925CDE09994",
        "mapping": 300,
        "wrap": [1000,1000],
        "minFilter": 1008,
        "anisotropy": 1,
        "magFilter": 1006
    }],
    "metadata": {
        "generator": "io_three",
        "version": 4.4,
        "sourceFile": "mur_vide.blend",
        "type": "Object"
    },
    "images": [{
        "name": "white_bricks.png",
        "url": "../../textures/white_bricks.png",
        "uuid": "87DB760F-208F-3854-A000-FF0EFA8DAF14"
    },{
        "name": "asphalt.png",
        "url": "../../uv_maps/mur_building_entree.png",
        "uuid": "53F86BC2-422E-310F-840C-09B1F6A68841"
    }]
}