{
    "materials": [{
        "depthWrite": true,
        "blending": "NormalBlending",
        "color": 3118499,
        "name": "glass",
        "depthTest": true,
        "ambient": 3118499,
        "vertexColors": false,
        "type": "MeshPhongMaterial",
        "emissive": 0,
        "specular": 16777215,
        "shininess": 131,
        "uuid": "B9CDEFBF-07EC-369F-B77E-6A84D0CE04D5"
    },{
        "depthWrite": true,
        "blending": "NormalBlending",
        "color": 13421772,
        "name": "house_a_balcon",
        "depthTest": true,
        "ambient": 13421772,
        "vertexColors": false,
        "map": "3C0769B1-61F4-3F4E-9457-8D5559145A9A",
        "type": "MeshPhongMaterial",
        "emissive": 0,
        "specular": 526344,
        "shininess": 50,
        "side": 2,
        "uuid": "3C0769B1-61F4-3F4E-9457-8D5559145A9A"
    },{
        "depthWrite": true,
        "blending": "NormalBlending",
        "color": 13027014,
        "name": "house_a_door",
        "depthTest": true,
        "ambient": 13027014,
        "vertexColors": false,
        "map": "E3333451-7225-336A-B181-BB71C3F6BB85",
        "type": "MeshPhongMaterial",
        "emissive": 0,
        "specular": 394758,
        "shininess": 50,
        "uuid": "E3333451-7225-336A-B181-BB71C3F6BB85"
    },{
        "depthWrite": true,
        "blending": "NormalBlending",
        "color": 10724259,
        "name": "house_a_mur",
        "depthTest": true,
        "ambient": 10724259,
        "vertexColors": false,
        "map": "53B5055E-72D9-3A53-8235-A323C0647EB6",
        "type": "MeshPhongMaterial",
        "emissive": 0,
        "specular": 65793,
        "shininess": 50,
        "uuid": "53B5055E-72D9-3A53-8235-A323C0647EB6"
    },{
        "depthWrite": true,
        "blending": "NormalBlending",
        "color": 10724259,
        "name": "house_a_window",
        "depthTest": true,
        "ambient": 10724259,
        "vertexColors": false,
        "map": "57C8C518-0CD0-3866-88FE-BBB14474EBD7",
        "type": "MeshPhongMaterial",
        "emissive": 0,
        "specular": 394758,
        "shininess": 50,
        "uuid": "9E99B0BA-5619-3CB4-9E0A-0EA30E332AD3"
    }],
    "object": {
        "matrix": [1,0,0,0,0,1,0,0,0,0,1,0,0,0,0,1],
        "type": "Scene",
        "uuid": "8EBD8E13-A800-4942-AD4D-5A2DBA09287A",
        "children": [{
            "name": "balcon",
            "uuid": "D177E65A-B845-3C68-B5A8-35AEC68E559D",
            "matrix": [-0,-0.02,0,0,0.0225,-0,-0,0,0,-0,0.321138,0,-0.80652,0.290836,0.256149,1],
            "visible": true,
            "type": "Mesh",
            "material": "3C0769B1-61F4-3F4E-9457-8D5559145A9A",
            "castShadow": true,
            "receiveShadow": true,
            "geometry": "7F4AB45F-163F-39EF-B66F-84BD2623465C"
        },{
            "name": "Door",
            "uuid": "001377C9-5DAC-3665-B42B-5CECA31866E1",
            "matrix": [-0.672584,0,0,0,0,0,0.505188,0,0,0.505188,0,0,0,0.020863,0.03,1],
            "visible": true,
            "type": "Mesh",
            "material": "E3333451-7225-336A-B181-BB71C3F6BB85",
            "castShadow": true,
            "receiveShadow": true,
            "geometry": "8FC82902-925E-3A62-B691-66707B635B93"
        },{
            "name": "glass1",
            "uuid": "03123BC8-355E-34A0-8980-2CCA5583D388",
            "matrix": [-0.7,0,0,0,0,0,1,0,0,0.7,0,0,-0.7,0.48229,0.028627,1],
            "visible": true,
            "type": "Mesh",
            "material": "B9CDEFBF-07EC-369F-B77E-6A84D0CE04D5",
            "castShadow": true,
            "receiveShadow": true,
            "geometry": "C50857E9-C0E5-36F4-A019-B7B0144B2690"
        },{
            "name": "glass2",
            "uuid": "1F3D85FC-EF27-32B8-86C2-538A90F39AA7",
            "matrix": [-0.7,0,0,0,0,0,1,0,0,0.7,0,0,0.699251,0.48229,0.028627,1],
            "visible": true,
            "type": "Mesh",
            "material": "B9CDEFBF-07EC-369F-B77E-6A84D0CE04D5",
            "castShadow": true,
            "receiveShadow": true,
            "geometry": "F05B789B-2F8B-3F52-A55B-BFFADA17E8B7"
        },{
            "name": "mur",
            "uuid": "8E29A5A6-3880-32FE-9958-B996DE0272BC",
            "matrix": [-1.5,0,0,0,0,0,0.02,0,0,0.5,0,0,0,0.5,0,1],
            "visible": true,
            "type": "Mesh",
            "material": "53B5055E-72D9-3A53-8235-A323C0647EB6",
            "castShadow": true,
            "receiveShadow": true,
            "geometry": "0714D20A-E758-3ADD-9F6B-E61FEE7B342B"
        },{
            "name": "window1",
            "uuid": "56F33885-57B8-327C-B299-8770BF7A2397",
            "matrix": [-0.7,0,0,0,0,0,1,0,0,0.7,0,0,-0.7,0.48229,0.020671,1],
            "visible": true,
            "type": "Mesh",
            "material": "9E99B0BA-5619-3CB4-9E0A-0EA30E332AD3",
            "castShadow": true,
            "receiveShadow": true,
            "geometry": "7B12BDA2-BB6B-374E-8518-16CECA255826"
        },{
            "name": "window2",
            "uuid": "213EF301-0E7F-327F-B1AF-641344FC0726",
            "matrix": [-0.7,0,0,0,0,0,1,0,0,0.7,0,0,0.7,0.48229,0.020671,1],
            "visible": true,
            "type": "Mesh",
            "material": "9E99B0BA-5619-3CB4-9E0A-0EA30E332AD3",
            "castShadow": true,
            "receiveShadow": true,
            "geometry": "FF330B57-6BB1-30A9-AAE5-9746AA5C4FB5"
        }]
    },
    "animations": [{
        "tracks": [],
        "name": "default",
        "fps": 24
    }],
    "textures": [{
        "anisotropy": 1,
        "minFilter": 1008,
        "image": "7A0D9CC2-6409-3613-83B0-7011A3D08605",
        "repeat": [1,1],
        "name": "house_a_balcon",
        "magFilter": 1006,
        "uuid": "3C0769B1-61F4-3F4E-9457-8D5559145A9A",
        "mapping": 300,
        "wrap": [1000,1000]
    },{
        "anisotropy": 1,
        "minFilter": 1008,
        "image": "18AB7BFF-C9A0-3D6A-AA57-545466927E16",
        "repeat": [1,1],
        "name": "house_a_door",
        "magFilter": 1006,
        "uuid": "E3333451-7225-336A-B181-BB71C3F6BB85",
        "mapping": 300,
        "wrap": [1000,1000]
    },{
        "anisotropy": 1,
        "minFilter": 1008,
        "image": "B6983CA5-4236-3EBC-A903-B91DC9C99FE4",
        "repeat": [1,1],
        "name": "house_a_mur",
        "magFilter": 1006,
        "uuid": "53B5055E-72D9-3A53-8235-A323C0647EB6",
        "mapping": 300,
        "wrap": [1000,1000]
    },{
        "anisotropy": 1,
        "minFilter": 1008,
        "image": "98BA1F7C-20C9-30C6-B80E-4FF96F98F0EF",
        "repeat": [1,1],
        "name": "Texture",
        "magFilter": 1006,
        "uuid": "57C8C518-0CD0-3866-88FE-BBB14474EBD7",
        "mapping": 300,
        "wrap": [1000,1000]
    }],
    "geometries": [{
        "type": "Geometry",
        "uuid": "7B12BDA2-BB6B-374E-8518-16CECA255826",
        "data": {
            "vertices": [-0.3,-0.02,0,-0.3,0.02,0,-0.26,-0.02,0.04,-0.26,0.02,0.04,-0.01,-0.02,0.04,-0.01,0.02,0.04,0.01,-0.02,0.04,0.01,0.02,0.04,0.26,-0.02,0.04,0.26,0.02,0.04,0.3,-0.02,0,0.3,0.02,0,-0.3,-0.02,0.29,-0.3,0.02,0.29,-0.26,-0.02,0.29,-0.26,0.02,0.29,-0.01,-0.02,0.29,-0.01,0.02,0.29,0.01,-0.02,0.29,0.01,0.02,0.29,0.26,-0.02,0.29,0.26,0.02,0.29,0.3,-0.02,0.29,0.3,0.02,0.29,-0.3,-0.02,0.31,-0.3,0.02,0.31,-0.26,-0.02,0.31,-0.26,0.02,0.31,-0.01,-0.02,0.31,-0.01,0.02,0.31,0.01,-0.02,0.31,0.01,0.02,0.31,0.26,-0.02,0.31,0.26,0.02,0.31,0.3,-0.02,0.31,0.3,0.02,0.31,-0.3,-0.02,0.6,-0.3,0.02,0.6,-0.26,-0.02,0.56,-0.26,0.02,0.56,-0.01,-0.02,0.56,-0.01,0.02,0.56,0.01,-0.02,0.56,0.01,0.02,0.56,0.26,-0.02,0.56,0.26,0.02,0.56,0.3,-0.02,0.6,0.3,0.02,0.6,-0.26,-0.01,0.04,-0.24,-0.01,0.06,-0.24,0.01,0.06,-0.26,0.01,0.04,-0.26,-0.01,0.29,-0.24,-0.01,0.27,-0.24,0.01,0.27,-0.26,0.01,0.29,-0.01,-0.01,0.29,-0.03,-0.01,0.27,-0.03,0.01,0.27,-0.01,0.01,0.29,-0.01,-0.01,0.04,-0.03,-0.01,0.06,-0.03,0.01,0.06,-0.01,0.01,0.04,-0.24,-0.005,0.06,-0.24,-0.005,0.27,-0.03,-0.005,0.27,-0.03,-0.005,0.06,-0.24,0.005,0.06,-0.24,0.005,0.27,-0.03,0.005,0.27,-0.03,0.005,0.06,0.01,-0.01,0.04,0.03,-0.01,0.06,0.03,0.01,0.06,0.01,0.01,0.04,0.01,-0.01,0.29,0.03,-0.01,0.27,0.03,0.01,0.27,0.01,0.01,0.29,0.26,-0.01,0.29,0.24,-0.01,0.27,0.24,0.01,0.27,0.26,0.01,0.29,0.26,-0.01,0.04,0.24,-0.01,0.06,0.24,0.01,0.06,0.26,0.01,0.04,0.03,-0.005,0.06,0.03,-0.005,0.27,0.24,-0.005,0.27,0.24,-0.005,0.06,0.03,0.005,0.06,0.03,0.005,0.27,0.24,0.005,0.27,0.24,0.005,0.06,-0.26,-0.01,0.31,-0.24,-0.01,0.33,-0.24,0.01,0.33,-0.26,0.01,0.31,-0.26,-0.01,0.56,-0.24,-0.01,0.54,-0.24,0.01,0.54,-0.26,0.01,0.56,-0.01,-0.01,0.56,-0.03,-0.01,0.54,-0.03,0.01,0.54,-0.01,0.01,0.56,-0.01,-0.01,0.31,-0.03,-0.01,0.33,-0.03,0.01,0.33,-0.01,0.01,0.31,-0.24,-0.005,0.33,-0.24,-0.005,0.54,-0.03,-0.005,0.54,-0.03,-0.005,0.33,-0.24,0.005,0.33,-0.24,0.005,0.54,-0.03,0.005,0.54,-0.03,0.005,0.33,0.01,-0.01,0.31,0.03,-0.01,0.33,0.03,0.01,0.33,0.01,0.01,0.31,0.01,-0.01,0.56,0.03,-0.01,0.54,0.03,0.01,0.54,0.01,0.01,0.56,0.26,-0.01,0.56,0.24,-0.01,0.54,0.24,0.01,0.54,0.26,0.01,0.56,0.26,-0.01,0.31,0.24,-0.01,0.33,0.24,0.01,0.33,0.26,0.01,0.31,0.03,-0.005,0.33,0.03,-0.005,0.54,0.24,-0.005,0.54,0.24,-0.005,0.33,0.03,0.005,0.33,0.03,0.005,0.54,0.24,0.005,0.54,0.24,0.005,0.33,-0.3,0.055,0,0.3,0.055,0,-0.3,-0.055,0,0.3,-0.055,0,-0.3,0.055,-0.04,0.3,0.055,-0.04,-0.3,-0.055,-0.04,0.3,-0.055,-0.04],
            "faces": [9,0,1,11,10,0,1,2,3,9,3,2,4,5,4,5,6,7,9,7,6,8,9,8,9,10,11,8,0,10,8,17,12,13,8,8,6,4,13,14,15,8,4,2,0,15,16,17,8,8,4,0,13,15,17,8,11,1,3,23,18,19,8,3,5,7,19,20,21,8,7,9,11,21,22,23,8,3,7,11,19,21,23,9,13,12,24,25,24,25,26,27,9,22,23,35,34,28,29,30,31,9,12,14,26,24,32,33,34,35,9,15,13,25,27,36,37,38,39,9,14,16,28,26,33,40,41,34,9,17,15,27,29,42,36,39,43,9,16,18,30,28,40,44,45,41,9,19,17,29,31,46,42,43,47,9,18,20,32,30,44,48,49,45,9,21,19,31,33,50,46,47,51,9,20,22,34,32,48,52,53,49,9,23,21,33,35,54,50,51,55,9,14,15,17,16,56,57,58,59,9,27,26,28,29,60,61,62,63,9,18,19,21,20,64,4,7,65,9,31,30,32,33,59,66,67,68,9,1,0,12,13,69,70,25,24,9,3,1,13,15,19,18,37,36,9,2,3,15,14,71,72,73,74,9,0,2,14,12,17,16,33,32,9,5,4,16,17,75,76,77,78,9,7,5,17,19,21,20,42,46,9,6,7,19,18,79,80,81,82,9,4,6,18,16,15,14,44,40,9,9,8,20,21,83,84,85,86,9,11,9,21,23,23,22,50,54,9,10,11,23,22,87,88,29,28,9,8,10,22,20,13,12,52,48,9,25,24,36,37,27,26,89,90,9,27,25,37,39,39,38,91,92,9,26,27,39,38,82,81,93,94,9,24,26,38,36,35,34,95,23,9,29,28,40,41,96,83,97,98,9,31,29,41,43,47,43,99,100,9,30,31,43,42,74,73,101,102,9,28,30,42,40,41,45,103,104,9,33,32,44,45,105,106,107,108,9,35,33,45,47,55,51,109,110,9,34,35,47,46,31,30,111,112,9,32,34,46,44,49,53,113,114,9,48,49,53,52,115,116,117,118,9,49,50,54,53,119,120,121,122,9,50,51,55,54,123,124,125,126,9,52,53,57,56,118,117,127,128,9,53,54,58,57,129,130,131,132,9,54,55,59,58,126,125,133,134,9,56,57,61,60,128,127,135,136,9,57,58,62,61,94,137,138,139,9,58,59,63,62,134,133,140,141,9,60,61,49,48,136,135,116,115,9,61,62,50,49,142,143,144,145,9,62,63,51,50,141,140,124,123,9,65,64,67,66,146,147,148,149,9,68,69,70,71,150,151,152,153,9,72,73,77,76,154,155,156,157,9,73,74,78,77,158,159,160,121,9,74,75,79,78,161,162,163,164,9,76,77,81,80,157,156,165,166,9,77,78,82,81,167,168,169,131,9,78,79,83,82,164,163,170,171,9,80,81,85,84,166,165,172,118,9,81,82,86,85,173,174,175,176,9,82,83,87,86,171,170,177,178,9,84,85,73,72,118,172,155,154,9,85,86,74,73,179,180,181,182,9,86,87,75,74,178,177,162,161,9,89,88,91,90,151,146,183,184,9,92,93,94,95,185,186,187,85,9,96,97,101,100,188,189,190,191,9,97,98,102,101,192,193,194,195,9,98,99,103,102,196,197,198,199,9,100,101,105,104,191,190,200,118,9,101,102,106,105,201,202,203,204,9,102,103,107,106,199,198,205,206,9,104,105,109,108,118,200,207,208,9,105,106,110,109,73,209,210,211,9,106,107,111,110,206,205,212,213,9,108,109,97,96,208,207,189,188,9,109,110,98,97,214,215,195,144,9,110,111,99,98,213,212,197,196,9,113,112,115,114,216,217,218,219,9,116,117,118,119,220,221,187,119,9,120,121,125,124,222,223,224,225,9,121,122,126,125,159,226,227,160,9,122,123,127,126,228,229,230,231,9,124,125,129,128,225,224,232,233,9,125,126,130,129,234,235,236,237,9,126,127,131,130,231,230,162,238,9,128,129,133,132,233,232,239,221,9,129,130,134,133,72,240,241,242,9,130,131,135,134,238,162,243,244,9,132,133,121,120,221,239,223,222,9,133,134,122,121,137,93,245,246,9,134,135,123,122,244,243,229,228,9,137,136,139,138,247,218,248,249,9,140,141,142,143,250,148,147,251,9,37,36,46,47,252,253,254,255,9,38,39,41,40,256,257,258,259,9,42,43,45,44,260,261,262,263,8,46,36,38,113,23,95,8,38,40,42,95,104,103,8,42,44,46,103,114,113,8,38,42,46,95,103,113,8,37,47,45,91,110,109,8,45,43,41,109,100,99,8,41,39,37,99,92,91,8,45,41,37,109,99,91,9,151,150,148,149,264,265,266,267,9,149,148,144,145,268,269,270,157,9,146,147,145,144,271,272,273,274,9,150,151,147,146,275,150,89,70,9,148,150,146,144,276,277,278,279,9,147,151,149,145,276,280,281,277],
            "uvs": [[0.940789,0.789474,0.914474,0.789474,0.914474,0.394737,0.940789,0.394737,0.355263,0.953947,0.328947,0.953947,0.328947,0.789474,0.355263,0.789474,0.967105,0.55921,0.94079,0.55921,0.940789,0.394737,0.967105,0.394737,0,0.789474,0.026316,0.763158,0.190789,0.763158,0.203947,0.763158,0.368421,0.763158,0.394737,0.789474,0,0.394737,0.026316,0.368421,0.190789,0.368421,0.203947,0.368421,0.368421,0.368421,0.394737,0.394737,0.914474,0.598684,0.888158,0.598684,0.888158,0.585526,0.914474,0.585526,0.947368,0.203947,0.921053,0.203947,0.921053,0.190789,0.947368,0.190789,0.394737,0.598684,0.368421,0.598684,0.368421,0.585526,0.394737,0.585526,0.026316,0.203947,0,0.203947,0,0.190789,0.026316,0.190789,0.203947,0.598684,0.203947,0.585526,0.190789,0.203947,0.190789,0.190789,0.190789,0.598684,0.190789,0.585526,0.203947,0.203947,0.203947,0.190789,0.026316,0.598684,0.026316,0.585526,0.368421,0.203947,0.368421,0.190789,0,0.598684,0,0.585526,0.394737,0.203947,0.394737,0.19079,0.967105,0.888158,0.94079,0.888158,0.940789,0.723684,0.967105,0.723684,0.940789,0.953947,0.914474,0.953947,0.914474,0.789474,0.940789,0.789474,0.381579,0.953947,0.381579,0.789474,0.94079,0.723684,0.940789,0.55921,0.967105,0.55921,0.914474,0.789474,0.888158,0.789474,0.947369,0,0.973684,0,0.973684,0.164474,0.947369,0.164474,0.302632,0.953947,0.276316,0.953947,0.276316,0.789474,0.302632,0.789474,0.967105,0.394737,0.993421,0.394737,0.993421,0.55921,0.967105,0.55921,0.697368,0.888158,0.671053,0.888158,0.671053,0.723684,0.697368,0.723684,0.947368,0.394737,0.921053,0.394737,0.888158,0.394737,0.914474,0.394737,0,0,0.026316,0.026316,0.993421,0.723684,0.967105,0.723684,0.368421,0.421053,0.723684,0.888158,0.697368,0.723684,0.723684,0.723684,0.190789,0.026316,0.203947,0.026316,0.973684,0.328947,0.947369,0.328947,0.190789,0.421053,0.203947,0.421053,0.328947,0.953947,0.302632,0.953947,0.302632,0.789474,0.328947,0.789474,0.368421,0.026316,0.394737,0,0.921053,0,0.947368,0,0,0.394737,0.026316,0.421053,0.703947,0.328947,0.69079,0.315789,0.69079,0.177632,0.703947,0.164474,0.532895,0.861842,0.546053,0.861842,0.546053,1,0.532895,1,0.69079,0.151316,0.703947,0.164474,0.539474,0.164474,0.552632,0.151316,0.552632,0.177632,0.539474,0.164474,0.486842,1,0.473684,1,0.473684,0.861842,0.486842,0.861842,0.539474,0,0.552632,0.013158,0.552632,0.315789,0.539474,0.328947,0.980263,0.723684,0.980263,0.861842,0.967105,0.861842,0.703947,0,0.69079,0.013158,0.486842,0.861842,0.5,0.861842,0.5,1,0.486842,1,0.861842,0.671053,0.861842,0.809211,0.723684,0.809211,0.723684,0.671053,0.861842,0.394737,0.861842,0.532895,0.723684,0.532895,0.723684,0.394737,0.868421,0.164474,0.855263,0.151316,0.855263,0.013158,0.868421,0,0.546053,0.861842,0.55921,0.861842,0.55921,1,0.546053,0.546053,0.55921,0.55921,0.394737,0.55921,0.407895,0.546053,0.717105,0.013158,0.703947,0,0.473684,1,0.460526,1,0.460526,0.861842,0.394737,0.394737,0.407895,0.407895,0.717105,0.151316,0.381579,0.789474,0.394737,0.789474,0.394737,0.927632,0.381579,0.927632,0.55921,0.394737,0.546053,0.407895,0.986842,0,1,0,1,0.138158,0.986842,0.138158,0.723684,0.671053,0.723684,0.532895,0.671053,0.861842,0.532895,0.861842,0.532895,0.723684,0.868421,0.328947,0.855263,0.315789,0.855263,0.177632,0.868421,0.164474,0.513158,0.861842,0.526316,0.861842,0.526316,1,0.513158,1,0.572368,0.546053,0.55921,0.559211,0.55921,0.394737,0.572368,0.407895,0.717105,0.177632,0.460526,1,0.447368,1,0.447368,0.861842,0.460526,0.861842,0.723684,0.394737,0.710526,0.407895,0.717105,0.315789,0.703947,0.328947,0.986842,0.164474,0.986842,0.302632,0.973684,0.302632,0.723684,0.559211,0.710526,0.546053,0.5,0.861842,0.513158,0.861842,0.276316,0.789474,0.276316,0.927631,0.138158,0.927631,0.138158,0.789474,0.394737,0.861842,0.394737,0.723684,0.55921,0.723684,0.546053,0.710526,0.546053,0.572368,0.55921,0.55921,0.572368,0.861842,0.572368,1,0.710526,0.710526,0.723684,0.723684,0.55921,0.723684,0.572368,0.710526,0.407895,0.572368,0.394737,0.55921,1,0.276316,0.986842,0.276316,0.986842,0.138158,1,0.138158,0.572368,0.572368,0.407895,0.710526,0.986842,0,0.986842,0.138158,0.973684,0.138158,0.723684,0.55921,0.710526,0.572368,0.993421,0.861842,0.980263,0.861842,0.138158,0.789474,0,0.927632,0,0.789474,0.723684,0.947368,0.861842,0.947368,0.921053,0.394737,0.894737,0.394737,0.894737,0,0.921053,0,0.888158,0.953947,0.861842,0.953947,0.861842,0.789474,0.888158,0.789474,0.914474,0.953947,0.888158,0.953947,0.888158,0.789474,0.914474,0.789474,0.467105,0,0.467105,0.394737,0.394737,0.394737,0.394737,0,0.894737,0,0.894737,0.394737,0.868421,0.394737,0.467105,0.394737,0.467105,0,0.539474,0,0.539474,0.394737,0.861842,0.789474,0.421053,0.861842,0.421053,0.934211,0.394737,0.934211,0.394737,0.861842,0.447368,0.861842,0.447368,0.934211]],
            "name": "window1Geometry",
            "metadata": {
                "version": 3,
                "generator": "io_three",
                "vertices": 152,
                "faces": 124,
                "uvs": 1
            }
        }
    },{
        "type": "Geometry",
        "uuid": "F05B789B-2F8B-3F52-A55B-BFFADA17E8B7",
        "data": {
            "vertices": [-0.24,0.005,0.06,-0.24,0.005,0.27,-0.03,0.005,0.27,-0.03,0.005,0.06,0.03,0.005,0.06,0.03,0.005,0.27,0.24,0.005,0.27,0.24,0.005,0.06,-0.24,0.005,0.33,-0.24,0.005,0.54,-0.03,0.005,0.54,-0.03,0.005,0.33,0.03,0.005,0.33,0.03,0.005,0.54,0.24,0.005,0.54,0.24,0.005,0.33],
            "faces": [9,0,1,2,3,0,1,2,3,9,4,5,6,7,4,5,6,7,9,8,9,10,11,8,9,6,10,9,12,13,14,15,11,12,13,14],
            "uvs": [[0.861842,0.394737,0.861842,0.532895,0.723684,0.532895,0.723684,0.394737,0.671053,0.861842,0.532895,0.861842,0.532895,0.723684,0.671053,0.723684,0.394737,0.861842,0.394737,0.723684,0.532895,0.861842,0.723684,0.947368,0.723684,0.809211,0.861842,0.809211,0.861842,0.947368]],
            "name": "glass2Geometry",
            "metadata": {
                "version": 3,
                "generator": "io_three",
                "vertices": 16,
                "faces": 4,
                "uvs": 1
            }
        }
    },{
        "type": "Geometry",
        "uuid": "8FC82902-925E-3A62-B691-66707B635B93",
        "data": {
            "vertices": [-0.37,-0.01,0,-0.37,0.01,0,-0.35,-0.01,0.02,-0.35,0.01,0.02,0.35,-0.01,0.02,0.35,0.01,0.02,0.37,-0.01,0,0.37,0.01,0,-0.37,-0.01,1.84,-0.37,0.01,1.84,-0.35,-0.01,1.82,-0.35,0.01,1.82,0.35,-0.01,1.82,0.35,0.01,1.82,0.37,-0.01,1.84,0.37,0.01,1.84,-0.35,0,0.02,-0.33,0,0.04,-0.33,0.02,0.04,-0.35,0.02,0.02,-0.35,0,1.82,-0.33,0,1.8,-0.33,0.02,1.8,-0.35,0.02,1.82,0.35,0,1.82,0.33,0,1.8,0.33,0.02,1.8,0.35,0.02,1.82,0.35,0,0.02,0.33,0,0.04,0.33,0.02,0.04,0.35,0.02,0.02,-0.33,0,0.04,-0.31,0,0.06,-0.31,0.02,0.06,-0.33,0.02,0.04,-0.33,0,1.8,-0.31,0,1.78,-0.31,0.02,1.78,-0.33,0.02,1.8,0.33,0,1.8,0.31,0,1.78,0.31,0.02,1.78,0.33,0.02,1.8,0.33,0,0.04,0.31,0,0.06,0.31,0.02,0.06,0.33,0.02,0.04,-0.31,0.005,0.06,-0.31,0.005,1.78,0.31,0.005,1.78,0.31,0.005,0.06,-0.31,0.015,0.06,-0.31,0.015,1.78,0.31,0.015,1.78,0.31,0.015,0.06],
            "faces": [9,0,1,7,6,0,1,2,3,9,3,2,4,5,4,5,6,7,9,2,0,6,4,10,11,8,9,9,1,3,5,7,12,13,14,15,9,1,0,8,9,16,17,18,19,9,3,1,9,11,13,12,20,21,9,2,3,11,10,22,23,24,25,9,0,2,10,8,11,10,26,27,9,5,4,12,13,28,29,30,31,9,7,5,13,15,15,14,32,33,9,6,7,15,14,34,28,35,16,9,4,6,14,12,9,8,36,37,9,16,17,21,20,38,39,40,41,9,17,18,22,21,42,43,44,45,9,18,19,23,22,46,47,48,49,9,19,16,20,23,50,51,52,53,9,20,21,25,24,41,40,54,55,9,21,22,26,25,56,57,58,59,9,22,23,27,26,49,48,60,61,9,23,20,24,27,62,63,64,65,9,24,25,29,28,55,54,66,67,9,25,26,30,29,68,69,70,71,9,26,27,31,30,61,60,72,73,9,27,24,28,31,74,75,23,70,9,28,29,17,16,67,66,39,38,9,29,30,18,17,76,77,78,79,9,30,31,19,18,73,72,47,46,9,31,28,16,19,80,81,82,83,9,32,33,37,36,84,85,86,87,9,33,34,38,37,88,89,90,91,9,34,35,39,38,92,93,94,95,9,36,37,41,40,87,86,96,97,9,37,38,42,41,98,99,100,101,9,38,39,43,42,95,94,84,102,9,40,41,45,44,97,96,103,94,9,41,42,46,45,104,105,106,107,9,42,43,47,46,102,84,108,109,9,44,45,33,32,94,103,85,84,9,45,46,34,33,110,111,101,112,9,46,47,35,34,109,108,93,92,9,49,48,51,50,113,114,115,116,9,52,53,54,55,117,118,119,120,9,9,8,14,15,121,122,123,124,9,10,11,13,12,125,126,127,128,9,8,10,12,14,27,26,37,36,9,15,13,11,9,33,32,21,20],
            "uvs": [[0.011111,0.716667,0.005556,0.716667,0.005556,0.511111,0.011111,0.511111,0.027778,0.705555,0.022222,0.705555,0.022222,0.511111,0.027778,0.511111,0.205556,0.511111,0.211111,0.505556,0.405555,0.505555,0.411111,0.511111,0.205555,0,0.2,0.005556,0.005556,0.005556,0,0,0.988889,0.511111,0.983333,0.511111,0.983333,0,0.988889,0,0.205556,0.511111,0.2,0.505556,0.761111,0.5,0.766667,0.5,0.766667,1,0.761111,1,0.405555,0.005555,0.411111,0,0.994444,0,1,0,1,0.5,0.994444,0.5,0.005556,0.505556,0,0.511111,0.988889,0,0.994444,0.511111,0.205556,0,0.211111,0.005555,0.8,0.5,0.794444,0.494444,0.794444,0.005556,0.8,0,0.777778,0.5,0.783333,0.5,0.783333,0.988889,0.777778,0.988889,0.6,0.005556,0.605555,0,0.605555,0.5,0.6,0.494444,0.755556,0.5,0.761111,0.5,0.761111,1,0.755556,1,0.611111,0.005556,0.605555,0,0.038889,0.694444,0.033334,0.694444,0.033334,0.511111,0.038889,0.511111,0.411111,0.5,0.416667,0.494444,0.022222,0.705555,0.016667,0.705555,0.016667,0.511111,0.022222,0.511111,0.611111,0.494444,0.605556,0.5,0.777778,0.988889,0.772222,0.988889,0.772222,0.5,0.777778,0.5,0.411111,0,0.416667,0.005556,0.772222,1,0.766667,1,0.038889,0.511111,0.044445,0.511111,0.044445,0.694444,0.038889,0.694444,0.011111,0.511111,0.016667,0.511111,0.016667,0.705555,0.011111,0.705555,0.983333,0.488889,0.977778,0.483333,0.977778,0.005556,0.983333,0,0.783333,0.5,0.788889,0.5,0.788889,0.977778,0.783333,0.977778,0.805555,0.972222,0.8,0.977778,0.8,0.488889,0.805555,0.494444,0.805555,0.005556,0.8,0,0.05,0.511111,0.055556,0.511111,0.055556,0.683333,0.05,0.683333,0.977778,0.494444,0.805556,0.483333,0.794444,0.5,0.8,0.5,0.8,0.977778,0.794444,0.977778,0.983333,0.977778,0.977778,0.972222,0.044445,0.511111,0.05,0.511111,0.044445,0.683333,0.755555,0.5,0.755556,0.977778,0.583333,0.977778,0.583333,0.5,0.411111,0.977778,0.411111,0.5,0.583333,0.5,0.583333,0.977778,0.005556,0.716667,0,0.716667,0,0.511111,0.005556,0.511111,0.033334,0.705555,0.027778,0.705555,0.027778,0.511111,0.033333,0.511111]],
            "name": "WindowGeometry",
            "metadata": {
                "version": 3,
                "generator": "io_three",
                "vertices": 56,
                "faces": 46,
                "uvs": 1
            }
        }
    },{
        "type": "Geometry",
        "uuid": "0714D20A-E758-3ADD-9F6B-E61FEE7B342B",
        "data": {
            "vertices": [-1,-1,-1,-1,-1,1,-1,1,-1,-1,1,1,1,-1,-1,1,-1,1,1,1,-1,1,1,1],
            "faces": [9,2,0,1,3,2,3,0,1,9,3,7,6,2,4,5,6,7,9,7,5,4,6,0,1,2,3,9,0,4,5,1,2,3,0,1,9,0,2,6,4,0,1,2,3,9,5,7,3,1,0,1,2,3],
            "uvs": [[0,0,1,0,1,1,0,1,-1.05795,0.086993,2.05795,0.086993,2.05795,0.913007,-1.05795,0.913007]],
            "name": "murGeometry",
            "metadata": {
                "version": 3,
                "generator": "io_three",
                "vertices": 8,
                "faces": 6,
                "uvs": 1
            }
        }
    },{
        "type": "Geometry",
        "uuid": "7F4AB45F-163F-39EF-B66F-84BD2623465C",
        "data": {
            "vertices": [-1,-1,-1,-1,-1,1,-1,1,-1,-1,1,1,1,-1,-1,1,-1,1,1,1,-1,1,1,1,-1.00001,70.7409,-1,-1.00001,70.7409,1,-1.00001,72.7409,-1,-1.00001,72.7409,1,0.999995,70.7409,-1,0.999995,70.7409,1,0.999995,72.7409,-1,0.999995,72.7409,1,-1.00001,71.4591,0.856287,-1,47.0101,0.856287,-1.00001,71.4591,0.996413,-1,47.0101,0.996413,0.999995,71.4591,0.856287,0.999998,47.0101,0.856287,0.999995,71.4591,0.996413,0.999998,47.0101,0.996413,-1,47.5513,0.856286,-0.999998,-0.670002,0.856286,-1,47.5513,0.996413,-0.999998,-0.670002,0.996413,0.999996,47.5513,0.856286,1,-0.670002,0.856286,0.999996,47.5513,0.996413,1,-0.670002,0.996413,14.1789,0.661088,-0.606967,-0.821141,0.661087,-0.606967,14.1789,0.038914,-0.607507,-0.821141,0.038913,-0.607507,14.1789,0.668805,-0.650558,-0.821141,0.668804,-0.650558,14.1789,0.046631,-0.651099,-0.821141,0.04663,-0.651099,14.179,0.605847,-0.295598,-0.821002,0.605846,-0.295598,14.179,-0.016327,-0.296139,-0.821002,-0.016328,-0.296139,14.179,0.613565,-0.33919,-0.821002,0.613564,-0.33919,14.179,-0.00861,-0.339731,-0.821002,-0.008611,-0.339731,14.179,0.550721,0.01577,-0.821002,0.55072,0.01577,14.179,-0.071453,0.015229,-0.821002,-0.071454,0.015229,14.179,0.558439,-0.027822,-0.821002,0.558437,-0.027822,14.179,-0.063736,-0.028362,-0.821002,-0.063737,-0.028362,14.1789,0.495595,0.327138,-0.821141,0.495594,0.327138,14.1789,-0.126579,0.326598,-0.821141,-0.12658,0.326598,14.1789,0.503312,0.283547,-0.821141,0.503311,0.283547,14.1789,-0.118862,0.283006,-0.821141,-0.118863,0.283006,14.179,0.440473,0.638498,-0.821002,0.440472,0.638498,14.179,-0.181702,0.637957,-0.821002,-0.181703,0.637957,14.179,0.44819,0.594906,-0.821002,0.448189,0.594906,14.179,-0.173984,0.594365,-0.821002,-0.173985,0.594365,14.179,72.1013,0.638498,-0.821007,72.1013,0.638498,14.179,71.4791,0.637957,-0.821007,71.4791,0.637957,14.179,72.109,0.594906,-0.821007,72.109,0.594906,14.179,71.4868,0.594366,-0.821007,71.4868,0.594366,14.1789,72.1564,0.327139,-0.821146,72.1564,0.327139,14.1789,71.5342,0.326598,-0.821146,71.5342,0.326598,14.1789,72.1641,0.283547,-0.821146,72.1641,0.283547,14.1789,71.5419,0.283006,-0.821146,71.5419,0.283006,14.179,72.2115,0.01577,-0.821007,72.2115,0.01577,14.179,71.5893,0.01523,-0.821007,71.5893,0.01523,14.179,72.2192,-0.027821,-0.821007,72.2192,-0.027821,14.179,71.5971,-0.028362,-0.821007,71.5971,-0.028362,14.179,72.2667,-0.295598,-0.821008,72.2667,-0.295598,14.179,71.6445,-0.296139,-0.821008,71.6445,-0.296139,14.179,72.2744,-0.33919,-0.821008,72.2744,-0.33919,14.179,71.6522,-0.33973,-0.821008,71.6522,-0.33973,14.1789,72.3219,-0.606967,-0.821147,72.3219,-0.606967,14.1789,71.6997,-0.607507,-0.821147,71.6997,-0.607507,14.1789,72.3296,-0.650558,-0.821147,72.3296,-0.650558,14.1789,71.7074,-0.651099,-0.821147,71.7074,-0.651099,14.3263,48.8704,0.864766,-0.673733,48.8704,0.864766,14.3263,48.8704,0.989323,-0.673733,48.8704,0.989323,14.3263,47.0927,0.864766,-0.673733,47.0927,0.864766,14.3263,47.0927,0.989323,-0.673733,47.0927,0.989323,14.3263,23.7362,0.864775,-0.673733,47.5085,0.864775,14.3263,23.7362,0.989332,-0.673733,47.5085,0.989332,14.3263,21.9585,0.864775,-0.673733,45.7307,0.864775,14.3263,21.9584,0.989332,-0.673733,45.7307,0.989332,14.3264,0.05304,0.945487,-0.67359,0.053039,0.945487,14.3264,0.05304,0.989082,-0.67359,0.053039,0.989082,14.3264,-0.569183,0.945487,-0.67359,-0.569184,0.945487,14.3264,-0.569183,0.989082,-0.67359,-0.569184,0.989082,14.5374,4.49735,0.945487,-0.462592,4.49734,0.945487,14.5374,4.49735,0.989082,-0.462592,4.49734,0.989082,14.5374,3.87512,0.945487,-0.462592,3.87512,0.945487,14.5374,3.87512,0.989082,-0.462592,3.87512,0.989082,14.5374,8.94179,0.945487,-0.462593,8.94179,0.945487,14.5374,8.94179,0.989082,-0.462593,8.94179,0.989082,14.5374,8.31957,0.945487,-0.462593,8.31957,0.945487,14.5374,8.31957,0.989082,-0.462593,8.31957,0.989082,14.5365,13.4024,0.945487,-0.463421,13.3701,0.945487,14.5365,13.4024,0.989082,-0.463421,13.3701,0.989082,14.5382,12.7802,0.945487,-0.461721,12.7478,0.945487,14.5382,12.7802,0.989082,-0.461721,12.7478,0.989082,14.3263,17.8307,0.945488,-0.673731,17.8307,0.945488,14.3263,17.8307,0.989083,-0.673731,17.8307,0.989083,14.3263,17.2085,0.945488,-0.673731,17.2085,0.945488,14.3263,17.2085,0.989083,-0.673731,17.2085,0.989083,14.3263,54.1085,0.945479,-0.673734,54.1085,0.945479,14.3263,54.1085,0.989074,-0.673734,54.1085,0.989074,14.3263,53.4862,0.945479,-0.673734,53.4862,0.945479,14.3263,53.4862,0.989074,-0.673734,53.4862,0.989074,14.3264,58.5529,0.945488,-0.673595,58.5529,0.945488,14.3264,58.5529,0.989083,-0.673595,58.5529,0.989083,14.3264,57.9307,0.945488,-0.673595,57.9307,0.945488,14.3264,57.9307,0.989083,-0.673595,57.9307,0.989083,14.3264,62.9973,0.945488,-0.673595,62.9973,0.945488,14.3264,62.9973,0.989083,-0.673595,62.9973,0.989083,14.3264,62.3751,0.945488,-0.673595,62.3751,0.945488,14.3264,62.3751,0.989083,-0.673595,62.3751,0.989083,14.3263,67.4418,0.945488,-0.673735,67.4418,0.945488,14.3263,67.4418,0.989083,-0.673735,67.4418,0.989083,14.3263,66.8196,0.945488,-0.673735,66.8196,0.945488,14.3263,66.8196,0.989083,-0.673735,66.8196,0.989083,14.3264,71.8861,0.945488,-0.673596,71.8861,0.945488,14.3264,71.8861,0.989083,-0.673596,71.8861,0.989083,14.3264,71.2639,0.945488,-0.673596,71.2639,0.945488,14.3264,71.2639,0.989083,-0.673596,71.2639,0.989083,14.7793,72.7847,1.01617,12.7793,72.7847,1.01617,14.7793,72.7847,-0.865773,12.7793,72.7847,-0.865773,14.7793,-1.09405,1.01617,12.7793,-1.09405,1.01617,14.7793,-1.09405,-0.865773,12.7793,-1.09405,-0.865773,15.9758,73.2908,-1.63741,12.4525,73.2908,-1.63741,15.9758,73.2908,1.03654,12.4525,73.2908,1.03654,15.9758,-2.04497,-1.63741,12.4526,-2.04496,-1.63741,15.9758,-2.04497,1.03654,12.4526,-2.04497,1.03654,14.3263,22.0494,0.945488,-0.673731,22.0494,0.945488,14.3263,22.0494,0.989083,-0.673731,22.0494,0.989083,14.3263,21.4272,0.945488,-0.673731,21.4272,0.945488,14.3263,21.4272,0.989083,-0.673731,21.4272,0.989083,14.7793,77.0035,-0.865773,12.7793,77.0035,-0.865773,14.7793,3.12468,-0.865773,12.7793,3.12468,-0.865773,14.3263,25.9977,0.945488,-0.673732,25.9977,0.945488,14.3263,25.9977,0.989083,-0.673732,25.9977,0.989083,14.3263,25.3755,0.945488,-0.673732,25.3755,0.945488,14.3263,25.3755,0.989083,-0.673732,25.3755,0.989083,14.7793,80.9518,-0.865773,12.7793,80.9518,-0.865773,14.7793,7.07298,-0.865773,12.7793,7.07298,-0.865773,14.3263,29.7589,0.945488,-0.673732,29.7589,0.945488,14.3263,29.7589,0.989083,-0.673732,29.7589,0.989083,14.3263,29.1367,0.945488,-0.673732,29.1367,0.945488,14.3263,29.1367,0.989083,-0.673732,29.1367,0.989083,14.7793,84.713,-0.865773,12.7793,84.713,-0.865773,14.7793,10.8342,-0.865773,12.7793,10.8342,-0.865773,14.3263,33.7902,0.945488,-0.673732,33.7902,0.945488,14.3263,33.7902,0.989083,-0.673732,33.7902,0.989083,14.3263,33.168,0.945488,-0.673732,33.168,0.945488,14.3263,33.168,0.989083,-0.673732,33.168,0.989083,14.7793,88.7443,-0.865773,12.7793,88.7443,-0.865773,14.7793,14.8655,-0.865773,12.7793,14.8655,-0.865773,14.3263,38.2267,0.945488,-0.673733,38.2267,0.945488,14.3263,38.2267,0.989083,-0.673733,38.2267,0.989083,14.3263,37.6045,0.945488,-0.673733,37.6045,0.945488,14.3263,37.6045,0.989083,-0.673733,37.6045,0.989083,14.7793,93.1808,-0.865773,12.7793,93.1808,-0.865773,14.7793,19.302,-0.865773,12.7793,19.302,-0.865773,14.3263,42.4452,0.945488,-0.673733,42.4452,0.945488,14.3263,42.4452,0.989083,-0.673733,42.4452,0.989083,14.3263,41.8229,0.945488,-0.673733,41.8229,0.945488,14.3263,41.8229,0.989083,-0.673733,41.8229,0.989083,14.7793,97.3992,-0.865773,12.7793,97.3992,-0.865773,14.7793,23.5204,-0.865773,12.7793,23.5204,-0.865773,14.3263,46.6115,0.945488,-0.673733,46.6115,0.945488,14.3263,46.6115,0.989083,-0.673733,46.6115,0.989083,14.3263,45.9893,0.945488,-0.673733,45.9893,0.945488,14.3263,45.9893,0.989083,-0.673733,45.9893,0.989083,14.7793,67.0575,-0.865773,12.7793,101.566,-0.865773,14.7793,27.6868,-0.865773,12.7793,27.6868,-0.865773,14.3263,50.3519,0.945488,-0.673734,50.3519,0.945488,14.3263,50.3519,0.989083,-0.673734,50.3519,0.989083,14.3263,49.7297,0.945488,-0.673734,49.7297,0.945488,14.3263,49.7297,0.989083,-0.673734,49.7297,0.989083,14.7793,70.7979,-0.865773,12.7793,70.7979,-0.865773,14.7793,31.4272,-0.865773,12.7793,31.4272,-0.865773],
            "faces": [9,2,0,1,3,2,3,0,1,9,3,7,6,2,4,5,6,7,9,7,5,4,6,8,9,10,11,9,0,4,5,1,14,15,12,13,9,0,2,6,4,16,17,18,19,9,5,7,3,1,20,21,22,23,9,9,11,10,8,20,9,8,21,9,11,15,14,10,24,25,26,27,9,15,13,12,14,2,28,29,3,9,13,9,8,12,30,31,32,33,9,8,10,14,12,0,34,35,36,9,13,15,11,9,37,38,39,40,9,17,19,18,16,41,42,43,44,9,19,23,22,18,45,46,47,48,9,23,21,20,22,49,50,51,52,9,21,17,16,20,53,54,55,56,9,16,18,22,20,57,58,16,59,9,21,23,19,17,60,61,62,63,9,25,27,26,24,64,65,66,67,9,27,31,30,26,68,69,70,71,9,31,29,28,30,72,73,74,41,9,29,25,24,28,54,75,76,77,9,24,26,30,28,78,79,59,80,9,29,31,27,25,81,82,83,84,9,33,35,34,32,85,86,87,88,9,35,39,38,34,89,90,91,92,9,39,37,36,38,93,94,95,96,9,37,33,32,36,97,98,99,100,9,32,34,38,36,101,102,103,104,9,37,39,35,33,105,106,107,108,9,41,43,42,40,109,110,111,112,9,43,47,46,42,113,114,115,116,9,47,45,44,46,117,118,119,120,9,45,41,40,44,121,122,123,124,9,40,42,46,44,125,126,127,128,9,45,47,43,41,129,130,131,132,9,49,51,50,48,133,134,135,136,9,51,55,54,50,114,137,138,139,9,55,53,52,54,140,119,141,142,9,53,49,48,52,143,144,11,145,9,48,50,54,52,146,147,148,149,9,53,55,51,49,150,151,152,153,9,57,59,58,56,154,155,156,157,9,59,63,62,58,158,159,160,161,9,63,61,60,62,162,163,140,164,9,61,57,56,60,165,166,167,168,9,56,58,62,60,169,170,171,172,9,61,63,59,57,149,148,173,174,9,65,67,66,64,175,111,176,177,9,67,71,70,66,137,158,161,178,9,71,69,68,70,179,180,88,181,9,69,65,64,68,182,183,184,97,9,64,66,70,68,185,186,187,188,9,69,71,67,65,189,190,107,191,9,73,75,74,72,192,193,194,195,9,75,79,78,74,183,196,197,198,9,79,77,76,78,199,200,201,202,9,77,73,72,76,203,204,205,206,9,72,74,78,76,207,208,209,210,9,77,79,75,73,188,211,212,213,9,81,83,82,80,202,214,215,199,9,83,87,86,82,42,216,217,218,9,87,85,84,86,93,219,220,221,9,85,81,80,84,222,223,224,225,9,80,82,86,84,226,227,228,229,9,85,87,83,81,230,231,147,232,9,89,91,90,88,233,93,234,235,9,91,95,94,90,236,237,238,239,9,95,93,92,94,200,240,241,201,9,93,89,88,92,90,236,242,243,9,88,90,94,92,244,245,246,247,9,93,95,91,89,229,228,248,249,9,97,99,98,96,250,251,252,253,9,99,103,102,98,254,255,256,257,9,103,101,100,102,219,258,259,220,9,101,97,96,100,260,261,262,263,9,96,98,102,100,249,247,264,265,9,101,103,99,97,266,267,104,268,9,105,107,106,104,269,219,270,271,9,107,111,110,106,272,89,273,160,9,111,109,108,110,258,274,275,259,9,109,105,104,108,276,277,263,278,9,104,106,110,108,279,280,281,282,9,109,111,107,105,247,246,283,284,9,112,114,118,116,285,286,61,287,9,117,119,115,113,288,289,290,291,9,120,122,126,124,292,293,294,295,9,125,127,123,121,296,280,297,288,9,129,131,130,128,298,299,300,301,9,131,135,134,130,302,303,304,305,9,135,133,132,134,306,307,308,309,9,133,129,128,132,310,311,312,313,9,128,130,134,132,314,315,316,292,9,133,135,131,129,317,318,208,319,9,137,139,138,136,320,321,322,74,9,139,143,142,138,323,324,325,326,9,143,141,140,142,327,328,329,330,9,141,137,136,140,331,332,333,334,9,136,138,142,140,335,316,315,336,9,141,143,139,137,337,338,339,340,9,145,147,146,144,341,298,301,322,9,147,151,150,146,342,343,311,304,9,151,149,148,150,344,345,307,346,9,149,145,144,148,347,348,349,350,9,144,146,150,148,351,352,353,354,9,149,151,147,145,355,356,357,358,9,153,155,154,152,359,360,361,362,9,155,159,158,154,363,364,365,366,9,159,157,156,158,367,368,369,370,9,157,153,152,156,371,372,373,374,9,152,154,158,156,375,376,377,378,9,157,159,155,153,379,377,376,380,9,161,163,162,160,381,382,362,383,9,163,167,166,162,384,385,386,387,9,167,165,164,166,388,344,389,390,9,165,161,160,164,347,391,372,392,9,160,162,166,164,393,353,394,395,9,165,167,163,161,396,397,398,399,9,169,171,170,168,400,401,402,403,9,171,175,174,170,404,274,405,406,9,175,173,172,174,407,408,409,217,9,173,169,168,172,410,411,412,413,9,168,170,174,172,414,339,338,415,9,173,175,171,169,416,417,102,418,9,177,179,178,176,419,420,421,388,9,179,183,182,178,422,423,424,425,9,183,181,180,182,426,427,428,429,9,181,177,176,180,430,431,432,433,9,176,178,182,180,434,435,397,436,9,181,183,179,177,437,438,129,439,9,185,187,186,184,440,441,442,443,9,187,191,190,186,424,404,406,444,9,191,189,188,190,309,445,446,447,9,189,185,184,188,448,333,449,450,9,184,186,190,188,451,452,189,453,9,189,191,187,185,454,455,456,457,9,193,195,194,192,458,459,460,461,9,195,199,198,194,462,275,250,463,9,199,197,196,198,464,465,466,467,9,197,193,192,196,433,432,413,468,9,192,194,198,196,469,470,471,379,9,197,199,195,193,472,473,150,474,9,201,203,202,200,475,476,477,478,9,203,207,206,202,433,479,480,481,9,207,205,204,206,482,483,484,485,9,205,201,200,204,404,424,423,486,9,200,202,206,204,487,488,489,490,9,205,207,203,201,491,492,493,494,9,209,211,210,208,495,496,497,498,9,211,215,214,210,499,500,501,502,9,215,213,212,214,503,504,23,505,9,213,209,208,212,506,507,508,509,9,208,210,214,212,510,511,512,513,9,213,215,211,209,514,515,516,517,9,217,219,218,216,518,519,520,521,9,219,223,222,218,522,523,524,525,9,223,221,220,222,526,192,527,28,9,221,217,216,220,528,529,530,531,9,216,218,222,220,532,533,534,535,9,221,223,219,217,536,537,538,539,9,225,227,226,224,381,382,362,383,9,227,231,230,226,384,385,386,387,9,231,229,228,230,388,344,389,390,9,229,225,224,228,347,391,372,392,9,229,231,227,225,396,397,398,399,9,233,235,234,232,499,500,501,502,9,237,239,238,236,381,382,362,383,9,239,243,242,238,384,385,386,387,9,243,241,240,242,388,344,389,390,9,241,237,236,240,347,391,372,392,9,241,243,239,237,396,397,398,399,9,245,247,246,244,499,500,501,502,9,249,251,250,248,381,382,362,383,9,251,255,254,250,384,385,386,387,9,255,253,252,254,388,344,389,390,9,253,249,248,252,347,391,372,392,9,253,255,251,249,396,397,398,399,9,257,259,258,256,499,500,501,502,9,261,263,262,260,381,382,362,383,9,263,267,266,262,384,385,386,387,9,267,265,264,266,388,344,389,390,9,265,261,260,264,347,391,372,392,9,265,267,263,261,396,397,398,399,9,269,271,270,268,499,500,501,502,9,273,275,274,272,381,382,362,383,9,275,279,278,274,384,385,386,387,9,279,277,276,278,388,344,389,390,9,277,273,272,276,347,391,372,392,9,277,279,275,273,396,397,398,399,9,281,283,282,280,499,500,501,502,9,285,287,286,284,381,382,362,383,9,287,291,290,286,384,385,386,387,9,291,289,288,290,388,344,389,390,9,289,285,284,288,347,391,372,392,9,289,291,287,285,396,397,398,399,9,293,295,294,292,499,500,501,502,9,297,299,298,296,381,382,362,383,9,299,303,302,298,384,385,386,387,9,303,301,300,302,388,344,389,390,9,301,297,296,300,347,391,372,392,9,301,303,299,297,396,397,398,399,9,305,307,306,304,499,500,501,502,9,309,311,310,308,381,382,362,383,9,311,315,314,310,384,385,386,387,9,315,313,312,314,388,344,389,390,9,313,309,308,312,347,391,372,392,9,313,315,311,309,396,397,398,399,9,317,319,318,316,499,500,501,502],
            "uvs": [[0.507882,0.424398,0.462041,0.424398,0.462041,0.39785,0.507882,0.39785,0.726901,0.451322,0.726901,0.424774,0.772653,0.424774,0.772653,0.451322,0.584237,0.39785,0.538396,0.39785,0.538396,0.371302,0.584237,0.371302,0.691158,0.424765,0.691157,0.451312,0.645406,0.451312,0.645406,0.424765,0.691247,0.398217,0.691247,0.424765,0.645406,0.424765,0.645406,0.398217,0.538396,0.424397,0.584237,0.424397,0.584237,0.450945,0.538396,0.450945,0.772653,0.451322,0.772653,0.424774,0.818404,0.424774,0.818405,0.451322,0.462041,0.371302,0.507882,0.371302,0.772743,0.424774,0.772743,0.398226,0.818494,0.398226,0.818494,0.424774,0.507882,0.450945,0.462041,0.450945,0.462041,0.424398,0.772742,0.398226,0.772742,0.424774,0.726901,0.424774,0.726901,0.398226,0.986815,0.324534,0.983604,0.324534,0.983603,0,0.986815,0,0.462041,0,0.507882,0,0.507882,0.324534,0.462041,0.324534,0.990027,0,0.993239,0,0.993239,0.324534,0.990027,0.324534,0.553724,0,0.599565,0,0.599565,0.324534,0.553724,0.324534,0.694453,0.424765,0.691247,0.424765,0.694453,0.398217,0.700864,0.398217,0.704069,0.398217,0.704069,0.424765,0.700864,0.424765,0.993239,0,0.996451,0,0.996451,0.324534,0.993239,0.324534,0.507882,0,0.553723,0,0.553724,0.324534,0.507883,0.324534,0.986815,0,0.990027,0,0.990027,0.324534,0.645406,0,0.645406,0.324534,0.599565,0.324534,0.697658,0.424765,0.694453,0.424765,0.697658,0.398217,0.700864,0.424765,0.697658,0.424765,0.697658,0.398217,0.700864,0.398217,0.955082,0.398217,0.940822,0.398217,0.940822,0.199108,0.955082,0.199108,0.59432,0.371302,0.595328,0.371302,0.595328,0.57041,0.59432,0.57041,0.9123,0.199108,0.926561,0.199108,0.926561,0.398217,0.9123,0.398217,0.587262,0.57041,0.586254,0.57041,0.586254,0.371302,0.587262,0.371302,0.725482,0.398319,0.725482,0.406578,0.724483,0.406476,0.724483,0.398217,0.723483,0.398217,0.723483,0.406476,0.722484,0.406578,0.722484,0.398319,0.983603,0.398217,0.969343,0.398217,0.969343,0.199108,0.983603,0.199108,0.589279,0.371302,0.590287,0.371302,0.590287,0.57041,0.589279,0.57041,0.926561,0,0.940822,0,0.940822,0.199108,0.926561,0.199108,0.52248,0.57041,0.521472,0.57041,0.521472,0.371302,0.52248,0.371302,0.719486,0.414836,0.719486,0.406578,0.720485,0.40668,0.720485,0.414938,0.720485,0.414938,0.720485,0.40668,0.721485,0.406578,0.721485,0.414836,0.969343,0.199108,0.955082,0.199108,0.955082,0,0.969343,0,0.591295,0.371302,0.591295,0.57041,0.590287,0.57041,0.926561,0.199108,0.940822,0.398217,0.926561,0.398217,0.585246,0.57041,0.584237,0.57041,0.585245,0.371302,0.720485,0.406476,0.720485,0.398217,0.721485,0.398319,0.721485,0.406578,0.722484,0.414938,0.722484,0.406679,0.723483,0.406578,0.723483,0.414836,0.969343,0.398217,0.955082,0.398217,0.955082,0.199108,0.969343,0.199108,0.592303,0.371302,0.593312,0.371302,0.593312,0.57041,0.592303,0.57041,0.9123,0,0.926561,0,0.9123,0.199108,0.586254,0.57041,0.585246,0.57041,0.585246,0.371302,0.586254,0.371302,0.719486,0.398319,0.719486,0.406578,0.718487,0.406476,0.718487,0.398217,0.722484,0.398217,0.722484,0.406476,0.983603,0.199108,0.969343,0,0.983603,0,0.591295,0.57041,0.940822,0,0.955082,0,0.940822,0.199108,0.587262,0.371302,0.58827,0.371302,0.58827,0.57041,0.725482,0.406679,0.725482,0.414938,0.724483,0.414836,0.724483,0.406578,0.721485,0.414938,0.721485,0.406679,0.722484,0.414836,0.52321,0.324534,0.53747,0.324534,0.53747,0.523642,0.52321,0.523642,0.589279,0.371302,0.589279,0.57041,0.58827,0.57041,0.628086,0.523643,0.613825,0.523643,0.613825,0.324534,0.628086,0.324534,0.520464,0.371302,0.521472,0.371302,0.521472,0.57041,0.520464,0.57041,0.719486,0.40668,0.719486,0.414938,0.718487,0.414837,0.718487,0.406578,0.724483,0.414836,0.723483,0.414938,0.723483,0.406679,0.642347,0.324534,0.642347,0.523643,0.984612,0.324534,0.984612,0.523643,0.983603,0.523643,0.89804,0.199108,0.89804,0,0.9123,0,0.518447,0.57041,0.517439,0.57041,0.517439,0.371302,0.518447,0.371302,0.715489,0.414836,0.715489,0.406578,0.716488,0.40668,0.716488,0.414938,0.719486,0.406578,0.719486,0.398319,0.720485,0.406476,0.89804,0.199108,0.9123,0.398217,0.89804,0.398217,0.596336,0.371302,0.597345,0.371302,0.597345,0.57041,0.596336,0.57041,0.599565,0.523643,0.599565,0.324534,0.596336,0.57041,0.595328,0.57041,0.716488,0.406476,0.716488,0.398217,0.717487,0.398319,0.717487,0.406578,0.717487,0.406578,0.717487,0.414837,0.869518,0.199108,0.883779,0.199108,0.883779,0.398217,0.869518,0.398217,0.517439,0.57041,0.51643,0.57041,0.51643,0.371302,0.517439,0.371302,0.883779,0.199108,0.883779,0,0.519455,0.57041,0.518447,0.57041,0.518447,0.371302,0.519455,0.371302,0.718487,0.40668,0.718487,0.414939,0.723483,0.406577,0.723483,0.398319,0.724483,0.406476,0.883779,0.199108,0.89804,0.398217,0.883779,0.398217,0.593312,0.371302,0.59432,0.57041,0.869518,0.199108,0.869518,0,0.520464,0.57041,0.519455,0.57041,0.520464,0.371302,0.715489,0.406476,0.715489,0.398217,0.716488,0.398319,0.716488,0.406578,0.718487,0.398217,0.718487,0.406476,0.706924,0.421815,0.704069,0.421815,0.706924,0.398217,0.712634,0.421815,0.709779,0.421815,0.709779,0.398217,0.712634,0.398217,0.709779,0.421815,0.706924,0.421815,0.706924,0.398217,0.709779,0.398217,0.712634,0.398217,0.715489,0.421815,0.988033,0.523643,0.987035,0.523643,0.987035,0.324534,0.988033,0.324534,0.79821,0.199108,0.783948,0.199108,0.783948,0,0.79821,0,0.996011,0.523643,0.995014,0.523643,0.995014,0.324534,0.996011,0.324534,0.755425,0,0.769687,0,0.769687,0.199108,0.755425,0.199108,0.709779,0.430074,0.70878,0.430074,0.70878,0.421815,0.720485,0.423198,0.719486,0.423198,0.720485,0.414938,0.990027,0.523643,0.98903,0.523643,0.98903,0.324534,0.783948,0.398217,0.769687,0.398217,0.769687,0.199108,0.783948,0.199108,0.997008,0.324534,0.998005,0.324534,0.998005,0.523643,0.997008,0.523643,0.783948,0.199108,0.79821,0.199108,0.79821,0.398217,0.783948,0.398217,0.707781,0.421815,0.707781,0.430074,0.716488,0.414939,0.717487,0.414939,0.717487,0.423198,0.716488,0.423198,0.98903,0.523643,0.783948,0.199108,0.769687,0.199108,0.994016,0.324534,0.995014,0.324534,0.994016,0.523643,0.755425,0.199108,0.769687,0.199108,0.769687,0.398217,0.755425,0.398217,0.712634,0.421815,0.713633,0.421815,0.713633,0.430074,0.712634,0.430074,0.719486,0.423198,0.718487,0.423198,0.718487,0.414938,0.719486,0.414938,0.598342,0.57041,0.597345,0.57041,0.597345,0.371302,0.598342,0.371302,0.741163,0.398226,0.726901,0.398221,0.726901,0.199113,0.741163,0.199118,0.991024,0.324534,0.992022,0.324534,0.992022,0.523642,0.991024,0.523642,0.726901,5e-06,0.741163,0,0.741163,0.199108,0.726901,0.199113,0.707067,0.430074,0.706068,0.430074,0.706068,0.421815,0.707067,0.421815,0.705068,0.421815,0.705068,0.430074,0.599339,0.57041,0.598342,0.57041,0.599339,0.371302,0.741163,0.199108,0.755425,0.199108,0.755425,0.398217,0.741163,0.398217,0.993019,0.324534,0.994016,0.523643,0.993019,0.523643,0.741163,0.199108,0.755425,0,0.714632,0.430074,0.713633,0.421815,0.714632,0.421815,0.723483,0.414938,0.724482,0.414938,0.724482,0.423197,0.723483,0.423198,1,0.523643,0.999003,0.523642,0.999003,0.324534,1,0.324534,0.855257,0.199108,0.869518,0.398217,0.855257,0.398217,0.984612,0.324534,0.985609,0.324534,0.985609,0.523643,0.812472,0.199108,0.79821,0.199108,0.79821,0,0.812472,0,0.718487,0.423198,0.718487,0.414939,0.726481,0.414837,0.725482,0.414837,0.726481,0.406578,0.993019,0.523643,0.992022,0.523643,0.992022,0.324534,0.826733,0,0.840995,0,0.840995,0.199108,0.826733,0.199108,0.985609,0.324534,0.986607,0.324534,0.986607,0.523643,0.985609,0.523643,0.826733,0.398217,0.812472,0.398217,0.812472,0.199108,0.826733,0.199108,0.725482,0.423197,0.724482,0.423197,0.725482,0.414938,0.721485,0.423198,0.720485,0.423198,0.721485,0.414938,0.998445,0.199108,0.997448,0.199108,0.997448,0,0.998445,0,0.840995,0.398217,0.997008,0.324534,0.997008,0.523643,0.996011,0.523643,0.812472,0.398217,0.79821,0.199108,0.812472,0.199108,0.722484,0.423197,0.721485,0.423197,0.722484,0.414938,0.726481,0.423096,0.725482,0.423096,0.725482,0.414837,0.726481,0.414837,0.999443,0.199108,0.998445,0.199108,0.998445,0,0.999443,0,0.855257,0,0.855257,0.199108,0.996451,0,0.997448,0,0.997448,0.199108,0.996451,0.199108,0.826733,0,0.705068,0.430074,0.704069,0.430074,0.704069,0.421815,0.723483,0.423197,0.722484,0.423197,0.723483,0.414938,0.999003,0.523643,0.998006,0.523643,0.998005,0.324534,0.999003,0.324534,0.840995,0.199108,0.840995,0.398217,0.826733,0.398217,0.990027,0.324534,0.991024,0.324534,0.991024,0.523643,0.990027,0.523643,0.855257,0,0.726481,0.406476,0.725482,0.406476,0.725482,0.398217,0.726481,0.398217,0.716488,0.423198,0.715489,0.423198,0.715489,0.414938,0.716488,0.414938,0.462041,0.450945,0.505092,0.450945,0.505092,0.477493,0.462041,0.477493,0.32993,0.980659,0.329929,0,0.37577,0,0.375771,0.980659,0.581447,0.477493,0.538396,0.477493,0.581447,0.450945,0.329929,0,0.329929,0.980659,0.284088,0.980659,0.284088,0,0.375771,0,0.418906,0,0.418906,0.98066,0.375771,0.98066,0.418906,0,0.462041,0,0.462041,0.98066,0.418906,0.98066,0.599565,0.371302,0.538396,0.371302,0.538396,0.324534,0.599565,0.324534,0.080756,0.999999,0.080756,0,0.161511,0,0.161511,0.999999,0.462041,0.324534,0.52321,0.371302,0.080756,0,0.080755,1,0,1,0,0,0.161511,0,0.2228,0,0.2228,1,0.161511,1,0.2228,0,0.284088,0,0.284088,1,0.2228,1]],
            "name": "balconGeometry",
            "metadata": {
                "version": 3,
                "generator": "io_three",
                "vertices": 320,
                "faces": 208,
                "uvs": 1
            }
        }
    },{
        "type": "Geometry",
        "uuid": "C50857E9-C0E5-36F4-A019-B7B0144B2690",
        "data": {
            "vertices": [-0.24,0.005,0.06,-0.24,0.005,0.27,-0.03,0.005,0.27,-0.03,0.005,0.06,0.03,0.005,0.06,0.03,0.005,0.27,0.24,0.005,0.27,0.24,0.005,0.06,-0.24,0.005,0.33,-0.24,0.005,0.54,-0.03,0.005,0.54,-0.03,0.005,0.33,0.03,0.005,0.33,0.03,0.005,0.54,0.24,0.005,0.54,0.24,0.005,0.33],
            "faces": [9,0,1,2,3,0,1,2,3,9,4,5,6,7,4,5,6,7,9,8,9,10,11,8,9,6,10,9,12,13,14,15,11,12,13,14],
            "uvs": [[0.861842,0.394737,0.861842,0.532895,0.723684,0.532895,0.723684,0.394737,0.671053,0.861842,0.532895,0.861842,0.532895,0.723684,0.671053,0.723684,0.394737,0.861842,0.394737,0.723684,0.532895,0.861842,0.723684,0.947368,0.723684,0.809211,0.861842,0.809211,0.861842,0.947368]],
            "name": "glass1Geometry",
            "metadata": {
                "version": 3,
                "generator": "io_three",
                "vertices": 16,
                "faces": 4,
                "uvs": 1
            }
        }
    },{
        "type": "Geometry",
        "uuid": "FF330B57-6BB1-30A9-AAE5-9746AA5C4FB5",
        "data": {
            "vertices": [-0.3,-0.02,0,-0.3,0.02,0,-0.26,-0.02,0.04,-0.26,0.02,0.04,-0.01,-0.02,0.04,-0.01,0.02,0.04,0.01,-0.02,0.04,0.01,0.02,0.04,0.26,-0.02,0.04,0.26,0.02,0.04,0.3,-0.02,0,0.3,0.02,0,-0.3,-0.02,0.29,-0.3,0.02,0.29,-0.26,-0.02,0.29,-0.26,0.02,0.29,-0.01,-0.02,0.29,-0.01,0.02,0.29,0.01,-0.02,0.29,0.01,0.02,0.29,0.26,-0.02,0.29,0.26,0.02,0.29,0.3,-0.02,0.29,0.3,0.02,0.29,-0.3,-0.02,0.31,-0.3,0.02,0.31,-0.26,-0.02,0.31,-0.26,0.02,0.31,-0.01,-0.02,0.31,-0.01,0.02,0.31,0.01,-0.02,0.31,0.01,0.02,0.31,0.26,-0.02,0.31,0.26,0.02,0.31,0.3,-0.02,0.31,0.3,0.02,0.31,-0.3,-0.02,0.6,-0.3,0.02,0.6,-0.26,-0.02,0.56,-0.26,0.02,0.56,-0.01,-0.02,0.56,-0.01,0.02,0.56,0.01,-0.02,0.56,0.01,0.02,0.56,0.26,-0.02,0.56,0.26,0.02,0.56,0.3,-0.02,0.6,0.3,0.02,0.6,-0.26,-0.01,0.04,-0.24,-0.01,0.06,-0.24,0.01,0.06,-0.26,0.01,0.04,-0.26,-0.01,0.29,-0.24,-0.01,0.27,-0.24,0.01,0.27,-0.26,0.01,0.29,-0.01,-0.01,0.29,-0.03,-0.01,0.27,-0.03,0.01,0.27,-0.01,0.01,0.29,-0.01,-0.01,0.04,-0.03,-0.01,0.06,-0.03,0.01,0.06,-0.01,0.01,0.04,-0.24,-0.005,0.06,-0.24,-0.005,0.27,-0.03,-0.005,0.27,-0.03,-0.005,0.06,-0.24,0.005,0.06,-0.24,0.005,0.27,-0.03,0.005,0.27,-0.03,0.005,0.06,0.01,-0.01,0.04,0.03,-0.01,0.06,0.03,0.01,0.06,0.01,0.01,0.04,0.01,-0.01,0.29,0.03,-0.01,0.27,0.03,0.01,0.27,0.01,0.01,0.29,0.26,-0.01,0.29,0.24,-0.01,0.27,0.24,0.01,0.27,0.26,0.01,0.29,0.26,-0.01,0.04,0.24,-0.01,0.06,0.24,0.01,0.06,0.26,0.01,0.04,0.03,-0.005,0.06,0.03,-0.005,0.27,0.24,-0.005,0.27,0.24,-0.005,0.06,0.03,0.005,0.06,0.03,0.005,0.27,0.24,0.005,0.27,0.24,0.005,0.06,-0.26,-0.01,0.31,-0.24,-0.01,0.33,-0.24,0.01,0.33,-0.26,0.01,0.31,-0.26,-0.01,0.56,-0.24,-0.01,0.54,-0.24,0.01,0.54,-0.26,0.01,0.56,-0.01,-0.01,0.56,-0.03,-0.01,0.54,-0.03,0.01,0.54,-0.01,0.01,0.56,-0.01,-0.01,0.31,-0.03,-0.01,0.33,-0.03,0.01,0.33,-0.01,0.01,0.31,-0.24,-0.005,0.33,-0.24,-0.005,0.54,-0.03,-0.005,0.54,-0.03,-0.005,0.33,-0.24,0.005,0.33,-0.24,0.005,0.54,-0.03,0.005,0.54,-0.03,0.005,0.33,0.01,-0.01,0.31,0.03,-0.01,0.33,0.03,0.01,0.33,0.01,0.01,0.31,0.01,-0.01,0.56,0.03,-0.01,0.54,0.03,0.01,0.54,0.01,0.01,0.56,0.26,-0.01,0.56,0.24,-0.01,0.54,0.24,0.01,0.54,0.26,0.01,0.56,0.26,-0.01,0.31,0.24,-0.01,0.33,0.24,0.01,0.33,0.26,0.01,0.31,0.03,-0.005,0.33,0.03,-0.005,0.54,0.24,-0.005,0.54,0.24,-0.005,0.33,0.03,0.005,0.33,0.03,0.005,0.54,0.24,0.005,0.54,0.24,0.005,0.33,-0.3,0.055,0,0.3,0.055,0,-0.3,-0.055,0,0.3,-0.055,0,-0.3,0.055,-0.04,0.3,0.055,-0.04,-0.3,-0.055,-0.04,0.3,-0.055,-0.04],
            "faces": [9,0,1,11,10,0,1,2,3,9,3,2,4,5,4,5,6,7,9,7,6,8,9,8,9,10,11,8,0,10,8,17,12,13,8,8,6,4,13,14,15,8,4,2,0,15,16,17,8,8,4,0,13,15,17,8,11,1,3,23,18,19,8,3,5,7,19,20,21,8,7,9,11,21,22,23,8,3,7,11,19,21,23,9,13,12,24,25,24,25,26,27,9,22,23,35,34,28,29,30,31,9,12,14,26,24,32,33,34,35,9,15,13,25,27,36,37,38,39,9,14,16,28,26,33,40,41,34,9,17,15,27,29,42,36,39,43,9,16,18,30,28,40,44,45,41,9,19,17,29,31,46,42,43,47,9,18,20,32,30,44,48,49,45,9,21,19,31,33,50,46,47,51,9,20,22,34,32,48,52,53,49,9,23,21,33,35,54,50,51,55,9,14,15,17,16,56,57,58,59,9,27,26,28,29,60,61,62,63,9,18,19,21,20,64,4,7,65,9,31,30,32,33,59,66,67,68,9,1,0,12,13,69,70,25,24,9,3,1,13,15,19,18,37,36,9,2,3,15,14,71,72,73,74,9,0,2,14,12,17,16,33,32,9,5,4,16,17,75,76,77,78,9,7,5,17,19,21,20,42,46,9,6,7,19,18,79,80,81,82,9,4,6,18,16,15,14,44,40,9,9,8,20,21,83,84,85,86,9,11,9,21,23,23,22,50,54,9,10,11,23,22,87,88,29,28,9,8,10,22,20,13,12,52,48,9,25,24,36,37,27,26,89,90,9,27,25,37,39,39,38,91,92,9,26,27,39,38,82,81,93,94,9,24,26,38,36,35,34,95,23,9,29,28,40,41,96,83,97,98,9,31,29,41,43,47,43,99,100,9,30,31,43,42,74,73,101,102,9,28,30,42,40,41,45,103,104,9,33,32,44,45,105,106,107,108,9,35,33,45,47,55,51,109,110,9,34,35,47,46,31,30,111,112,9,32,34,46,44,49,53,113,114,9,48,49,53,52,115,116,117,118,9,49,50,54,53,119,120,121,122,9,50,51,55,54,123,124,125,126,9,52,53,57,56,118,117,127,128,9,53,54,58,57,129,130,131,132,9,54,55,59,58,126,125,133,134,9,56,57,61,60,128,127,135,136,9,57,58,62,61,94,137,138,139,9,58,59,63,62,134,133,140,141,9,60,61,49,48,136,135,116,115,9,61,62,50,49,142,143,144,145,9,62,63,51,50,141,140,124,123,9,65,64,67,66,146,147,148,149,9,68,69,70,71,150,151,152,153,9,72,73,77,76,154,155,156,157,9,73,74,78,77,158,159,160,121,9,74,75,79,78,161,162,163,164,9,76,77,81,80,157,156,165,166,9,77,78,82,81,167,168,169,131,9,78,79,83,82,164,163,170,171,9,80,81,85,84,166,165,172,118,9,81,82,86,85,173,174,175,176,9,82,83,87,86,171,170,177,178,9,84,85,73,72,118,172,155,154,9,85,86,74,73,179,180,181,182,9,86,87,75,74,178,177,162,161,9,89,88,91,90,151,146,183,184,9,92,93,94,95,185,186,187,85,9,96,97,101,100,188,189,190,191,9,97,98,102,101,192,193,194,195,9,98,99,103,102,196,197,198,199,9,100,101,105,104,191,190,200,118,9,101,102,106,105,201,202,203,204,9,102,103,107,106,199,198,205,206,9,104,105,109,108,118,200,207,208,9,105,106,110,109,73,209,210,211,9,106,107,111,110,206,205,212,213,9,108,109,97,96,208,207,189,188,9,109,110,98,97,214,215,195,144,9,110,111,99,98,213,212,197,196,9,113,112,115,114,216,217,218,219,9,116,117,118,119,220,221,187,119,9,120,121,125,124,222,223,224,225,9,121,122,126,125,159,226,227,160,9,122,123,127,126,228,229,230,231,9,124,125,129,128,225,224,232,233,9,125,126,130,129,234,235,236,237,9,126,127,131,130,231,230,162,238,9,128,129,133,132,233,232,239,221,9,129,130,134,133,72,240,241,242,9,130,131,135,134,238,162,243,244,9,132,133,121,120,221,239,223,222,9,133,134,122,121,137,93,245,246,9,134,135,123,122,244,243,229,228,9,137,136,139,138,247,218,248,249,9,140,141,142,143,250,148,147,251,9,37,36,46,47,252,253,254,255,9,38,39,41,40,256,257,258,259,9,42,43,45,44,260,261,262,263,8,46,36,38,113,23,95,8,38,40,42,95,104,103,8,42,44,46,103,114,113,8,38,42,46,95,103,113,8,37,47,45,91,110,109,8,45,43,41,109,100,99,8,41,39,37,99,92,91,8,45,41,37,109,99,91,9,151,150,148,149,264,265,266,267,9,149,148,144,145,268,269,270,157,9,146,147,145,144,271,272,273,274,9,150,151,147,146,275,150,89,70,9,148,150,146,144,276,277,278,279,9,147,151,149,145,276,280,281,277],
            "uvs": [[0.940789,0.789474,0.914474,0.789474,0.914474,0.394737,0.940789,0.394737,0.355263,0.953947,0.328947,0.953947,0.328947,0.789474,0.355263,0.789474,0.967105,0.55921,0.94079,0.55921,0.940789,0.394737,0.967105,0.394737,0,0.789474,0.026316,0.763158,0.190789,0.763158,0.203947,0.763158,0.368421,0.763158,0.394737,0.789474,0,0.394737,0.026316,0.368421,0.190789,0.368421,0.203947,0.368421,0.368421,0.368421,0.394737,0.394737,0.914474,0.598684,0.888158,0.598684,0.888158,0.585526,0.914474,0.585526,0.947368,0.203947,0.921053,0.203947,0.921053,0.190789,0.947368,0.190789,0.394737,0.598684,0.368421,0.598684,0.368421,0.585526,0.394737,0.585526,0.026316,0.203947,0,0.203947,0,0.190789,0.026316,0.190789,0.203947,0.598684,0.203947,0.585526,0.190789,0.203947,0.190789,0.190789,0.190789,0.598684,0.190789,0.585526,0.203947,0.203947,0.203947,0.190789,0.026316,0.598684,0.026316,0.585526,0.368421,0.203947,0.368421,0.190789,0,0.598684,0,0.585526,0.394737,0.203947,0.394737,0.19079,0.967105,0.888158,0.94079,0.888158,0.940789,0.723684,0.967105,0.723684,0.940789,0.953947,0.914474,0.953947,0.914474,0.789474,0.940789,0.789474,0.381579,0.953947,0.381579,0.789474,0.94079,0.723684,0.940789,0.55921,0.967105,0.55921,0.914474,0.789474,0.888158,0.789474,0.947369,0,0.973684,0,0.973684,0.164474,0.947369,0.164474,0.302632,0.953947,0.276316,0.953947,0.276316,0.789474,0.302632,0.789474,0.967105,0.394737,0.993421,0.394737,0.993421,0.55921,0.967105,0.55921,0.697368,0.888158,0.671053,0.888158,0.671053,0.723684,0.697368,0.723684,0.947368,0.394737,0.921053,0.394737,0.888158,0.394737,0.914474,0.394737,0,0,0.026316,0.026316,0.993421,0.723684,0.967105,0.723684,0.368421,0.421053,0.723684,0.888158,0.697368,0.723684,0.723684,0.723684,0.190789,0.026316,0.203947,0.026316,0.973684,0.328947,0.947369,0.328947,0.190789,0.421053,0.203947,0.421053,0.328947,0.953947,0.302632,0.953947,0.302632,0.789474,0.328947,0.789474,0.368421,0.026316,0.394737,0,0.921053,0,0.947368,0,0,0.394737,0.026316,0.421053,0.703947,0.328947,0.69079,0.315789,0.69079,0.177632,0.703947,0.164474,0.532895,0.861842,0.546053,0.861842,0.546053,1,0.532895,1,0.69079,0.151316,0.703947,0.164474,0.539474,0.164474,0.552632,0.151316,0.552632,0.177632,0.539474,0.164474,0.486842,1,0.473684,1,0.473684,0.861842,0.486842,0.861842,0.539474,0,0.552632,0.013158,0.552632,0.315789,0.539474,0.328947,0.980263,0.723684,0.980263,0.861842,0.967105,0.861842,0.703947,0,0.69079,0.013158,0.486842,0.861842,0.5,0.861842,0.5,1,0.486842,1,0.861842,0.671053,0.861842,0.809211,0.723684,0.809211,0.723684,0.671053,0.861842,0.394737,0.861842,0.532895,0.723684,0.532895,0.723684,0.394737,0.868421,0.164474,0.855263,0.151316,0.855263,0.013158,0.868421,0,0.546053,0.861842,0.55921,0.861842,0.55921,1,0.546053,0.546053,0.55921,0.55921,0.394737,0.55921,0.407895,0.546053,0.717105,0.013158,0.703947,0,0.473684,1,0.460526,1,0.460526,0.861842,0.394737,0.394737,0.407895,0.407895,0.717105,0.151316,0.381579,0.789474,0.394737,0.789474,0.394737,0.927632,0.381579,0.927632,0.55921,0.394737,0.546053,0.407895,0.986842,0,1,0,1,0.138158,0.986842,0.138158,0.723684,0.671053,0.723684,0.532895,0.671053,0.861842,0.532895,0.861842,0.532895,0.723684,0.868421,0.328947,0.855263,0.315789,0.855263,0.177632,0.868421,0.164474,0.513158,0.861842,0.526316,0.861842,0.526316,1,0.513158,1,0.572368,0.546053,0.55921,0.559211,0.55921,0.394737,0.572368,0.407895,0.717105,0.177632,0.460526,1,0.447368,1,0.447368,0.861842,0.460526,0.861842,0.723684,0.394737,0.710526,0.407895,0.717105,0.315789,0.703947,0.328947,0.986842,0.164474,0.986842,0.302632,0.973684,0.302632,0.723684,0.559211,0.710526,0.546053,0.5,0.861842,0.513158,0.861842,0.276316,0.789474,0.276316,0.927631,0.138158,0.927631,0.138158,0.789474,0.394737,0.861842,0.394737,0.723684,0.55921,0.723684,0.546053,0.710526,0.546053,0.572368,0.55921,0.55921,0.572368,0.861842,0.572368,1,0.710526,0.710526,0.723684,0.723684,0.55921,0.723684,0.572368,0.710526,0.407895,0.572368,0.394737,0.55921,1,0.276316,0.986842,0.276316,0.986842,0.138158,1,0.138158,0.572368,0.572368,0.407895,0.710526,0.986842,0,0.986842,0.138158,0.973684,0.138158,0.723684,0.55921,0.710526,0.572368,0.993421,0.861842,0.980263,0.861842,0.138158,0.789474,0,0.927632,0,0.789474,0.723684,0.947368,0.861842,0.947368,0.921053,0.394737,0.894737,0.394737,0.894737,0,0.921053,0,0.888158,0.953947,0.861842,0.953947,0.861842,0.789474,0.888158,0.789474,0.914474,0.953947,0.888158,0.953947,0.888158,0.789474,0.914474,0.789474,0.467105,0,0.467105,0.394737,0.394737,0.394737,0.394737,0,0.894737,0,0.894737,0.394737,0.868421,0.394737,0.467105,0.394737,0.467105,0,0.539474,0,0.539474,0.394737,0.861842,0.789474,0.421053,0.861842,0.421053,0.934211,0.394737,0.934211,0.394737,0.861842,0.447368,0.861842,0.447368,0.934211]],
            "name": "window2Geometry",
            "metadata": {
                "version": 3,
                "generator": "io_three",
                "vertices": 152,
                "faces": 124,
                "uvs": 1
            }
        }
    }],
    "images": [{
        "url": "house_a_1_balcon.png",
        "uuid": "7A0D9CC2-6409-3613-83B0-7011A3D08605",
        "name": "house_a_1_balcon.png"
    },{
        "url": "house_a_1_door.png",
        "uuid": "18AB7BFF-C9A0-3D6A-AA57-545466927E16",
        "name": "house_a_1_door.png"
    },{
        "url": "brun_bricks.png",
        "uuid": "B6983CA5-4236-3EBC-A903-B91DC9C99FE4",
        "name": "brun_bricks.png"
    },{
        "url": "house_a_2.png",
        "uuid": "98BA1F7C-20C9-30C6-B80E-4FF96F98F0EF",
        "name": "house_a_2.png"
    }],
    "metadata": {
        "version": 4.4,
        "type": "Object",
        "generator": "io_three",
        "sourceFile": "house_c_2.blend"
    }
}