{
    "object": {
        "children": [{
            "name": "center",
            "uuid": "FD1A4F35-9B23-3F22-8094-3ACC5AECB066",
            "matrix": [-0.006445,0,0,0,0,0,0.006445,0,0,0.496984,0,0,-0.340777,0.497969,-0.003301,1],
            "visible": true,
            "type": "Mesh",
            "material": "1C3C67BB-DF84-30A1-9A2E-3BB8B56AF0B1",
            "castShadow": true,
            "receiveShadow": true,
            "geometry": "25CFB971-609F-3034-9EFB-30A840575B2D"
        },{
            "name": "center.001",
            "uuid": "0343282B-D5FE-344D-B1CC-4286397EA449",
            "matrix": [-0.006445,0,0,0,0,0,0.006445,0,0,0.496984,0,0,0.347485,0.497969,-0.003301,1],
            "visible": true,
            "type": "Mesh",
            "material": "1C3C67BB-DF84-30A1-9A2E-3BB8B56AF0B1",
            "castShadow": true,
            "receiveShadow": true,
            "geometry": "C2616229-F6CB-3048-838A-EB436CF18552"
        },{
            "name": "fence",
            "uuid": "A234F9D4-E012-373C-B5DD-B4CAC34D6662",
            "matrix": [-1.5,0,0,0,0,0,0.02,0,0,0.5,0,0,0,0.5,-0.02241,1],
            "visible": true,
            "type": "Mesh",
            "material": "A234F9D4-E012-373C-B5DD-B4CAC34D6662",
            "castShadow": true,
            "receiveShadow": true,
            "geometry": "00DF304F-3B1E-35D5-BC3E-752F291B7D5C"
        },{
            "name": "fence_back",
            "uuid": "1A3A74F6-229B-3EFA-852C-12A8D81BFE51",
            "matrix": [1.5,0,-0,0,-0,0,-0.02,0,0,0.5,0,0,0.008836,0.5,0.021768,1],
            "visible": true,
            "type": "Mesh",
            "material": "A234F9D4-E012-373C-B5DD-B4CAC34D6662",
            "castShadow": true,
            "receiveShadow": true,
            "geometry": "A8AD387C-7E0B-38F2-9D8F-BA7D9F8DC257"
        },{
            "name": "left",
            "uuid": "EEA62317-373C-3EF5-A763-3C1FEA500E22",
            "matrix": [-0.006445,0,0,0,0,0,0.006445,0,0,0.496984,0,0,-1.49848,0.499735,-8.8e-05,1],
            "visible": true,
            "type": "Mesh",
            "material": "1C3C67BB-DF84-30A1-9A2E-3BB8B56AF0B1",
            "castShadow": true,
            "receiveShadow": true,
            "geometry": "01C1A477-7C38-3E34-AC5F-BF675433F359"
        },{
            "name": "right",
            "uuid": "0496A331-9D93-3D8B-9AC0-B63F998932CA",
            "matrix": [-0.006445,0,0,0,0,0,0.006445,0,0,0.496984,0,0,1.50643,0.499735,-8.8e-05,1],
            "visible": true,
            "type": "Mesh",
            "material": "1C3C67BB-DF84-30A1-9A2E-3BB8B56AF0B1",
            "castShadow": true,
            "receiveShadow": true,
            "geometry": "5CF260AA-0326-3079-AFD9-E1094A2C6435"
        },{
            "name": "top",
            "uuid": "58D7A27D-AF9D-34DA-ACBD-3A2D37BE95AD",
            "matrix": [0,-0.006445,0,0,0,0,0.006445,0,-0.58299,-0,0,0,-0.919368,0.992648,-8.8e-05,1],
            "visible": true,
            "type": "Mesh",
            "material": "1C3C67BB-DF84-30A1-9A2E-3BB8B56AF0B1",
            "castShadow": true,
            "receiveShadow": true,
            "geometry": "DCC99628-C4AB-34D8-8371-0A656E7400B7"
        },{
            "name": "top.001",
            "uuid": "321E44E0-74A6-360E-9925-88F421488A78",
            "matrix": [0,-0.006445,0,0,0,0,0.006445,0,-0.58299,-0,0,0,0.927851,0.992648,-8.8e-05,1],
            "visible": true,
            "type": "Mesh",
            "material": "1C3C67BB-DF84-30A1-9A2E-3BB8B56AF0B1",
            "castShadow": true,
            "receiveShadow": true,
            "geometry": "3C02ECA4-80F4-37C3-B92B-1845EBE7DD5E"
        }],
        "matrix": [1,0,0,0,0,1,0,0,0,0,1,0,0,0,0,1],
        "type": "Scene",
        "uuid": "9ECC2E04-81B4-4F4B-B353-E6EBDDB47EC4"
    },
    "animations": [{
        "tracks": [],
        "fps": 24,
        "name": "default"
    }],
    "images": [{
        "url": "fence.png",
        "name": "fence.png",
        "uuid": "8F59C164-7E22-336C-A769-038A2A5EEFEB"
    }],
    "metadata": {
        "sourceFile": "fence2_door_typeb.blend",
        "generator": "io_three",
        "version": 4.4,
        "type": "Object"
    },
    "textures": [{
        "minFilter": 1008,
        "image": "8F59C164-7E22-336C-A769-038A2A5EEFEB",
        "name": "fence",
        "repeat": [1,1],
        "anisotropy": 1,
        "magFilter": 1006,
        "mapping": 300,
        "wrap": [1000,1000],
        "uuid": "A234F9D4-E012-373C-B5DD-B4CAC34D6662"
    }],
    "materials": [{
        "side": 2,
        "specular": 7763574,
        "name": "fence",
        "map": "A234F9D4-E012-373C-B5DD-B4CAC34D6662",
        "vertexColors": false,
        "depthWrite": true,
        "uuid": "A234F9D4-E012-373C-B5DD-B4CAC34D6662",
        "color": 10724259,
        "emissive": 0,
        "shininess": 50,
        "blending": "NormalBlending",
        "ambient": 10724259,
        "depthTest": true,
        "transparent": true,
        "type": "MeshPhongMaterial"
    },{
        "side": 2,
        "specular": 10724259,
        "name": "fence_top",
        "vertexColors": false,
        "uuid": "1C3C67BB-DF84-30A1-9A2E-3BB8B56AF0B1",
        "color": 8224125,
        "emissive": 0,
        "shininess": 19,
        "blending": "NormalBlending",
        "ambient": 8224125,
        "depthTest": true,
        "depthWrite": true,
        "type": "MeshPhongMaterial"
    }],
    "geometries": [{
        "data": {
            "name": "centerGeometry.1",
            "metadata": {
                "faces": 92,
                "generator": "io_three",
                "version": 3,
                "uvs": 0,
                "vertices": 64
            },
            "faces": [1,0,1,3,2,1,2,3,5,4,1,4,5,7,6,1,6,7,9,8,1,8,9,11,10,1,10,11,13,12,1,12,13,15,14,1,14,15,17,16,1,16,17,19,18,1,18,19,21,20,1,20,21,23,22,1,22,23,25,24,1,24,25,27,26,1,26,27,29,28,1,28,29,31,30,1,30,31,33,32,1,32,33,35,34,1,34,35,37,36,1,36,37,39,38,1,38,39,41,40,1,40,41,43,42,1,42,43,45,44,1,44,45,47,46,1,46,47,49,48,1,48,49,51,50,1,50,51,53,52,1,52,53,55,54,1,54,55,57,56,1,56,57,59,58,1,58,59,61,60,0,5,3,1,0,1,63,61,0,61,59,57,0,57,55,53,0,53,51,49,0,49,47,45,0,45,43,41,0,41,39,37,0,37,35,33,0,33,31,29,0,29,27,25,0,25,23,21,0,21,19,17,0,17,15,13,0,13,11,9,0,9,7,5,0,5,1,61,0,61,57,53,0,53,49,45,0,45,41,37,0,37,33,29,0,29,25,21,0,21,17,13,0,13,9,5,0,5,61,53,0,53,45,37,0,37,29,21,0,21,13,5,0,5,53,37,0,37,21,5,1,1,0,62,63,1,60,61,63,62,0,62,0,2,0,2,4,6,0,6,8,10,0,10,12,14,0,14,16,18,0,18,20,22,0,22,24,26,0,26,28,30,0,30,32,34,0,34,36,38,0,38,40,42,0,42,44,46,0,46,48,50,0,50,52,54,0,54,56,58,0,58,60,62,0,62,2,6,0,6,10,14,0,14,18,22,0,22,26,30,0,30,34,38,0,38,42,46,0,46,50,54,0,54,58,62,0,62,6,14,0,14,22,30,0,30,38,46,0,46,54,62,0,62,14,30,0,30,46,62],
            "vertices": [0,1,-1,0,1,1,0.19509,0.980785,-1,0.19509,0.980785,1,0.382683,0.92388,-1,0.382683,0.92388,1,0.55557,0.83147,-1,0.55557,0.83147,1,0.707107,0.707107,-1,0.707107,0.707107,1,0.83147,0.55557,-1,0.83147,0.55557,1,0.92388,0.382683,-1,0.92388,0.382683,1,0.980785,0.19509,-1,0.980785,0.19509,1,1,0,-1,1,0,1,0.980785,-0.19509,-1,0.980785,-0.19509,1,0.92388,-0.382683,-1,0.92388,-0.382683,1,0.83147,-0.55557,-1,0.83147,-0.55557,1,0.707107,-0.707107,-1,0.707107,-0.707107,1,0.55557,-0.83147,-1,0.55557,-0.83147,1,0.382683,-0.92388,-1,0.382683,-0.92388,1,0.19509,-0.980785,-1,0.19509,-0.980785,1,-0,-1,-1,-0,-1,1,-0.195091,-0.980785,-1,-0.195091,-0.980785,1,-0.382684,-0.923879,-1,-0.382684,-0.923879,1,-0.555571,-0.831469,-1,-0.555571,-0.831469,1,-0.707107,-0.707106,-1,-0.707107,-0.707106,1,-0.83147,-0.55557,-1,-0.83147,-0.55557,1,-0.92388,-0.382683,-1,-0.92388,-0.382683,1,-0.980785,-0.195089,-1,-0.980785,-0.195089,1,-1,1e-06,-1,-1,1e-06,1,-0.980785,0.195091,-1,-0.980785,0.195091,1,-0.923879,0.382684,-1,-0.923879,0.382684,1,-0.831469,0.555571,-1,-0.831469,0.555571,1,-0.707106,0.707108,-1,-0.707106,0.707108,1,-0.555569,0.83147,-1,-0.555569,0.83147,1,-0.382682,0.92388,-1,-0.382682,0.92388,1,-0.195089,0.980786,-1,-0.195089,0.980786,1],
            "uvs": []
        },
        "type": "Geometry",
        "uuid": "25CFB971-609F-3034-9EFB-30A840575B2D"
    },{
        "data": {
            "name": "top.002Geometry",
            "metadata": {
                "faces": 92,
                "generator": "io_three",
                "version": 3,
                "uvs": 0,
                "vertices": 64
            },
            "faces": [1,0,1,3,2,1,2,3,5,4,1,4,5,7,6,1,6,7,9,8,1,8,9,11,10,1,10,11,13,12,1,12,13,15,14,1,14,15,17,16,1,16,17,19,18,1,18,19,21,20,1,20,21,23,22,1,22,23,25,24,1,24,25,27,26,1,26,27,29,28,1,28,29,31,30,1,30,31,33,32,1,32,33,35,34,1,34,35,37,36,1,36,37,39,38,1,38,39,41,40,1,40,41,43,42,1,42,43,45,44,1,44,45,47,46,1,46,47,49,48,1,48,49,51,50,1,50,51,53,52,1,52,53,55,54,1,54,55,57,56,1,56,57,59,58,1,58,59,61,60,0,5,3,1,0,1,63,61,0,61,59,57,0,57,55,53,0,53,51,49,0,49,47,45,0,45,43,41,0,41,39,37,0,37,35,33,0,33,31,29,0,29,27,25,0,25,23,21,0,21,19,17,0,17,15,13,0,13,11,9,0,9,7,5,0,5,1,61,0,61,57,53,0,53,49,45,0,45,41,37,0,37,33,29,0,29,25,21,0,21,17,13,0,13,9,5,0,5,61,53,0,53,45,37,0,37,29,21,0,21,13,5,0,5,53,37,0,37,21,5,1,1,0,62,63,1,60,61,63,62,0,62,0,2,0,2,4,6,0,6,8,10,0,10,12,14,0,14,16,18,0,18,20,22,0,22,24,26,0,26,28,30,0,30,32,34,0,34,36,38,0,38,40,42,0,42,44,46,0,46,48,50,0,50,52,54,0,54,56,58,0,58,60,62,0,62,2,6,0,6,10,14,0,14,18,22,0,22,26,30,0,30,34,38,0,38,42,46,0,46,50,54,0,54,58,62,0,62,6,14,0,14,22,30,0,30,38,46,0,46,54,62,0,62,14,30,0,30,46,62],
            "vertices": [0,1,-1,0,1,1,0.19509,0.980785,-1,0.19509,0.980785,1,0.382683,0.92388,-1,0.382683,0.92388,1,0.55557,0.83147,-1,0.55557,0.83147,1,0.707107,0.707107,-1,0.707107,0.707107,1,0.83147,0.55557,-1,0.83147,0.55557,1,0.92388,0.382683,-1,0.92388,0.382683,1,0.980785,0.19509,-1,0.980785,0.19509,1,1,0,-1,1,0,1,0.980785,-0.19509,-1,0.980785,-0.19509,1,0.92388,-0.382683,-1,0.92388,-0.382683,1,0.83147,-0.55557,-1,0.83147,-0.55557,1,0.707107,-0.707107,-1,0.707107,-0.707107,1,0.55557,-0.83147,-1,0.55557,-0.83147,1,0.382683,-0.92388,-1,0.382683,-0.92388,1,0.19509,-0.980785,-1,0.19509,-0.980785,1,-0,-1,-1,-0,-1,1,-0.195091,-0.980785,-1,-0.195091,-0.980785,1,-0.382684,-0.923879,-1,-0.382684,-0.923879,1,-0.555571,-0.831469,-1,-0.555571,-0.831469,1,-0.707107,-0.707106,-1,-0.707107,-0.707106,1,-0.83147,-0.55557,-1,-0.83147,-0.55557,1,-0.92388,-0.382683,-1,-0.92388,-0.382683,1,-0.980785,-0.195089,-1,-0.980785,-0.195089,1,-1,1e-06,-1,-1,1e-06,1,-0.980785,0.195091,-1,-0.980785,0.195091,1,-0.923879,0.382684,-1,-0.923879,0.382684,1,-0.831469,0.555571,-1,-0.831469,0.555571,1,-0.707106,0.707108,-1,-0.707106,0.707108,1,-0.555569,0.83147,-1,-0.555569,0.83147,1,-0.382682,0.92388,-1,-0.382682,0.92388,1,-0.195089,0.980786,-1,-0.195089,0.980786,1],
            "uvs": []
        },
        "type": "Geometry",
        "uuid": "3C02ECA4-80F4-37C3-B92B-1845EBE7DD5E"
    },{
        "data": {
            "name": "fence_backGeometry.1",
            "metadata": {
                "faces": 12,
                "generator": "io_three",
                "version": 3,
                "uvs": 1,
                "vertices": 16
            },
            "faces": [8,10,4,15,7,0,1,8,15,1,8,1,2,3,8,8,2,9,3,4,5,8,9,3,10,5,6,7,8,10,15,8,7,1,3,8,8,9,10,3,5,7,8,13,0,14,15,8,9,8,11,6,12,11,12,13,8,13,14,5,15,9,10,8,5,11,12,10,11,13,8,12,7,13,13,14,15,8,5,12,13,10,13,15],
            "vertices": [-1,1,1,1,1,1,1,1,-1,0.221967,1,-1,0.221967,1,0.653116,-0.233748,1,0.653116,-0.233748,1,-1,-1,1,-1,1,1,0,0.610984,1,-1,0.221967,1,-0.173442,-0.233748,1,-0.173442,-0.616874,1,-1,-1,1,0,-0.230586,1,1,0.223535,1,1],
            "uvs": [[1.25747,-0.090839,1.26282,-0.404647,3.91253,-0.404647,3.91253,0.5,3.91253,1.40465,2.585,1.40465,1.25747,1.40465,1.25747,0.656904,-2.91253,-0.404647,-0.286879,-0.404647,-0.29767,-0.090839,-0.29767,0.656904,-0.29767,1.40465,-1.6051,1.40465,-2.91253,1.40465,-2.91253,0.5]]
        },
        "type": "Geometry",
        "uuid": "A8AD387C-7E0B-38F2-9D8F-BA7D9F8DC257"
    },{
        "data": {
            "name": "leftGeometry.1",
            "metadata": {
                "faces": 92,
                "generator": "io_three",
                "version": 3,
                "uvs": 0,
                "vertices": 64
            },
            "faces": [1,0,1,3,2,1,2,3,5,4,1,4,5,7,6,1,6,7,9,8,1,8,9,11,10,1,10,11,13,12,1,12,13,15,14,1,14,15,17,16,1,16,17,19,18,1,18,19,21,20,1,20,21,23,22,1,22,23,25,24,1,24,25,27,26,1,26,27,29,28,1,28,29,31,30,1,30,31,33,32,1,32,33,35,34,1,34,35,37,36,1,36,37,39,38,1,38,39,41,40,1,40,41,43,42,1,42,43,45,44,1,44,45,47,46,1,46,47,49,48,1,48,49,51,50,1,50,51,53,52,1,52,53,55,54,1,54,55,57,56,1,56,57,59,58,1,58,59,61,60,0,5,3,1,0,1,63,61,0,61,59,57,0,57,55,53,0,53,51,49,0,49,47,45,0,45,43,41,0,41,39,37,0,37,35,33,0,33,31,29,0,29,27,25,0,25,23,21,0,21,19,17,0,17,15,13,0,13,11,9,0,9,7,5,0,5,1,61,0,61,57,53,0,53,49,45,0,45,41,37,0,37,33,29,0,29,25,21,0,21,17,13,0,13,9,5,0,5,61,53,0,53,45,37,0,37,29,21,0,21,13,5,0,5,53,37,0,37,21,5,1,1,0,62,63,1,60,61,63,62,0,62,0,2,0,2,4,6,0,6,8,10,0,10,12,14,0,14,16,18,0,18,20,22,0,22,24,26,0,26,28,30,0,30,32,34,0,34,36,38,0,38,40,42,0,42,44,46,0,46,48,50,0,50,52,54,0,54,56,58,0,58,60,62,0,62,2,6,0,6,10,14,0,14,18,22,0,22,26,30,0,30,34,38,0,38,42,46,0,46,50,54,0,54,58,62,0,62,6,14,0,14,22,30,0,30,38,46,0,46,54,62,0,62,14,30,0,30,46,62],
            "vertices": [0,1,-1,0,1,1,0.19509,0.980785,-1,0.19509,0.980785,1,0.382683,0.92388,-1,0.382683,0.92388,1,0.55557,0.83147,-1,0.55557,0.83147,1,0.707107,0.707107,-1,0.707107,0.707107,1,0.83147,0.55557,-1,0.83147,0.55557,1,0.92388,0.382683,-1,0.92388,0.382683,1,0.980785,0.19509,-1,0.980785,0.19509,1,1,0,-1,1,0,1,0.980785,-0.19509,-1,0.980785,-0.19509,1,0.92388,-0.382683,-1,0.92388,-0.382683,1,0.83147,-0.55557,-1,0.83147,-0.55557,1,0.707107,-0.707107,-1,0.707107,-0.707107,1,0.55557,-0.83147,-1,0.55557,-0.83147,1,0.382683,-0.92388,-1,0.382683,-0.92388,1,0.19509,-0.980785,-1,0.19509,-0.980785,1,-0,-1,-1,-0,-1,1,-0.195091,-0.980785,-1,-0.195091,-0.980785,1,-0.382684,-0.923879,-1,-0.382684,-0.923879,1,-0.555571,-0.831469,-1,-0.555571,-0.831469,1,-0.707107,-0.707106,-1,-0.707107,-0.707106,1,-0.83147,-0.55557,-1,-0.83147,-0.55557,1,-0.92388,-0.382683,-1,-0.92388,-0.382683,1,-0.980785,-0.195089,-1,-0.980785,-0.195089,1,-1,1e-06,-1,-1,1e-06,1,-0.980785,0.195091,-1,-0.980785,0.195091,1,-0.923879,0.382684,-1,-0.923879,0.382684,1,-0.831469,0.555571,-1,-0.831469,0.555571,1,-0.707106,0.707108,-1,-0.707106,0.707108,1,-0.555569,0.83147,-1,-0.555569,0.83147,1,-0.382682,0.92388,-1,-0.382682,0.92388,1,-0.195089,0.980786,-1,-0.195089,0.980786,1],
            "uvs": []
        },
        "type": "Geometry",
        "uuid": "01C1A477-7C38-3E34-AC5F-BF675433F359"
    },{
        "data": {
            "name": "fenceGeometry.1",
            "metadata": {
                "faces": 6,
                "generator": "io_three",
                "version": 3,
                "uvs": 1,
                "vertices": 10
            },
            "faces": [8,4,9,1,0,1,2,8,2,3,4,3,4,0,8,4,1,2,0,2,3,8,7,0,8,9,5,6,8,8,5,6,6,7,8,8,8,6,7,6,8,9],
            "vertices": [-1,1,1,1,1,1,1,1,-1,0.227858,1,-1,0.227858,1,0.653116,-0.227858,1,0.653116,-0.227858,1,-1,-1,1,-1,-0.23148,1,1,0.22675,1,1],
            "uvs": [[1.27757,-0.090839,1.27379,-0.404647,3.91253,-0.404647,3.91253,1.40465,1.27757,1.40465,-2.91253,-0.404647,-0.289931,-0.404647,-0.277569,-0.090839,-0.277569,1.40465,-2.91253,1.40465]]
        },
        "type": "Geometry",
        "uuid": "00DF304F-3B1E-35D5-BC3E-752F291B7D5C"
    },{
        "data": {
            "name": "topGeometry.2",
            "metadata": {
                "faces": 92,
                "generator": "io_three",
                "version": 3,
                "uvs": 0,
                "vertices": 64
            },
            "faces": [1,0,1,3,2,1,2,3,5,4,1,4,5,7,6,1,6,7,9,8,1,8,9,11,10,1,10,11,13,12,1,12,13,15,14,1,14,15,17,16,1,16,17,19,18,1,18,19,21,20,1,20,21,23,22,1,22,23,25,24,1,24,25,27,26,1,26,27,29,28,1,28,29,31,30,1,30,31,33,32,1,32,33,35,34,1,34,35,37,36,1,36,37,39,38,1,38,39,41,40,1,40,41,43,42,1,42,43,45,44,1,44,45,47,46,1,46,47,49,48,1,48,49,51,50,1,50,51,53,52,1,52,53,55,54,1,54,55,57,56,1,56,57,59,58,1,58,59,61,60,0,5,3,1,0,1,63,61,0,61,59,57,0,57,55,53,0,53,51,49,0,49,47,45,0,45,43,41,0,41,39,37,0,37,35,33,0,33,31,29,0,29,27,25,0,25,23,21,0,21,19,17,0,17,15,13,0,13,11,9,0,9,7,5,0,5,1,61,0,61,57,53,0,53,49,45,0,45,41,37,0,37,33,29,0,29,25,21,0,21,17,13,0,13,9,5,0,5,61,53,0,53,45,37,0,37,29,21,0,21,13,5,0,5,53,37,0,37,21,5,1,1,0,62,63,1,60,61,63,62,0,62,0,2,0,2,4,6,0,6,8,10,0,10,12,14,0,14,16,18,0,18,20,22,0,22,24,26,0,26,28,30,0,30,32,34,0,34,36,38,0,38,40,42,0,42,44,46,0,46,48,50,0,50,52,54,0,54,56,58,0,58,60,62,0,62,2,6,0,6,10,14,0,14,18,22,0,22,26,30,0,30,34,38,0,38,42,46,0,46,50,54,0,54,58,62,0,62,6,14,0,14,22,30,0,30,38,46,0,46,54,62,0,62,14,30,0,30,46,62],
            "vertices": [0,1,-1,0,1,1,0.19509,0.980785,-1,0.19509,0.980785,1,0.382683,0.92388,-1,0.382683,0.92388,1,0.55557,0.83147,-1,0.55557,0.83147,1,0.707107,0.707107,-1,0.707107,0.707107,1,0.83147,0.55557,-1,0.83147,0.55557,1,0.92388,0.382683,-1,0.92388,0.382683,1,0.980785,0.19509,-1,0.980785,0.19509,1,1,0,-1,1,0,1,0.980785,-0.19509,-1,0.980785,-0.19509,1,0.92388,-0.382683,-1,0.92388,-0.382683,1,0.83147,-0.55557,-1,0.83147,-0.55557,1,0.707107,-0.707107,-1,0.707107,-0.707107,1,0.55557,-0.83147,-1,0.55557,-0.83147,1,0.382683,-0.92388,-1,0.382683,-0.92388,1,0.19509,-0.980785,-1,0.19509,-0.980785,1,-0,-1,-1,-0,-1,1,-0.195091,-0.980785,-1,-0.195091,-0.980785,1,-0.382684,-0.923879,-1,-0.382684,-0.923879,1,-0.555571,-0.831469,-1,-0.555571,-0.831469,1,-0.707107,-0.707106,-1,-0.707107,-0.707106,1,-0.83147,-0.55557,-1,-0.83147,-0.55557,1,-0.92388,-0.382683,-1,-0.92388,-0.382683,1,-0.980785,-0.195089,-1,-0.980785,-0.195089,1,-1,1e-06,-1,-1,1e-06,1,-0.980785,0.195091,-1,-0.980785,0.195091,1,-0.923879,0.382684,-1,-0.923879,0.382684,1,-0.831469,0.555571,-1,-0.831469,0.555571,1,-0.707106,0.707108,-1,-0.707106,0.707108,1,-0.555569,0.83147,-1,-0.555569,0.83147,1,-0.382682,0.92388,-1,-0.382682,0.92388,1,-0.195089,0.980786,-1,-0.195089,0.980786,1],
            "uvs": []
        },
        "type": "Geometry",
        "uuid": "DCC99628-C4AB-34D8-8371-0A656E7400B7"
    },{
        "data": {
            "name": "center.001Geometry.1",
            "metadata": {
                "faces": 92,
                "generator": "io_three",
                "version": 3,
                "uvs": 0,
                "vertices": 64
            },
            "faces": [1,0,1,3,2,1,2,3,5,4,1,4,5,7,6,1,6,7,9,8,1,8,9,11,10,1,10,11,13,12,1,12,13,15,14,1,14,15,17,16,1,16,17,19,18,1,18,19,21,20,1,20,21,23,22,1,22,23,25,24,1,24,25,27,26,1,26,27,29,28,1,28,29,31,30,1,30,31,33,32,1,32,33,35,34,1,34,35,37,36,1,36,37,39,38,1,38,39,41,40,1,40,41,43,42,1,42,43,45,44,1,44,45,47,46,1,46,47,49,48,1,48,49,51,50,1,50,51,53,52,1,52,53,55,54,1,54,55,57,56,1,56,57,59,58,1,58,59,61,60,0,5,3,1,0,1,63,61,0,61,59,57,0,57,55,53,0,53,51,49,0,49,47,45,0,45,43,41,0,41,39,37,0,37,35,33,0,33,31,29,0,29,27,25,0,25,23,21,0,21,19,17,0,17,15,13,0,13,11,9,0,9,7,5,0,5,1,61,0,61,57,53,0,53,49,45,0,45,41,37,0,37,33,29,0,29,25,21,0,21,17,13,0,13,9,5,0,5,61,53,0,53,45,37,0,37,29,21,0,21,13,5,0,5,53,37,0,37,21,5,1,1,0,62,63,1,60,61,63,62,0,62,0,2,0,2,4,6,0,6,8,10,0,10,12,14,0,14,16,18,0,18,20,22,0,22,24,26,0,26,28,30,0,30,32,34,0,34,36,38,0,38,40,42,0,42,44,46,0,46,48,50,0,50,52,54,0,54,56,58,0,58,60,62,0,62,2,6,0,6,10,14,0,14,18,22,0,22,26,30,0,30,34,38,0,38,42,46,0,46,50,54,0,54,58,62,0,62,6,14,0,14,22,30,0,30,38,46,0,46,54,62,0,62,14,30,0,30,46,62],
            "vertices": [0,1,-1,0,1,1,0.19509,0.980785,-1,0.19509,0.980785,1,0.382683,0.92388,-1,0.382683,0.92388,1,0.55557,0.83147,-1,0.55557,0.83147,1,0.707107,0.707107,-1,0.707107,0.707107,1,0.83147,0.55557,-1,0.83147,0.55557,1,0.92388,0.382683,-1,0.92388,0.382683,1,0.980785,0.19509,-1,0.980785,0.19509,1,1,0,-1,1,0,1,0.980785,-0.19509,-1,0.980785,-0.19509,1,0.92388,-0.382683,-1,0.92388,-0.382683,1,0.83147,-0.55557,-1,0.83147,-0.55557,1,0.707107,-0.707107,-1,0.707107,-0.707107,1,0.55557,-0.83147,-1,0.55557,-0.83147,1,0.382683,-0.92388,-1,0.382683,-0.92388,1,0.19509,-0.980785,-1,0.19509,-0.980785,1,-0,-1,-1,-0,-1,1,-0.195091,-0.980785,-1,-0.195091,-0.980785,1,-0.382684,-0.923879,-1,-0.382684,-0.923879,1,-0.555571,-0.831469,-1,-0.555571,-0.831469,1,-0.707107,-0.707106,-1,-0.707107,-0.707106,1,-0.83147,-0.55557,-1,-0.83147,-0.55557,1,-0.92388,-0.382683,-1,-0.92388,-0.382683,1,-0.980785,-0.195089,-1,-0.980785,-0.195089,1,-1,1e-06,-1,-1,1e-06,1,-0.980785,0.195091,-1,-0.980785,0.195091,1,-0.923879,0.382684,-1,-0.923879,0.382684,1,-0.831469,0.555571,-1,-0.831469,0.555571,1,-0.707106,0.707108,-1,-0.707106,0.707108,1,-0.555569,0.83147,-1,-0.555569,0.83147,1,-0.382682,0.92388,-1,-0.382682,0.92388,1,-0.195089,0.980786,-1,-0.195089,0.980786,1],
            "uvs": []
        },
        "type": "Geometry",
        "uuid": "C2616229-F6CB-3048-838A-EB436CF18552"
    },{
        "data": {
            "name": "rightGeometry.1",
            "metadata": {
                "faces": 92,
                "generator": "io_three",
                "version": 3,
                "uvs": 0,
                "vertices": 64
            },
            "faces": [1,0,1,3,2,1,2,3,5,4,1,4,5,7,6,1,6,7,9,8,1,8,9,11,10,1,10,11,13,12,1,12,13,15,14,1,14,15,17,16,1,16,17,19,18,1,18,19,21,20,1,20,21,23,22,1,22,23,25,24,1,24,25,27,26,1,26,27,29,28,1,28,29,31,30,1,30,31,33,32,1,32,33,35,34,1,34,35,37,36,1,36,37,39,38,1,38,39,41,40,1,40,41,43,42,1,42,43,45,44,1,44,45,47,46,1,46,47,49,48,1,48,49,51,50,1,50,51,53,52,1,52,53,55,54,1,54,55,57,56,1,56,57,59,58,1,58,59,61,60,0,5,3,1,0,1,63,61,0,61,59,57,0,57,55,53,0,53,51,49,0,49,47,45,0,45,43,41,0,41,39,37,0,37,35,33,0,33,31,29,0,29,27,25,0,25,23,21,0,21,19,17,0,17,15,13,0,13,11,9,0,9,7,5,0,5,1,61,0,61,57,53,0,53,49,45,0,45,41,37,0,37,33,29,0,29,25,21,0,21,17,13,0,13,9,5,0,5,61,53,0,53,45,37,0,37,29,21,0,21,13,5,0,5,53,37,0,37,21,5,1,1,0,62,63,1,60,61,63,62,0,62,0,2,0,2,4,6,0,6,8,10,0,10,12,14,0,14,16,18,0,18,20,22,0,22,24,26,0,26,28,30,0,30,32,34,0,34,36,38,0,38,40,42,0,42,44,46,0,46,48,50,0,50,52,54,0,54,56,58,0,58,60,62,0,62,2,6,0,6,10,14,0,14,18,22,0,22,26,30,0,30,34,38,0,38,42,46,0,46,50,54,0,54,58,62,0,62,6,14,0,14,22,30,0,30,38,46,0,46,54,62,0,62,14,30,0,30,46,62],
            "vertices": [0,1,-1,0,1,1,0.19509,0.980785,-1,0.19509,0.980785,1,0.382683,0.92388,-1,0.382683,0.92388,1,0.55557,0.83147,-1,0.55557,0.83147,1,0.707107,0.707107,-1,0.707107,0.707107,1,0.83147,0.55557,-1,0.83147,0.55557,1,0.92388,0.382683,-1,0.92388,0.382683,1,0.980785,0.19509,-1,0.980785,0.19509,1,1,0,-1,1,0,1,0.980785,-0.19509,-1,0.980785,-0.19509,1,0.92388,-0.382683,-1,0.92388,-0.382683,1,0.83147,-0.55557,-1,0.83147,-0.55557,1,0.707107,-0.707107,-1,0.707107,-0.707107,1,0.55557,-0.83147,-1,0.55557,-0.83147,1,0.382683,-0.92388,-1,0.382683,-0.92388,1,0.19509,-0.980785,-1,0.19509,-0.980785,1,-0,-1,-1,-0,-1,1,-0.195091,-0.980785,-1,-0.195091,-0.980785,1,-0.382684,-0.923879,-1,-0.382684,-0.923879,1,-0.555571,-0.831469,-1,-0.555571,-0.831469,1,-0.707107,-0.707106,-1,-0.707107,-0.707106,1,-0.83147,-0.55557,-1,-0.83147,-0.55557,1,-0.92388,-0.382683,-1,-0.92388,-0.382683,1,-0.980785,-0.195089,-1,-0.980785,-0.195089,1,-1,1e-06,-1,-1,1e-06,1,-0.980785,0.195091,-1,-0.980785,0.195091,1,-0.923879,0.382684,-1,-0.923879,0.382684,1,-0.831469,0.555571,-1,-0.831469,0.555571,1,-0.707106,0.707108,-1,-0.707106,0.707108,1,-0.555569,0.83147,-1,-0.555569,0.83147,1,-0.382682,0.92388,-1,-0.382682,0.92388,1,-0.195089,0.980786,-1,-0.195089,0.980786,1],
            "uvs": []
        },
        "type": "Geometry",
        "uuid": "5CF260AA-0326-3079-AFD9-E1094A2C6435"
    }]
}