{
    "object": {
        "children": [{
            "name": "center",
            "uuid": "FD1A4F35-9B23-3F22-8094-3ACC5AECB066",
            "matrix": [-0.006445,0,0,0,0,0,0.006445,0,0,0.496984,0,0,-0.340777,0.497969,-0.003301,1],
            "visible": true,
            "type": "Mesh",
            "material": "1C3C67BB-DF84-30A1-9A2E-3BB8B56AF0B1",
            "castShadow": true,
            "receiveShadow": true,
            "geometry": "8BAE3A99-976B-34D6-805B-B2105743CC8A"
        },{
            "name": "center.001",
            "uuid": "0343282B-D5FE-344D-B1CC-4286397EA449",
            "matrix": [-0.006445,0,0,0,0,0,0.006445,0,0,0.496984,0,0,0.347485,0.497969,-0.003301,1],
            "visible": true,
            "type": "Mesh",
            "material": "1C3C67BB-DF84-30A1-9A2E-3BB8B56AF0B1",
            "castShadow": true,
            "receiveShadow": true,
            "geometry": "E09D326D-44A2-394D-949B-6B38D6D6659D"
        },{
            "name": "fence",
            "uuid": "A234F9D4-E012-373C-B5DD-B4CAC34D6662",
            "matrix": [-1.5,0,0,0,0,0,0.02,0,0,0.5,0,0,0,0.5,-0.02241,1],
            "visible": true,
            "type": "Mesh",
            "material": "A234F9D4-E012-373C-B5DD-B4CAC34D6662",
            "castShadow": true,
            "receiveShadow": true,
            "geometry": "FA420B95-C4A5-364D-84CA-5084B8056603"
        },{
            "name": "fence_back",
            "uuid": "1A3A74F6-229B-3EFA-852C-12A8D81BFE51",
            "matrix": [1.5,0,-0,0,-0,0,-0.02,0,0,0.5,0,0,0.008836,0.5,0.021768,1],
            "visible": true,
            "type": "Mesh",
            "material": "A234F9D4-E012-373C-B5DD-B4CAC34D6662",
            "castShadow": true,
            "receiveShadow": true,
            "geometry": "397B8C9D-627B-33CE-A23C-2C0212A347A1"
        },{
            "name": "left",
            "uuid": "EEA62317-373C-3EF5-A763-3C1FEA500E22",
            "matrix": [-0.006445,0,0,0,0,0,0.006445,0,0,0.496984,0,0,-1.49848,0.499735,-8.8e-05,1],
            "visible": true,
            "type": "Mesh",
            "material": "1C3C67BB-DF84-30A1-9A2E-3BB8B56AF0B1",
            "castShadow": true,
            "receiveShadow": true,
            "geometry": "B212C84A-1EC7-3CC2-AD1F-35A8060A43EB"
        },{
            "name": "right",
            "uuid": "0496A331-9D93-3D8B-9AC0-B63F998932CA",
            "matrix": [-0.006445,0,0,0,0,0,0.006445,0,0,0.496984,0,0,1.50643,0.499735,-8.8e-05,1],
            "visible": true,
            "type": "Mesh",
            "material": "1C3C67BB-DF84-30A1-9A2E-3BB8B56AF0B1",
            "castShadow": true,
            "receiveShadow": true,
            "geometry": "93F90FBE-51CF-390B-9429-985A9989A728"
        },{
            "name": "top",
            "uuid": "58D7A27D-AF9D-34DA-ACBD-3A2D37BE95AD",
            "matrix": [0,-0.006445,0,0,0,0,0.006445,0,-1.50956,-0,0,0,0.001012,0.992648,-8.8e-05,1],
            "visible": true,
            "type": "Mesh",
            "material": "1C3C67BB-DF84-30A1-9A2E-3BB8B56AF0B1",
            "castShadow": true,
            "receiveShadow": true,
            "geometry": "EB8F5073-5784-3C79-AA8F-9697C82AAA34"
        },{
            "name": "top.001",
            "uuid": "321E44E0-74A6-360E-9925-88F421488A78",
            "matrix": [0,-0.006445,0,0,0,0,0.006445,0,-0.338631,-0,0,0,0.001012,0.833208,-8.8e-05,1],
            "visible": true,
            "type": "Mesh",
            "material": "1C3C67BB-DF84-30A1-9A2E-3BB8B56AF0B1",
            "castShadow": true,
            "receiveShadow": true,
            "geometry": "9972798E-FF33-3999-8A73-94F84A4B4890"
        }],
        "matrix": [1,0,0,0,0,1,0,0,0,0,1,0,0,0,0,1],
        "type": "Scene",
        "uuid": "F3E5FBA9-3945-493B-9FBB-F495692198C7"
    },
    "animations": [{
        "tracks": [],
        "fps": 24,
        "name": "default"
    }],
    "images": [{
        "url": "fence.png",
        "name": "fence.png",
        "uuid": "8F59C164-7E22-336C-A769-038A2A5EEFEB"
    }],
    "metadata": {
        "sourceFile": "fence2_door.blend",
        "generator": "io_three",
        "version": 4.4,
        "type": "Object"
    },
    "textures": [{
        "minFilter": 1008,
        "image": "8F59C164-7E22-336C-A769-038A2A5EEFEB",
        "name": "fence",
        "repeat": [1,1],
        "anisotropy": 1,
        "magFilter": 1006,
        "mapping": 300,
        "wrap": [1000,1000],
        "uuid": "A234F9D4-E012-373C-B5DD-B4CAC34D6662"
    }],
    "materials": [{
        "side": 2,
        "specular": 7763574,
        "name": "fence",
        "map": "A234F9D4-E012-373C-B5DD-B4CAC34D6662",
        "vertexColors": false,
        "depthWrite": true,
        "uuid": "A234F9D4-E012-373C-B5DD-B4CAC34D6662",
        "color": 10724259,
        "emissive": 0,
        "shininess": 50,
        "blending": "NormalBlending",
        "ambient": 10724259,
        "depthTest": true,
        "transparent": true,
        "type": "MeshPhongMaterial"
    },{
        "side": 2,
        "specular": 10724259,
        "name": "fence_top",
        "vertexColors": false,
        "uuid": "1C3C67BB-DF84-30A1-9A2E-3BB8B56AF0B1",
        "color": 8224125,
        "emissive": 0,
        "shininess": 19,
        "blending": "NormalBlending",
        "ambient": 8224125,
        "depthTest": true,
        "depthWrite": true,
        "type": "MeshPhongMaterial"
    }],
    "geometries": [{
        "data": {
            "name": "leftGeometry",
            "metadata": {
                "faces": 92,
                "generator": "io_three",
                "version": 3,
                "uvs": 0,
                "vertices": 64
            },
            "faces": [1,0,1,3,2,1,2,3,5,4,1,4,5,7,6,1,6,7,9,8,1,8,9,11,10,1,10,11,13,12,1,12,13,15,14,1,14,15,17,16,1,16,17,19,18,1,18,19,21,20,1,20,21,23,22,1,22,23,25,24,1,24,25,27,26,1,26,27,29,28,1,28,29,31,30,1,30,31,33,32,1,32,33,35,34,1,34,35,37,36,1,36,37,39,38,1,38,39,41,40,1,40,41,43,42,1,42,43,45,44,1,44,45,47,46,1,46,47,49,48,1,48,49,51,50,1,50,51,53,52,1,52,53,55,54,1,54,55,57,56,1,56,57,59,58,1,58,59,61,60,0,5,3,1,0,1,63,61,0,61,59,57,0,57,55,53,0,53,51,49,0,49,47,45,0,45,43,41,0,41,39,37,0,37,35,33,0,33,31,29,0,29,27,25,0,25,23,21,0,21,19,17,0,17,15,13,0,13,11,9,0,9,7,5,0,5,1,61,0,61,57,53,0,53,49,45,0,45,41,37,0,37,33,29,0,29,25,21,0,21,17,13,0,13,9,5,0,5,61,53,0,53,45,37,0,37,29,21,0,21,13,5,0,5,53,37,0,37,21,5,1,1,0,62,63,1,60,61,63,62,0,62,0,2,0,2,4,6,0,6,8,10,0,10,12,14,0,14,16,18,0,18,20,22,0,22,24,26,0,26,28,30,0,30,32,34,0,34,36,38,0,38,40,42,0,42,44,46,0,46,48,50,0,50,52,54,0,54,56,58,0,58,60,62,0,62,2,6,0,6,10,14,0,14,18,22,0,22,26,30,0,30,34,38,0,38,42,46,0,46,50,54,0,54,58,62,0,62,6,14,0,14,22,30,0,30,38,46,0,46,54,62,0,62,14,30,0,30,46,62],
            "vertices": [0,1,-1,0,1,1,0.19509,0.980785,-1,0.19509,0.980785,1,0.382683,0.92388,-1,0.382683,0.92388,1,0.55557,0.83147,-1,0.55557,0.83147,1,0.707107,0.707107,-1,0.707107,0.707107,1,0.83147,0.55557,-1,0.83147,0.55557,1,0.92388,0.382683,-1,0.92388,0.382683,1,0.980785,0.19509,-1,0.980785,0.19509,1,1,0,-1,1,0,1,0.980785,-0.19509,-1,0.980785,-0.19509,1,0.92388,-0.382683,-1,0.92388,-0.382683,1,0.83147,-0.55557,-1,0.83147,-0.55557,1,0.707107,-0.707107,-1,0.707107,-0.707107,1,0.55557,-0.83147,-1,0.55557,-0.83147,1,0.382683,-0.92388,-1,0.382683,-0.92388,1,0.19509,-0.980785,-1,0.19509,-0.980785,1,-0,-1,-1,-0,-1,1,-0.195091,-0.980785,-1,-0.195091,-0.980785,1,-0.382684,-0.923879,-1,-0.382684,-0.923879,1,-0.555571,-0.831469,-1,-0.555571,-0.831469,1,-0.707107,-0.707106,-1,-0.707107,-0.707106,1,-0.83147,-0.55557,-1,-0.83147,-0.55557,1,-0.92388,-0.382683,-1,-0.92388,-0.382683,1,-0.980785,-0.195089,-1,-0.980785,-0.195089,1,-1,1e-06,-1,-1,1e-06,1,-0.980785,0.195091,-1,-0.980785,0.195091,1,-0.923879,0.382684,-1,-0.923879,0.382684,1,-0.831469,0.555571,-1,-0.831469,0.555571,1,-0.707106,0.707108,-1,-0.707106,0.707108,1,-0.555569,0.83147,-1,-0.555569,0.83147,1,-0.382682,0.92388,-1,-0.382682,0.92388,1,-0.195089,0.980786,-1,-0.195089,0.980786,1],
            "uvs": []
        },
        "type": "Geometry",
        "uuid": "B212C84A-1EC7-3CC2-AD1F-35A8060A43EB"
    },{
        "data": {
            "name": "rightGeometry",
            "metadata": {
                "faces": 92,
                "generator": "io_three",
                "version": 3,
                "uvs": 0,
                "vertices": 64
            },
            "faces": [1,0,1,3,2,1,2,3,5,4,1,4,5,7,6,1,6,7,9,8,1,8,9,11,10,1,10,11,13,12,1,12,13,15,14,1,14,15,17,16,1,16,17,19,18,1,18,19,21,20,1,20,21,23,22,1,22,23,25,24,1,24,25,27,26,1,26,27,29,28,1,28,29,31,30,1,30,31,33,32,1,32,33,35,34,1,34,35,37,36,1,36,37,39,38,1,38,39,41,40,1,40,41,43,42,1,42,43,45,44,1,44,45,47,46,1,46,47,49,48,1,48,49,51,50,1,50,51,53,52,1,52,53,55,54,1,54,55,57,56,1,56,57,59,58,1,58,59,61,60,0,5,3,1,0,1,63,61,0,61,59,57,0,57,55,53,0,53,51,49,0,49,47,45,0,45,43,41,0,41,39,37,0,37,35,33,0,33,31,29,0,29,27,25,0,25,23,21,0,21,19,17,0,17,15,13,0,13,11,9,0,9,7,5,0,5,1,61,0,61,57,53,0,53,49,45,0,45,41,37,0,37,33,29,0,29,25,21,0,21,17,13,0,13,9,5,0,5,61,53,0,53,45,37,0,37,29,21,0,21,13,5,0,5,53,37,0,37,21,5,1,1,0,62,63,1,60,61,63,62,0,62,0,2,0,2,4,6,0,6,8,10,0,10,12,14,0,14,16,18,0,18,20,22,0,22,24,26,0,26,28,30,0,30,32,34,0,34,36,38,0,38,40,42,0,42,44,46,0,46,48,50,0,50,52,54,0,54,56,58,0,58,60,62,0,62,2,6,0,6,10,14,0,14,18,22,0,22,26,30,0,30,34,38,0,38,42,46,0,46,50,54,0,54,58,62,0,62,6,14,0,14,22,30,0,30,38,46,0,46,54,62,0,62,14,30,0,30,46,62],
            "vertices": [0,1,-1,0,1,1,0.19509,0.980785,-1,0.19509,0.980785,1,0.382683,0.92388,-1,0.382683,0.92388,1,0.55557,0.83147,-1,0.55557,0.83147,1,0.707107,0.707107,-1,0.707107,0.707107,1,0.83147,0.55557,-1,0.83147,0.55557,1,0.92388,0.382683,-1,0.92388,0.382683,1,0.980785,0.19509,-1,0.980785,0.19509,1,1,0,-1,1,0,1,0.980785,-0.19509,-1,0.980785,-0.19509,1,0.92388,-0.382683,-1,0.92388,-0.382683,1,0.83147,-0.55557,-1,0.83147,-0.55557,1,0.707107,-0.707107,-1,0.707107,-0.707107,1,0.55557,-0.83147,-1,0.55557,-0.83147,1,0.382683,-0.92388,-1,0.382683,-0.92388,1,0.19509,-0.980785,-1,0.19509,-0.980785,1,-0,-1,-1,-0,-1,1,-0.195091,-0.980785,-1,-0.195091,-0.980785,1,-0.382684,-0.923879,-1,-0.382684,-0.923879,1,-0.555571,-0.831469,-1,-0.555571,-0.831469,1,-0.707107,-0.707106,-1,-0.707107,-0.707106,1,-0.83147,-0.55557,-1,-0.83147,-0.55557,1,-0.92388,-0.382683,-1,-0.92388,-0.382683,1,-0.980785,-0.195089,-1,-0.980785,-0.195089,1,-1,1e-06,-1,-1,1e-06,1,-0.980785,0.195091,-1,-0.980785,0.195091,1,-0.923879,0.382684,-1,-0.923879,0.382684,1,-0.831469,0.555571,-1,-0.831469,0.555571,1,-0.707106,0.707108,-1,-0.707106,0.707108,1,-0.555569,0.83147,-1,-0.555569,0.83147,1,-0.382682,0.92388,-1,-0.382682,0.92388,1,-0.195089,0.980786,-1,-0.195089,0.980786,1],
            "uvs": []
        },
        "type": "Geometry",
        "uuid": "93F90FBE-51CF-390B-9429-985A9989A728"
    },{
        "data": {
            "name": "fence_backGeometry",
            "metadata": {
                "faces": 6,
                "generator": "io_three",
                "version": 3,
                "uvs": 1,
                "vertices": 8
            },
            "faces": [8,1,2,3,1,2,3,8,6,7,0,6,7,0,8,1,3,4,1,3,4,8,5,6,0,5,6,0,8,0,1,4,0,1,4,8,0,4,5,0,4,5],
            "vertices": [-1,1,1,1,1,1,1,1,-1,0.221967,1,-1,0.221967,1,0.653116,-0.233748,1,0.653116,-0.233748,1,-1,-1,1,-1],
            "uvs": [[-2.91253,-0.404647,3.91253,-0.404647,3.91253,1.40465,1.25747,1.40465,1.25747,-0.090839,-0.29767,-0.090839,-0.29767,1.40465,-2.91253,1.40465]]
        },
        "type": "Geometry",
        "uuid": "397B8C9D-627B-33CE-A23C-2C0212A347A1"
    },{
        "data": {
            "name": "topGeometry.1",
            "metadata": {
                "faces": 92,
                "generator": "io_three",
                "version": 3,
                "uvs": 0,
                "vertices": 64
            },
            "faces": [1,0,1,3,2,1,2,3,5,4,1,4,5,7,6,1,6,7,9,8,1,8,9,11,10,1,10,11,13,12,1,12,13,15,14,1,14,15,17,16,1,16,17,19,18,1,18,19,21,20,1,20,21,23,22,1,22,23,25,24,1,24,25,27,26,1,26,27,29,28,1,28,29,31,30,1,30,31,33,32,1,32,33,35,34,1,34,35,37,36,1,36,37,39,38,1,38,39,41,40,1,40,41,43,42,1,42,43,45,44,1,44,45,47,46,1,46,47,49,48,1,48,49,51,50,1,50,51,53,52,1,52,53,55,54,1,54,55,57,56,1,56,57,59,58,1,58,59,61,60,0,5,3,1,0,1,63,61,0,61,59,57,0,57,55,53,0,53,51,49,0,49,47,45,0,45,43,41,0,41,39,37,0,37,35,33,0,33,31,29,0,29,27,25,0,25,23,21,0,21,19,17,0,17,15,13,0,13,11,9,0,9,7,5,0,5,1,61,0,61,57,53,0,53,49,45,0,45,41,37,0,37,33,29,0,29,25,21,0,21,17,13,0,13,9,5,0,5,61,53,0,53,45,37,0,37,29,21,0,21,13,5,0,5,53,37,0,37,21,5,1,1,0,62,63,1,60,61,63,62,0,62,0,2,0,2,4,6,0,6,8,10,0,10,12,14,0,14,16,18,0,18,20,22,0,22,24,26,0,26,28,30,0,30,32,34,0,34,36,38,0,38,40,42,0,42,44,46,0,46,48,50,0,50,52,54,0,54,56,58,0,58,60,62,0,62,2,6,0,6,10,14,0,14,18,22,0,22,26,30,0,30,34,38,0,38,42,46,0,46,50,54,0,54,58,62,0,62,6,14,0,14,22,30,0,30,38,46,0,46,54,62,0,62,14,30,0,30,46,62],
            "vertices": [0,1,-1,0,1,1,0.19509,0.980785,-1,0.19509,0.980785,1,0.382683,0.92388,-1,0.382683,0.92388,1,0.55557,0.83147,-1,0.55557,0.83147,1,0.707107,0.707107,-1,0.707107,0.707107,1,0.83147,0.55557,-1,0.83147,0.55557,1,0.92388,0.382683,-1,0.92388,0.382683,1,0.980785,0.19509,-1,0.980785,0.19509,1,1,0,-1,1,0,1,0.980785,-0.19509,-1,0.980785,-0.19509,1,0.92388,-0.382683,-1,0.92388,-0.382683,1,0.83147,-0.55557,-1,0.83147,-0.55557,1,0.707107,-0.707107,-1,0.707107,-0.707107,1,0.55557,-0.83147,-1,0.55557,-0.83147,1,0.382683,-0.92388,-1,0.382683,-0.92388,1,0.19509,-0.980785,-1,0.19509,-0.980785,1,-0,-1,-1,-0,-1,1,-0.195091,-0.980785,-1,-0.195091,-0.980785,1,-0.382684,-0.923879,-1,-0.382684,-0.923879,1,-0.555571,-0.831469,-1,-0.555571,-0.831469,1,-0.707107,-0.707106,-1,-0.707107,-0.707106,1,-0.83147,-0.55557,-1,-0.83147,-0.55557,1,-0.92388,-0.382683,-1,-0.92388,-0.382683,1,-0.980785,-0.195089,-1,-0.980785,-0.195089,1,-1,1e-06,-1,-1,1e-06,1,-0.980785,0.195091,-1,-0.980785,0.195091,1,-0.923879,0.382684,-1,-0.923879,0.382684,1,-0.831469,0.555571,-1,-0.831469,0.555571,1,-0.707106,0.707108,-1,-0.707106,0.707108,1,-0.555569,0.83147,-1,-0.555569,0.83147,1,-0.382682,0.92388,-1,-0.382682,0.92388,1,-0.195089,0.980786,-1,-0.195089,0.980786,1],
            "uvs": []
        },
        "type": "Geometry",
        "uuid": "EB8F5073-5784-3C79-AA8F-9697C82AAA34"
    },{
        "data": {
            "name": "center.001Geometry",
            "metadata": {
                "faces": 92,
                "generator": "io_three",
                "version": 3,
                "uvs": 0,
                "vertices": 64
            },
            "faces": [1,0,1,3,2,1,2,3,5,4,1,4,5,7,6,1,6,7,9,8,1,8,9,11,10,1,10,11,13,12,1,12,13,15,14,1,14,15,17,16,1,16,17,19,18,1,18,19,21,20,1,20,21,23,22,1,22,23,25,24,1,24,25,27,26,1,26,27,29,28,1,28,29,31,30,1,30,31,33,32,1,32,33,35,34,1,34,35,37,36,1,36,37,39,38,1,38,39,41,40,1,40,41,43,42,1,42,43,45,44,1,44,45,47,46,1,46,47,49,48,1,48,49,51,50,1,50,51,53,52,1,52,53,55,54,1,54,55,57,56,1,56,57,59,58,1,58,59,61,60,0,5,3,1,0,1,63,61,0,61,59,57,0,57,55,53,0,53,51,49,0,49,47,45,0,45,43,41,0,41,39,37,0,37,35,33,0,33,31,29,0,29,27,25,0,25,23,21,0,21,19,17,0,17,15,13,0,13,11,9,0,9,7,5,0,5,1,61,0,61,57,53,0,53,49,45,0,45,41,37,0,37,33,29,0,29,25,21,0,21,17,13,0,13,9,5,0,5,61,53,0,53,45,37,0,37,29,21,0,21,13,5,0,5,53,37,0,37,21,5,1,1,0,62,63,1,60,61,63,62,0,62,0,2,0,2,4,6,0,6,8,10,0,10,12,14,0,14,16,18,0,18,20,22,0,22,24,26,0,26,28,30,0,30,32,34,0,34,36,38,0,38,40,42,0,42,44,46,0,46,48,50,0,50,52,54,0,54,56,58,0,58,60,62,0,62,2,6,0,6,10,14,0,14,18,22,0,22,26,30,0,30,34,38,0,38,42,46,0,46,50,54,0,54,58,62,0,62,6,14,0,14,22,30,0,30,38,46,0,46,54,62,0,62,14,30,0,30,46,62],
            "vertices": [0,1,-1,0,1,1,0.19509,0.980785,-1,0.19509,0.980785,1,0.382683,0.92388,-1,0.382683,0.92388,1,0.55557,0.83147,-1,0.55557,0.83147,1,0.707107,0.707107,-1,0.707107,0.707107,1,0.83147,0.55557,-1,0.83147,0.55557,1,0.92388,0.382683,-1,0.92388,0.382683,1,0.980785,0.19509,-1,0.980785,0.19509,1,1,0,-1,1,0,1,0.980785,-0.19509,-1,0.980785,-0.19509,1,0.92388,-0.382683,-1,0.92388,-0.382683,1,0.83147,-0.55557,-1,0.83147,-0.55557,1,0.707107,-0.707107,-1,0.707107,-0.707107,1,0.55557,-0.83147,-1,0.55557,-0.83147,1,0.382683,-0.92388,-1,0.382683,-0.92388,1,0.19509,-0.980785,-1,0.19509,-0.980785,1,-0,-1,-1,-0,-1,1,-0.195091,-0.980785,-1,-0.195091,-0.980785,1,-0.382684,-0.923879,-1,-0.382684,-0.923879,1,-0.555571,-0.831469,-1,-0.555571,-0.831469,1,-0.707107,-0.707106,-1,-0.707107,-0.707106,1,-0.83147,-0.55557,-1,-0.83147,-0.55557,1,-0.92388,-0.382683,-1,-0.92388,-0.382683,1,-0.980785,-0.195089,-1,-0.980785,-0.195089,1,-1,1e-06,-1,-1,1e-06,1,-0.980785,0.195091,-1,-0.980785,0.195091,1,-0.923879,0.382684,-1,-0.923879,0.382684,1,-0.831469,0.555571,-1,-0.831469,0.555571,1,-0.707106,0.707108,-1,-0.707106,0.707108,1,-0.555569,0.83147,-1,-0.555569,0.83147,1,-0.382682,0.92388,-1,-0.382682,0.92388,1,-0.195089,0.980786,-1,-0.195089,0.980786,1],
            "uvs": []
        },
        "type": "Geometry",
        "uuid": "E09D326D-44A2-394D-949B-6B38D6D6659D"
    },{
        "data": {
            "name": "top.001Geometry",
            "metadata": {
                "faces": 92,
                "generator": "io_three",
                "version": 3,
                "uvs": 0,
                "vertices": 64
            },
            "faces": [1,0,1,3,2,1,2,3,5,4,1,4,5,7,6,1,6,7,9,8,1,8,9,11,10,1,10,11,13,12,1,12,13,15,14,1,14,15,17,16,1,16,17,19,18,1,18,19,21,20,1,20,21,23,22,1,22,23,25,24,1,24,25,27,26,1,26,27,29,28,1,28,29,31,30,1,30,31,33,32,1,32,33,35,34,1,34,35,37,36,1,36,37,39,38,1,38,39,41,40,1,40,41,43,42,1,42,43,45,44,1,44,45,47,46,1,46,47,49,48,1,48,49,51,50,1,50,51,53,52,1,52,53,55,54,1,54,55,57,56,1,56,57,59,58,1,58,59,61,60,0,5,3,1,0,1,63,61,0,61,59,57,0,57,55,53,0,53,51,49,0,49,47,45,0,45,43,41,0,41,39,37,0,37,35,33,0,33,31,29,0,29,27,25,0,25,23,21,0,21,19,17,0,17,15,13,0,13,11,9,0,9,7,5,0,5,1,61,0,61,57,53,0,53,49,45,0,45,41,37,0,37,33,29,0,29,25,21,0,21,17,13,0,13,9,5,0,5,61,53,0,53,45,37,0,37,29,21,0,21,13,5,0,5,53,37,0,37,21,5,1,1,0,62,63,1,60,61,63,62,0,62,0,2,0,2,4,6,0,6,8,10,0,10,12,14,0,14,16,18,0,18,20,22,0,22,24,26,0,26,28,30,0,30,32,34,0,34,36,38,0,38,40,42,0,42,44,46,0,46,48,50,0,50,52,54,0,54,56,58,0,58,60,62,0,62,2,6,0,6,10,14,0,14,18,22,0,22,26,30,0,30,34,38,0,38,42,46,0,46,50,54,0,54,58,62,0,62,6,14,0,14,22,30,0,30,38,46,0,46,54,62,0,62,14,30,0,30,46,62],
            "vertices": [0,1,-1,0,1,1,0.19509,0.980785,-1,0.19509,0.980785,1,0.382683,0.92388,-1,0.382683,0.92388,1,0.55557,0.83147,-1,0.55557,0.83147,1,0.707107,0.707107,-1,0.707107,0.707107,1,0.83147,0.55557,-1,0.83147,0.55557,1,0.92388,0.382683,-1,0.92388,0.382683,1,0.980785,0.19509,-1,0.980785,0.19509,1,1,0,-1,1,0,1,0.980785,-0.19509,-1,0.980785,-0.19509,1,0.92388,-0.382683,-1,0.92388,-0.382683,1,0.83147,-0.55557,-1,0.83147,-0.55557,1,0.707107,-0.707107,-1,0.707107,-0.707107,1,0.55557,-0.83147,-1,0.55557,-0.83147,1,0.382683,-0.92388,-1,0.382683,-0.92388,1,0.19509,-0.980785,-1,0.19509,-0.980785,1,-0,-1,-1,-0,-1,1,-0.195091,-0.980785,-1,-0.195091,-0.980785,1,-0.382684,-0.923879,-1,-0.382684,-0.923879,1,-0.555571,-0.831469,-1,-0.555571,-0.831469,1,-0.707107,-0.707106,-1,-0.707107,-0.707106,1,-0.83147,-0.55557,-1,-0.83147,-0.55557,1,-0.92388,-0.382683,-1,-0.92388,-0.382683,1,-0.980785,-0.195089,-1,-0.980785,-0.195089,1,-1,1e-06,-1,-1,1e-06,1,-0.980785,0.195091,-1,-0.980785,0.195091,1,-0.923879,0.382684,-1,-0.923879,0.382684,1,-0.831469,0.555571,-1,-0.831469,0.555571,1,-0.707106,0.707108,-1,-0.707106,0.707108,1,-0.555569,0.83147,-1,-0.555569,0.83147,1,-0.382682,0.92388,-1,-0.382682,0.92388,1,-0.195089,0.980786,-1,-0.195089,0.980786,1],
            "uvs": []
        },
        "type": "Geometry",
        "uuid": "9972798E-FF33-3999-8A73-94F84A4B4890"
    },{
        "data": {
            "name": "fenceGeometry",
            "metadata": {
                "faces": 6,
                "generator": "io_three",
                "version": 3,
                "uvs": 1,
                "vertices": 8
            },
            "faces": [8,1,2,3,1,2,3,8,6,7,0,6,7,0,8,1,3,4,1,3,4,8,5,6,0,5,6,0,8,0,1,4,0,1,4,8,0,4,5,0,4,5],
            "vertices": [-1,1,1,1,1,1,1,1,-1,0.227858,1,-1,0.227858,1,0.653116,-0.227858,1,0.653116,-0.227858,1,-1,-1,1,-1],
            "uvs": [[-2.91253,-0.404647,3.91253,-0.404647,3.91253,1.40465,1.27757,1.40465,1.27757,-0.090839,-0.277569,-0.090839,-0.277569,1.40465,-2.91253,1.40465]]
        },
        "type": "Geometry",
        "uuid": "FA420B95-C4A5-364D-84CA-5084B8056603"
    },{
        "data": {
            "name": "centerGeometry",
            "metadata": {
                "faces": 92,
                "generator": "io_three",
                "version": 3,
                "uvs": 0,
                "vertices": 64
            },
            "faces": [1,0,1,3,2,1,2,3,5,4,1,4,5,7,6,1,6,7,9,8,1,8,9,11,10,1,10,11,13,12,1,12,13,15,14,1,14,15,17,16,1,16,17,19,18,1,18,19,21,20,1,20,21,23,22,1,22,23,25,24,1,24,25,27,26,1,26,27,29,28,1,28,29,31,30,1,30,31,33,32,1,32,33,35,34,1,34,35,37,36,1,36,37,39,38,1,38,39,41,40,1,40,41,43,42,1,42,43,45,44,1,44,45,47,46,1,46,47,49,48,1,48,49,51,50,1,50,51,53,52,1,52,53,55,54,1,54,55,57,56,1,56,57,59,58,1,58,59,61,60,0,5,3,1,0,1,63,61,0,61,59,57,0,57,55,53,0,53,51,49,0,49,47,45,0,45,43,41,0,41,39,37,0,37,35,33,0,33,31,29,0,29,27,25,0,25,23,21,0,21,19,17,0,17,15,13,0,13,11,9,0,9,7,5,0,5,1,61,0,61,57,53,0,53,49,45,0,45,41,37,0,37,33,29,0,29,25,21,0,21,17,13,0,13,9,5,0,5,61,53,0,53,45,37,0,37,29,21,0,21,13,5,0,5,53,37,0,37,21,5,1,1,0,62,63,1,60,61,63,62,0,62,0,2,0,2,4,6,0,6,8,10,0,10,12,14,0,14,16,18,0,18,20,22,0,22,24,26,0,26,28,30,0,30,32,34,0,34,36,38,0,38,40,42,0,42,44,46,0,46,48,50,0,50,52,54,0,54,56,58,0,58,60,62,0,62,2,6,0,6,10,14,0,14,18,22,0,22,26,30,0,30,34,38,0,38,42,46,0,46,50,54,0,54,58,62,0,62,6,14,0,14,22,30,0,30,38,46,0,46,54,62,0,62,14,30,0,30,46,62],
            "vertices": [0,1,-1,0,1,1,0.19509,0.980785,-1,0.19509,0.980785,1,0.382683,0.92388,-1,0.382683,0.92388,1,0.55557,0.83147,-1,0.55557,0.83147,1,0.707107,0.707107,-1,0.707107,0.707107,1,0.83147,0.55557,-1,0.83147,0.55557,1,0.92388,0.382683,-1,0.92388,0.382683,1,0.980785,0.19509,-1,0.980785,0.19509,1,1,0,-1,1,0,1,0.980785,-0.19509,-1,0.980785,-0.19509,1,0.92388,-0.382683,-1,0.92388,-0.382683,1,0.83147,-0.55557,-1,0.83147,-0.55557,1,0.707107,-0.707107,-1,0.707107,-0.707107,1,0.55557,-0.83147,-1,0.55557,-0.83147,1,0.382683,-0.92388,-1,0.382683,-0.92388,1,0.19509,-0.980785,-1,0.19509,-0.980785,1,-0,-1,-1,-0,-1,1,-0.195091,-0.980785,-1,-0.195091,-0.980785,1,-0.382684,-0.923879,-1,-0.382684,-0.923879,1,-0.555571,-0.831469,-1,-0.555571,-0.831469,1,-0.707107,-0.707106,-1,-0.707107,-0.707106,1,-0.83147,-0.55557,-1,-0.83147,-0.55557,1,-0.92388,-0.382683,-1,-0.92388,-0.382683,1,-0.980785,-0.195089,-1,-0.980785,-0.195089,1,-1,1e-06,-1,-1,1e-06,1,-0.980785,0.195091,-1,-0.980785,0.195091,1,-0.923879,0.382684,-1,-0.923879,0.382684,1,-0.831469,0.555571,-1,-0.831469,0.555571,1,-0.707106,0.707108,-1,-0.707106,0.707108,1,-0.555569,0.83147,-1,-0.555569,0.83147,1,-0.382682,0.92388,-1,-0.382682,0.92388,1,-0.195089,0.980786,-1,-0.195089,0.980786,1],
            "uvs": []
        },
        "type": "Geometry",
        "uuid": "8BAE3A99-976B-34D6-805B-B2105743CC8A"
    }]
}